{
  "associatedLayout": "0020_listening_tutorial",
  "name": "0020",
  "instances": [
    {
      "angle": 0,
      "customSize": true,
      "depth": 32,
      "height": 110,
      "layer": "Quest",
      "name": "listening_btnDeer",
      "persistentUuid": "63cb017c-cdc0-467c-8d18-c58f131c3304",
      "width": 309,
      "x": 341,
      "y": 333,
      "zOrder": 1,
      "numberProperties": [],
      "stringProperties": [],
      "initialVariables": []
    },
    {
      "angle": 0,
      "customSize": true,
      "depth": 32,
      "height": 110,
      "layer": "Quest",
      "name": "listening_btnPenguin",
      "persistentUuid": "763ba0f1-0ad5-4c12-bdae-22d79728dba5",
      "width": 309,
      "x": 840,
      "y": 333,
      "zOrder": 2,
      "numberProperties": [],
      "stringProperties": [],
      "initialVariables": []
    },
    {
      "angle": 0,
      "customSize": true,
      "depth": 32,
      "height": 110,
      "layer": "Quest",
      "name": "listening_btnDuck",
      "persistentUuid": "4a4b1741-6cd0-4084-b6e9-829af4ed3024",
      "width": 309,
      "x": 341,
      "y": 616,
      "zOrder": 3,
      "numberProperties": [],
      "stringProperties": [],
      "initialVariables": []
    },
    {
      "angle": 0,
      "customSize": true,
      "depth": 32,
      "height": 110,
      "layer": "Quest",
      "name": "listening_btnLion",
      "persistentUuid": "1466456b-b6ff-46ce-86f3-8228f300ef36",
      "width": 309,
      "x": 840,
      "y": 616,
      "zOrder": 6,
      "numberProperties": [],
      "stringProperties": [],
      "initialVariables": []
    },
    {
      "angle": 0,
      "customSize": true,
      "depth": 216,
      "height": 338,
      "layer": "Quest",
      "name": "listening_speakerQuest0",
      "persistentUuid": "a64c158f-89d4-43b8-a0af-872f1e59755d",
      "width": 345,
      "x": 1270,
      "y": 354,
      "zOrder": 7,
      "numberProperties": [],
      "stringProperties": [],
      "initialVariables": []
    },
    {
      "angle": 270,
      "customSize": true,
      "depth": 1,
      "height": 49,
      "layer": "Quest",
      "name": "rememberCard_tutorialArrowVertical",
      "persistentUuid": "3852fd6c-d829-4dde-aff3-5eba58af808d",
      "width": 85,
      "x": 1404,
      "y": 739,
      "zOrder": 8,
      "numberProperties": [],
      "stringProperties": [],
      "initialVariables": []
    },
    {
      "angle": 0,
      "customSize": false,
      "height": 0,
      "layer": "",
      "name": "listening_tutorText1",
      "persistentUuid": "b0a722f7-9986-450b-a42e-333052da30f2",
      "width": 0,
      "x": 1296,
      "y": 886,
      "zOrder": 9,
      "numberProperties": [],
      "stringProperties": [],
      "initialVariables": []
    },
    {
      "angle": 0,
      "customSize": false,
      "height": 0,
      "layer": "",
      "name": "listening_tutorText2",
      "persistentUuid": "e356db4a-c83c-4b92-be98-f11aab48f606",
      "width": 0,
      "x": 362,
      "y": 876,
      "zOrder": 10,
      "numberProperties": [],
      "stringProperties": [],
      "initialVariables": []
    },
    {
      "angle": 270,
      "customSize": true,
      "depth": 1,
      "height": 77,
      "layer": "Quest",
      "name": "rememberCard_tutorialArrowVertical",
      "persistentUuid": "b10f508a-a666-4be7-9811-af940a2e4cc1",
      "width": 134,
      "x": 679,
      "y": 723,
      "zOrder": 8,
      "numberProperties": [],
      "stringProperties": [],
      "initialVariables": []
    },
    {
      "angle": 0,
      "customSize": true,
      "depth": 1,
      "height": 232,
      "layer": "Quest",
      "name": "listening_lightDeer",
      "persistentUuid": "425ed9ab-8577-462a-9928-aa8bf13cfc4c",
      "width": 232,
      "x": 445,
      "y": 221,
      "zOrder": 11,
      "numberProperties": [],
      "stringProperties": [],
      "initialVariables": []
    },
    {
      "angle": 0,
      "customSize": true,
      "depth": 0,
      "height": 216,
      "layer": "Quest",
      "name": "listening_lightPenguin",
      "persistentUuid": "3bacbff8-dec0-4c27-8fa0-dc09094c8f74",
      "width": 216,
      "x": 947,
      "y": 221,
      "zOrder": 12,
      "numberProperties": [],
      "stringProperties": [],
      "initialVariables": []
    },
    {
      "angle": 0,
      "customSize": true,
      "depth": 0,
      "height": 223,
      "layer": "Quest",
      "name": "listening_lightDuck",
      "persistentUuid": "d64ad5a9-909d-4528-84a8-fe8dcaec1e05",
      "width": 223,
      "x": 445,
      "y": 504,
      "zOrder": 13,
      "numberProperties": [],
      "stringProperties": [],
      "initialVariables": []
    },
    {
      "angle": 0,
      "customSize": true,
      "depth": 1,
      "height": 237,
      "layer": "Quest",
      "name": "listening_lightLion",
      "persistentUuid": "78676990-5524-4120-9a36-280e9a2da8ed",
      "width": 237,
      "x": 947,
      "y": 504,
      "zOrder": 14,
      "numberProperties": [],
      "stringProperties": [],
      "initialVariables": []
    },
    {
      "angle": 0,
      "customSize": false,
      "height": 0,
      "layer": "Quest",
      "name": "listening_tutorText3",
      "persistentUuid": "e60a3cad-5405-4bfc-8a42-11fac81d10f8",
      "width": 0,
      "x": 1402,
      "y": 208,
      "zOrder": 15,
      "numberProperties": [],
      "stringProperties": [],
      "initialVariables": []
    },
    {
      "angle": 180,
      "customSize": true,
      "depth": 0,
      "height": 95,
      "layer": "Quest",
      "name": "rememberCard_tutorialArrowHorizonFalse",
      "persistentUuid": "199db647-9bca-4f7c-9469-a76f410beb15",
      "width": 165,
      "x": 1170,
      "y": 224,
      "zOrder": 16,
      "numberProperties": [],
      "stringProperties": [],
      "initialVariables": []
    },
    {
      "angle": 0,
      "customSize": false,
      "height": 0,
      "layer": "",
      "name": "listening_tutorText4",
      "persistentUuid": "ddf4bf14-4dd2-4ab8-bb9a-df6e2bab39a2",
      "width": 0,
      "x": 1350,
      "y": 861,
      "zOrder": 17,
      "numberProperties": [],
      "stringProperties": [],
      "initialVariables": []
    },
    {
      "angle": 0,
      "customSize": true,
      "depth": 1,
      "height": 172,
      "layer": "",
      "name": "listening_titleGame",
      "persistentUuid": "2ee96ce2-0e4c-4432-b8cb-494dce0aca39",
      "width": 361,
      "x": 576,
      "y": 146,
      "zOrder": 19,
      "numberProperties": [],
      "stringProperties": [],
      "initialVariables": []
    },
    {
      "angle": 0,
      "customSize": true,
      "height": 1111,
      "layer": "Fade",
      "name": "screen_fade",
      "persistentUuid": "2bf652a4-8ef3-4a7f-a6b3-9ffa1685aab9",
      "width": 1958,
      "x": -14,
      "y": -20,
      "zOrder": 1,
      "numberProperties": [],
      "stringProperties": [],
      "initialVariables": []
    }
  ],
  "editionSettings": {
    "grid": false,
    "gridType": "rectangular",
    "gridWidth": 32,
    "gridHeight": 32,
    "gridOffsetX": 0,
    "gridOffsetY": 0,
    "gridColor": 10401023,
    "gridAlpha": 0.8,
    "snap": false,
    "zoomFactor": 0.33005600491659237,
    "windowMask": false
  }
}