{
  "associatedLayout": "0030_rememberCard_tutorial",
  "name": "0030",
  "instances": [
    {
      "angle": 0,
      "customSize": true,
      "height": 1111,
      "layer": "Fade",
      "name": "screen_fade",
      "persistentUuid": "4717174f-8658-4cce-9bb7-fd0914c4ab2a",
      "width": 1958,
      "x": -19,
      "y": -12,
      "zOrder": 1,
      "numberProperties": [],
      "stringProperties": [],
      "initialVariables": []
    },
    {
      "angle": 0,
      "customSize": false,
      "height": 0,
      "layer": "",
      "name": "rememberCard_palceholderPosition",
      "persistentUuid": "4d3d0be7-9686-4c9a-9db2-eb7cef56197f",
      "width": 0,
      "x": 200,
      "y": 400,
      "zOrder": 50,
      "numberProperties": [],
      "stringProperties": [],
      "initialVariables": []
    },
    {
      "angle": 0,
      "customSize": false,
      "height": 0,
      "layer": "",
      "name": "rememberCard_palceholderPosition",
      "persistentUuid": "40f76c80-df21-4a6c-9b96-47a671d261cc",
      "width": 0,
      "x": 500,
      "y": 400,
      "zOrder": 50,
      "numberProperties": [],
      "stringProperties": [],
      "initialVariables": []
    },
    {
      "angle": 0,
      "customSize": false,
      "height": 0,
      "layer": "",
      "name": "rememberCard_palceholderPosition",
      "persistentUuid": "3f192548-2d51-48e1-9a09-61195ae5569e",
      "width": 0,
      "x": 800,
      "y": 400,
      "zOrder": 50,
      "numberProperties": [],
      "stringProperties": [],
      "initialVariables": []
    },
    {
      "angle": 0,
      "customSize": true,
      "depth": 0,
      "height": 290,
      "layer": "",
      "name": "rememberCard_lionCard",
      "persistentUuid": "5a01d1aa-406a-4494-baea-312a60beaca5",
      "width": 195,
      "x": -525,
      "y": 42,
      "zOrder": 50,
      "numberProperties": [],
      "stringProperties": [],
      "initialVariables": []
    },
    {
      "angle": 0,
      "customSize": false,
      "height": 0,
      "layer": "",
      "name": "rememberCard_catCard",
      "persistentUuid": "8a9a6a0e-0a32-4cda-8a2c-bbe1b97bf41b",
      "width": 0,
      "x": -296,
      "y": 76,
      "zOrder": 50,
      "numberProperties": [],
      "stringProperties": [],
      "initialVariables": []
    },
    {
      "angle": 0,
      "customSize": false,
      "height": 0,
      "layer": "",
      "name": "rememberCard_elephantCard",
      "persistentUuid": "db843566-9151-41fe-80e6-4c4ea8366775",
      "width": 0,
      "x": -494,
      "y": 393,
      "zOrder": 50,
      "numberProperties": [],
      "stringProperties": [],
      "initialVariables": []
    },
    {
      "angle": 0,
      "customSize": false,
      "height": 0,
      "layer": "",
      "name": "rememberCard_KeyQuest",
      "persistentUuid": "56004bc0-e373-4a2f-b20f-98983090f49c",
      "width": 0,
      "x": 1260,
      "y": 476,
      "zOrder": 50,
      "numberProperties": [],
      "stringProperties": [],
      "initialVariables": []
    },
    {
      "angle": 270,
      "customSize": true,
      "depth": 2,
      "height": 95,
      "layer": "",
      "name": "rememberCard_tutorialArrowVertical",
      "persistentUuid": "42a2960b-b347-459c-a0a1-6db81b506c40",
      "width": 165,
      "x": 1460,
      "y": 709,
      "zOrder": 50,
      "numberProperties": [],
      "stringProperties": [],
      "initialVariables": []
    },
    {
      "angle": 0,
      "customSize": false,
      "height": 0,
      "layer": "",
      "name": "rememberCard_textTutorial",
      "persistentUuid": "fb48c40f-d48d-4790-b148-04a556487388",
      "width": 0,
      "x": 1305,
      "y": 868,
      "zOrder": 50,
      "numberProperties": [],
      "stringProperties": [],
      "initialVariables": []
    },
    {
      "angle": 270,
      "customSize": true,
      "depth": 2,
      "height": 95,
      "layer": "",
      "name": "rememberCard_tutorialArrowVertical",
      "persistentUuid": "0f7f6aa0-290e-486c-a349-71908506a6dc",
      "width": 165,
      "x": 270,
      "y": 739,
      "zOrder": 50,
      "numberProperties": [],
      "stringProperties": [],
      "initialVariables": []
    },
    {
      "angle": 0,
      "customSize": false,
      "height": 0,
      "layer": "",
      "name": "rememberCard_textTutorial3",
      "persistentUuid": "68d9f91f-7154-4ca5-85f9-db24f735b90f",
      "width": 0,
      "x": 145,
      "y": 918,
      "zOrder": 50,
      "numberProperties": [],
      "stringProperties": [],
      "initialVariables": []
    },
    {
      "angle": 0,
      "customSize": false,
      "height": 0,
      "layer": "",
      "name": "rememberCard_timeRememberTutorial",
      "persistentUuid": "13979450-219d-4384-afce-9410376ebe2c",
      "width": 0,
      "x": 1461,
      "y": 436,
      "zOrder": 50,
      "numberProperties": [],
      "stringProperties": [],
      "initialVariables": []
    },
    {
      "angle": 0,
      "customSize": true,
      "depth": 1,
      "height": 244,
      "layer": "",
      "name": "rememberCard_titleGame",
      "persistentUuid": "a778ec2c-2684-48ca-9f2e-01b20f481a3f",
      "width": 466,
      "x": 1245,
      "y": 143,
      "zOrder": 50,
      "numberProperties": [],
      "stringProperties": [],
      "initialVariables": []
    },
    {
      "angle": 0,
      "customSize": false,
      "height": 0,
      "layer": "",
      "name": "rememberCard_textTutorial4",
      "persistentUuid": "b3c44c91-0572-4352-b983-0dc4884d1898",
      "width": 0,
      "x": 754,
      "y": 804,
      "zOrder": 50,
      "numberProperties": [],
      "stringProperties": [],
      "initialVariables": []
    },
    {
      "angle": 270,
      "customSize": true,
      "depth": 2,
      "height": 67,
      "layer": "",
      "name": "rememberCard_tutorialArrowVertical2",
      "persistentUuid": "4c26698c-57f3-4743-ac99-2ae649f5b6a4",
      "width": 101,
      "x": 858,
      "y": 685,
      "zOrder": 50,
      "numberProperties": [],
      "stringProperties": [],
      "initialVariables": []
    }
  ],
  "editionSettings": {
    "grid": false,
    "gridType": "rectangular",
    "gridWidth": 32,
    "gridHeight": 32,
    "gridOffsetX": 0,
    "gridOffsetY": 0,
    "gridColor": 10401023,
    "gridAlpha": 0.8,
    "snap": false,
    "zoomFactor": 0.3768772036750872,
    "windowMask": false
  }
}