{
  "associatedLayout": "1_L1_P1_01",
  "name": "0_UIMinigame",
  "instances": [
    {
      "angle": 0,
      "customSize": false,
      "height": 0,
      "layer": "",
      "name": "_0_PointTextMG",
      "persistentUuid": "53c5575b-75bc-462a-9f0a-4260ecd676b5",
      "width": 0,
      "x": 1610,
      "y": 896,
      "zOrder": 201,
      "numberProperties": [],
      "stringProperties": [],
      "initialVariables": []
    },
    {
      "angle": 0,
      "customSize": true,
      "depth": 1,
      "height": 128,
      "layer": "",
      "name": "_0_MGPoint",
      "persistentUuid": "7c29ac3b-7e24-408b-b581-ebf705089a4a",
      "width": 130,
      "x": 1440,
      "y": 896,
      "zOrder": 203,
      "numberProperties": [],
      "stringProperties": [],
      "initialVariables": []
    }
  ],
  "editionSettings": {
    "grid": true,
    "gridType": "rectangular",
    "gridWidth": 32,
    "gridHeight": 32,
    "gridOffsetX": 0,
    "gridOffsetY": 0,
    "gridColor": 10401023,
    "gridAlpha": 0.8,
    "snap": true,
    "zoomFactor": 0.270501260396255,
    "windowMask": false
  }
}