{
  "associatedLayout": "1111_picture_lv1_p1",
  "name": "1111",
  "instances": [
    {
      "angle": 360,
      "customSize": true,
      "depth": 2,
      "height": 131,
      "layer": "",
      "name": "picture_penguinPic",
      "persistentUuid": "38d0208c-1ef4-4fd7-a51c-d3e47d7f2431",
      "width": 92,
      "x": 628,
      "y": 492,
      "zOrder": 50,
      "numberProperties": [],
      "stringProperties": [],
      "initialVariables": []
    },
    {
      "angle": 0,
      "customSize": true,
      "depth": 1,
      "height": 113,
      "layer": "",
      "name": "picture_fishPic",
      "persistentUuid": "643f5572-b7d8-4522-b676-678ae1f73f1b",
      "width": 143,
      "x": 329,
      "y": 479,
      "zOrder": 50,
      "numberProperties": [],
      "stringProperties": [],
      "initialVariables": []
    },
    {
      "angle": 0,
      "customSize": true,
      "depth": 2,
      "height": 170,
      "layer": "",
      "name": "picture_duckPic",
      "persistentUuid": "e2959523-f51f-4e51-b17c-a4a0c413c32f",
      "width": 135,
      "x": 809,
      "y": 244,
      "zOrder": 50,
      "numberProperties": [],
      "stringProperties": [],
      "initialVariables": []
    },
    {
      "angle": 0,
      "customSize": false,
      "height": 0,
      "layer": "",
      "name": "picture_penguinText",
      "persistentUuid": "8d3499b7-4752-456c-8e49-817e8806a3f4",
      "width": 0,
      "x": 1338,
      "y": 415,
      "zOrder": 50,
      "numberProperties": [],
      "stringProperties": [],
      "initialVariables": []
    },
    {
      "angle": 0,
      "customSize": true,
      "depth": 1,
      "height": 174,
      "layer": "",
      "name": "picture_elephantPic",
      "persistentUuid": "730ade97-7fce-4476-8083-7a32d44e2263",
      "width": 142,
      "x": 882,
      "y": 536,
      "zOrder": 50,
      "numberProperties": [],
      "stringProperties": [],
      "initialVariables": []
    },
    {
      "angle": 0,
      "customSize": true,
      "depth": 1,
      "height": 142,
      "layer": "",
      "name": "picture_monkeyPic",
      "persistentUuid": "7ada2528-106b-4b32-b7cd-5152ec2efd55",
      "width": 133,
      "x": 586,
      "y": 193,
      "zOrder": 50,
      "numberProperties": [],
      "stringProperties": [],
      "initialVariables": []
    },
    {
      "angle": 0,
      "customSize": true,
      "depth": 2,
      "height": 104,
      "layer": "",
      "name": "picture_mousePic",
      "persistentUuid": "ea8a19a1-d04c-4fc2-a9b5-923646324562",
      "width": 167,
      "x": 519,
      "y": 773,
      "zOrder": 50,
      "numberProperties": [],
      "stringProperties": [],
      "initialVariables": []
    },
    {
      "angle": 0,
      "customSize": false,
      "height": 0,
      "layer": "",
      "name": "picture_elephantText",
      "persistentUuid": "9c553a80-a2df-4130-815c-fa1ed11e0a30",
      "width": 0,
      "x": 1332,
      "y": 540,
      "zOrder": 50,
      "numberProperties": [],
      "stringProperties": [],
      "initialVariables": []
    },
    {
      "angle": 0,
      "customSize": false,
      "height": 0,
      "layer": "",
      "name": "picture_monkeyText",
      "persistentUuid": "d9f48b44-a3cc-45d8-9577-180ef088fa9f",
      "width": 0,
      "x": 1343,
      "y": 677,
      "zOrder": 50,
      "numberProperties": [],
      "stringProperties": [],
      "initialVariables": []
    },
    {
      "angle": 0,
      "customSize": false,
      "height": 0,
      "layer": "",
      "name": "picture_timePlay",
      "persistentUuid": "7aeea84c-9cfb-4928-9ca1-dbcfd4821bdf",
      "width": 0,
      "x": 1679,
      "y": 42,
      "zOrder": 50,
      "numberProperties": [],
      "stringProperties": [],
      "initialVariables": []
    },
    {
      "angle": 0,
      "customSize": true,
      "height": 1111,
      "layer": "Fade",
      "name": "screen_fade",
      "persistentUuid": "8f7377dd-3fb5-42df-b319-a190e38af7c4",
      "width": 1958,
      "x": -17,
      "y": -14,
      "zOrder": 1,
      "numberProperties": [],
      "stringProperties": [],
      "initialVariables": []
    }
  ],
  "editionSettings": {
    "grid": false,
    "gridType": "rectangular",
    "gridWidth": 32,
    "gridHeight": 32,
    "gridOffsetX": 0,
    "gridOffsetY": 0,
    "gridColor": 10401023,
    "gridAlpha": 0.8,
    "snap": false,
    "zoomFactor": 0.2616774116992149,
    "windowMask": false
  }
}