{
  "associatedLayout": "3121_listening_lv1_p5",
  "name": "3121",
  "instances": [
    {
      "angle": 0,
      "customSize": true,
      "depth": 216,
      "height": 338,
      "layer": "Quest",
      "name": "listening_speakerQuest5",
      "persistentUuid": "913b359a-535b-468f-bd22-11f7f49154a2",
      "width": 345,
      "x": 1454,
      "y": 388,
      "zOrder": 50,
      "numberProperties": [],
      "stringProperties": [],
      "initialVariables": []
    },
    {
      "angle": 0,
      "customSize": true,
      "depth": 1,
      "height": 115,
      "layer": "Quest",
      "name": "listening_timePlay5",
      "persistentUuid": "419cd694-0932-4590-8663-f72066607a16",
      "width": 145,
      "x": 1679,
      "y": 42,
      "zOrder": 50,
      "numberProperties": [],
      "stringProperties": [],
      "initialVariables": []
    },
    {
      "angle": 0,
      "customSize": false,
      "height": 0,
      "layer": "",
      "name": "listening_btnGiraffe",
      "persistentUuid": "ca4f4c96-c0df-4139-83e3-fe5ee1e97ac3",
      "width": 0,
      "x": 300,
      "y": 750,
      "zOrder": 50,
      "numberProperties": [],
      "stringProperties": [],
      "initialVariables": []
    },
    {
      "angle": 0,
      "customSize": true,
      "depth": 1,
      "height": 179,
      "layer": "",
      "name": "listening_lightGiraffe",
      "persistentUuid": "875916f8-cf05-46e5-a310-ae325453a0c8",
      "width": 179,
      "x": 415,
      "y": 643,
      "zOrder": 50,
      "numberProperties": [],
      "stringProperties": [],
      "initialVariables": []
    },
    {
      "angle": 0,
      "customSize": false,
      "height": 0,
      "layer": "",
      "name": "listening_btnFox",
      "persistentUuid": "096809cf-2ec9-44c3-b826-5b536bed4a23",
      "width": 0,
      "x": 833,
      "y": 750,
      "zOrder": 50,
      "numberProperties": [],
      "stringProperties": [],
      "initialVariables": []
    },
    {
      "angle": 0,
      "customSize": false,
      "height": 0,
      "layer": "",
      "name": "listening_btnMonkey",
      "persistentUuid": "5e83aa15-607c-4b70-912f-7a401613474a",
      "width": 0,
      "x": 300,
      "y": 261,
      "zOrder": 50,
      "numberProperties": [],
      "stringProperties": [],
      "initialVariables": []
    },
    {
      "angle": 0,
      "customSize": false,
      "height": 0,
      "layer": "",
      "name": "listening_btnFish",
      "persistentUuid": "e440f31b-1b29-461f-9b10-3c791cce8fea",
      "width": 0,
      "x": 300,
      "y": 499,
      "zOrder": 50,
      "numberProperties": [],
      "stringProperties": [],
      "initialVariables": []
    },
    {
      "angle": 0,
      "customSize": false,
      "height": 0,
      "layer": "",
      "name": "listening_btnBear",
      "persistentUuid": "b3d9b0b2-63bb-48df-b4dc-fe07856c9dc9",
      "width": 0,
      "x": 833,
      "y": 499,
      "zOrder": 50,
      "numberProperties": [],
      "stringProperties": [],
      "initialVariables": []
    },
    {
      "angle": 0,
      "customSize": false,
      "height": 0,
      "layer": "",
      "name": "listening_btnCat",
      "persistentUuid": "2faa1372-0d67-4de4-9fd4-913ee39a7e63",
      "width": 0,
      "x": 833,
      "y": 261,
      "zOrder": 50,
      "numberProperties": [],
      "stringProperties": [],
      "initialVariables": []
    },
    {
      "angle": 0,
      "customSize": true,
      "depth": 0,
      "height": 179,
      "layer": "",
      "name": "listening_lightMonkey",
      "persistentUuid": "52587e9a-c312-47e2-90a4-03369583de30",
      "width": 179,
      "x": 415,
      "y": 155,
      "zOrder": 50,
      "numberProperties": [],
      "stringProperties": [],
      "initialVariables": []
    },
    {
      "angle": 0,
      "customSize": true,
      "depth": 0,
      "height": 202,
      "layer": "",
      "name": "listening_lightFish",
      "persistentUuid": "c71c879b-0128-4424-a4ea-fef380b4e908",
      "width": 202,
      "x": 415,
      "y": 388,
      "zOrder": 50,
      "numberProperties": [],
      "stringProperties": [],
      "initialVariables": []
    },
    {
      "angle": 0,
      "customSize": true,
      "depth": 0,
      "height": 202,
      "layer": "",
      "name": "listening_lightCat",
      "persistentUuid": "cc94ed5c-ec3b-4239-91ed-6656ca48fe12",
      "width": 202,
      "x": 940,
      "y": 155,
      "zOrder": 50,
      "numberProperties": [],
      "stringProperties": [],
      "initialVariables": []
    },
    {
      "angle": 0,
      "customSize": true,
      "depth": 1,
      "height": 244,
      "layer": "",
      "name": "listening_lightBear",
      "persistentUuid": "f00a7201-a72f-4b98-a745-329d52cae930",
      "width": 244,
      "x": 938,
      "y": 388,
      "zOrder": 50,
      "numberProperties": [],
      "stringProperties": [],
      "initialVariables": []
    },
    {
      "angle": 0,
      "customSize": true,
      "depth": 1,
      "height": 233,
      "layer": "",
      "name": "listening_lightFox",
      "persistentUuid": "ddff08d3-3edd-4357-932c-cc666b75ad6b",
      "width": 233,
      "x": 938,
      "y": 643,
      "zOrder": 50,
      "numberProperties": [],
      "stringProperties": [],
      "initialVariables": []
    },
    {
      "angle": 0,
      "customSize": true,
      "depth": 1,
      "height": 1169,
      "layer": "Fade",
      "name": "screen_fade",
      "persistentUuid": "3f91b7a4-9ad3-4447-bff0-0109c65c8f73",
      "width": 2060,
      "x": -55,
      "y": -43,
      "zOrder": 1,
      "numberProperties": [],
      "stringProperties": [],
      "initialVariables": []
    }
  ],
  "editionSettings": {
    "grid": false,
    "gridType": "rectangular",
    "gridWidth": 32,
    "gridHeight": 32,
    "gridOffsetX": 0,
    "gridOffsetY": 0,
    "gridColor": 10401023,
    "gridAlpha": 0.8,
    "snap": false,
    "zoomFactor": 0.3645833333333333,
    "windowMask": false
  }
}