{
  "associatedLayout": "4221_listening_lv2_p2",
  "name": "4221",
  "instances": [
    {
      "angle": 0,
      "customSize": true,
      "depth": 216,
      "height": 338,
      "layer": "Quest",
      "name": "listening_speakerQuest7",
      "persistentUuid": "9ab705c3-6ef6-4ad3-83cd-95b80a3ce0f8",
      "width": 345,
      "x": 1454,
      "y": 388,
      "zOrder": 50,
      "numberProperties": [],
      "stringProperties": [],
      "initialVariables": []
    },
    {
      "angle": 0,
      "customSize": true,
      "depth": 1,
      "height": 115,
      "layer": "Quest",
      "name": "listening_timePlay7",
      "persistentUuid": "fe0a9a38-8c79-405e-b4bb-fdd6a2ffd7ad",
      "width": 134,
      "x": 1679,
      "y": 42,
      "zOrder": 50,
      "numberProperties": [],
      "stringProperties": [],
      "initialVariables": []
    },
    {
      "angle": 0,
      "customSize": false,
      "height": 0,
      "layer": "",
      "name": "listening_btnFish",
      "persistentUuid": "882f8fd1-21c0-4e9c-b996-fcddddadf5c4",
      "width": 0,
      "x": 254,
      "y": 499,
      "zOrder": 50,
      "numberProperties": [],
      "stringProperties": [],
      "initialVariables": []
    },
    {
      "angle": 0,
      "customSize": true,
      "depth": 0,
      "height": 202,
      "layer": "",
      "name": "listening_lightFish",
      "persistentUuid": "5b50a083-00bc-4b4f-a24b-0edc59c40855",
      "width": 202,
      "x": 369,
      "y": 388,
      "zOrder": 50,
      "numberProperties": [],
      "stringProperties": [],
      "initialVariables": []
    },
    {
      "angle": 0,
      "customSize": false,
      "height": 0,
      "layer": "",
      "name": "listening_btnParrot",
      "persistentUuid": "cb6fc8cd-470e-4d88-8c64-da35af66afe9",
      "width": 0,
      "x": 590,
      "y": 640,
      "zOrder": 50,
      "numberProperties": [],
      "stringProperties": [],
      "initialVariables": []
    },
    {
      "angle": 0,
      "customSize": true,
      "depth": 0,
      "height": 100,
      "layer": "",
      "name": "listening_lightParrot",
      "persistentUuid": "1efa8bcb-9d1f-4e44-98c5-acc6097cf806",
      "width": 100,
      "x": 700,
      "y": 537,
      "zOrder": 50,
      "numberProperties": [],
      "stringProperties": [],
      "initialVariables": []
    },
    {
      "angle": 0,
      "customSize": false,
      "height": 0,
      "layer": "",
      "name": "listening_btnRhino",
      "persistentUuid": "6b3767b0-267f-4c1e-a36a-4fcd96c7aca0",
      "width": 0,
      "x": 908,
      "y": 247,
      "zOrder": 50,
      "numberProperties": [],
      "stringProperties": [],
      "initialVariables": []
    },
    {
      "angle": 0,
      "customSize": false,
      "height": 0,
      "layer": "",
      "name": "listening_btnOwl",
      "persistentUuid": "76545964-85c2-444e-9973-5d8e995f46d4",
      "width": 0,
      "x": 254,
      "y": 750,
      "zOrder": 50,
      "numberProperties": [],
      "stringProperties": [],
      "initialVariables": []
    },
    {
      "angle": 0,
      "customSize": true,
      "depth": 0,
      "height": 214,
      "layer": "",
      "name": "listening_lightOwl",
      "persistentUuid": "4e5c11ca-ab5e-4c7d-8c19-cd3f5fda9281",
      "width": 214,
      "x": 369,
      "y": 643,
      "zOrder": 50,
      "numberProperties": [],
      "stringProperties": [],
      "initialVariables": []
    },
    {
      "angle": 0,
      "customSize": true,
      "depth": 0,
      "height": 221,
      "layer": "",
      "name": "listening_lightRhino",
      "persistentUuid": "11c5379d-1361-4d26-929b-033f97bc3299",
      "width": 221,
      "x": 1015,
      "y": 155,
      "zOrder": 50,
      "numberProperties": [],
      "stringProperties": [],
      "initialVariables": []
    },
    {
      "angle": 0,
      "customSize": false,
      "height": 0,
      "layer": "",
      "name": "listening_btnBat",
      "persistentUuid": "afba7f57-efa1-46fc-b18a-e6788f248e4c",
      "width": 0,
      "x": 910,
      "y": 499,
      "zOrder": 50,
      "numberProperties": [],
      "stringProperties": [],
      "initialVariables": []
    },
    {
      "angle": 0,
      "customSize": false,
      "height": 0,
      "layer": "",
      "name": "listening_btnLion",
      "persistentUuid": "622a0a4c-b178-4aac-94f8-3c6c8f9efa39",
      "width": 0,
      "x": 910,
      "y": 756,
      "zOrder": 50,
      "numberProperties": [],
      "stringProperties": [],
      "initialVariables": []
    },
    {
      "angle": 0,
      "customSize": false,
      "height": 0,
      "layer": "",
      "name": "listening_btnCock",
      "persistentUuid": "f1abeb6a-5459-4bc3-9da4-5a9ead0492e9",
      "width": 0,
      "x": 590,
      "y": 402,
      "zOrder": 50,
      "numberProperties": [],
      "stringProperties": [],
      "initialVariables": []
    },
    {
      "angle": 0,
      "customSize": false,
      "height": 0,
      "layer": "",
      "name": "listening_btnPenguin",
      "persistentUuid": "d29dd63d-0fff-412b-a9d9-4c0adce5281f",
      "width": 0,
      "x": 254,
      "y": 261,
      "zOrder": 50,
      "numberProperties": [],
      "stringProperties": [],
      "initialVariables": []
    },
    {
      "angle": 0,
      "customSize": true,
      "depth": 0,
      "height": 202,
      "layer": "",
      "name": "listening_lightPenguin",
      "persistentUuid": "2ac30c72-f89a-474e-8299-f9dcc7f4da2d",
      "width": 202,
      "x": 369,
      "y": 155,
      "zOrder": 50,
      "numberProperties": [],
      "stringProperties": [],
      "initialVariables": []
    },
    {
      "angle": 0,
      "customSize": true,
      "depth": 0,
      "height": 211,
      "layer": "",
      "name": "listening_lightCock",
      "persistentUuid": "d87d863b-8968-4624-b553-2c0d8b7f01b4",
      "width": 211,
      "x": 700,
      "y": 276,
      "zOrder": 50,
      "numberProperties": [],
      "stringProperties": [],
      "initialVariables": []
    },
    {
      "angle": 0,
      "customSize": true,
      "depth": 1,
      "height": 228,
      "layer": "",
      "name": "listening_lightBat",
      "persistentUuid": "0ff68804-a4e6-4239-9447-8131d5e74b99",
      "width": 228,
      "x": 1015,
      "y": 388,
      "zOrder": 50,
      "numberProperties": [],
      "stringProperties": [],
      "initialVariables": []
    },
    {
      "angle": 0,
      "customSize": true,
      "depth": 0,
      "height": 205,
      "layer": "",
      "name": "listening_lightLion",
      "persistentUuid": "f3dcc017-82ae-4649-a50b-7e7b0c893380",
      "width": 205,
      "x": 1015,
      "y": 643,
      "zOrder": 50,
      "numberProperties": [],
      "stringProperties": [],
      "initialVariables": []
    },
    {
      "angle": 0,
      "customSize": true,
      "depth": 1,
      "height": 1169,
      "layer": "Fade",
      "name": "screen_fade",
      "persistentUuid": "0bfa640d-dc59-4b94-b789-a0f1b9d2e85c",
      "width": 2060,
      "x": -65,
      "y": -49,
      "zOrder": 1,
      "numberProperties": [],
      "stringProperties": [],
      "initialVariables": []
    }
  ],
  "editionSettings": {
    "grid": false,
    "gridType": "rectangular",
    "gridWidth": 32,
    "gridHeight": 32,
    "gridOffsetX": 0,
    "gridOffsetY": 0,
    "gridColor": 10401023,
    "gridAlpha": 0.8,
    "snap": false,
    "zoomFactor": 0.3645833333333333,
    "windowMask": false
  }
}