{
  "associatedLayout": "1_MapLevel1",
  "lastChangeTimeStamp": 0,
  "name": "00_General",
  "events": [
    {
      "type": "BuiltinCommonInstructions::Link",
      "include": {
        "includeConfig": 0
      },
      "target": "01_Character"
    },
    {
      "type": "BuiltinCommonInstructions::Link",
      "include": {
        "includeConfig": 0
      },
      "target": "01_ARSupport"
    },
    {
      "type": "BuiltinCommonInstructions::Standard",
      "conditions": [
        {
          "type": {
            "value": "PanelSpriteButton::PanelSpriteButton::IsClicked"
          },
          "parameters": [
            "pause",
            ""
          ]
        }
      ],
      "actions": [
        {
          "type": {
            "value": "PushScene"
          },
          "parameters": [
            "",
            "\"3_Exit\""
          ]
        }
      ]
    }
  ]
}