{
  "associatedLayout": "2133_rememberCard_lv1_p4",
  "lastChangeTimeStamp": 0,
  "name": "2133",
  "events": [
    {
      "colorB": 228,
      "colorG": 176,
      "colorR": 74,
      "creationTime": 0,
      "name": "2133",
      "source": "",
      "type": "BuiltinCommonInstructions::Group",
      "events": [
        {
          "colorB": 228,
          "colorG": 176,
          "colorR": 74,
          "creationTime": 0,
          "name": "Scene",
          "source": "",
          "type": "BuiltinCommonInstructions::Group",
          "events": [
            {
              "type": "BuiltinCommonInstructions::Link",
              "include": {
                "includeConfig": 0
              },
              "target": "cardFlip_button1"
            },
            {
              "type": "BuiltinCommonInstructions::Link",
              "include": {
                "includeConfig": 0
              },
              "target": "rememberCard_audioCard"
            },
            {
              "type": "BuiltinCommonInstructions::Comment",
              "color": {
                "b": 109,
                "g": 230,
                "r": 255,
                "textB": 0,
                "textG": 0,
                "textR": 0
              },
              "comment": "Begin"
            },
            {
              "type": "BuiltinCommonInstructions::Standard",
              "conditions": [
                {
                  "type": {
                    "value": "DepartScene"
                  },
                  "parameters": [
                    ""
                  ]
                }
              ],
              "actions": [
                {
                  "type": {
                    "value": "Cache"
                  },
                  "parameters": [
                    "rememberCard_KeyQuest"
                  ]
                },
                {
                  "type": {
                    "value": "BuiltinExternalLayouts::CreateObjectsFromExternalLayout"
                  },
                  "parameters": [
                    "",
                    "\"RememberCard\"",
                    "0",
                    "0",
                    "0"
                  ]
                },
                {
                  "type": {
                    "value": "PlayMusicCanal"
                  },
                  "parameters": [
                    "",
                    "lv1_music bg.mp3",
                    "15",
                    "yes",
                    "10",
                    "1"
                  ]
                },
                {
                  "type": {
                    "value": "ShowLayer"
                  },
                  "parameters": [
                    "",
                    "\"Fade\""
                  ]
                },
                {
                  "type": {
                    "value": "ResetTimer"
                  },
                  "parameters": [
                    "",
                    "\"rememberCard\""
                  ]
                },
                {
                  "type": {
                    "value": "ResizableCapability::ResizableBehavior::SetSize"
                  },
                  "parameters": [
                    "rememberCard_animalCards",
                    "Resizable",
                    "195",
                    "290"
                  ]
                }
              ],
              "events": [
                {
                  "type": "BuiltinCommonInstructions::ForEach",
                  "object": "rememberCard_palceholderPosition4",
                  "conditions": [],
                  "actions": [],
                  "events": [
                    {
                      "type": "BuiltinCommonInstructions::Standard",
                      "conditions": [
                        {
                          "type": {
                            "value": "AnimationName"
                          },
                          "parameters": [
                            "rememberCard_animalCards",
                            "\"leak\""
                          ]
                        }
                      ],
                      "actions": [
                        {
                          "type": {
                            "value": "Tween::AddObjectPositionTween"
                          },
                          "parameters": [
                            "rememberCard_animalCards",
                            "Tween",
                            "\"fly_in\"",
                            "rememberCard_palceholderPosition4.X()",
                            "rememberCard_palceholderPosition4.Y()",
                            "\"easeOutSine\"",
                            "1000",
                            ""
                          ]
                        }
                      ],
                      "events": [
                        {
                          "type": "BuiltinCommonInstructions::Standard",
                          "conditions": [
                            {
                              "type": {
                                "value": "AjoutHasard"
                              },
                              "parameters": [
                                "",
                                "rememberCard_animalCards"
                              ]
                            }
                          ],
                          "actions": [
                            {
                              "type": {
                                "value": "SetAnimationName"
                              },
                              "parameters": [
                                "rememberCard_animalCards",
                                "\"leak2\""
                              ]
                            },
                            {
                              "type": {
                                "value": "Delete"
                              },
                              "parameters": [
                                "rememberCard_palceholderPosition4",
                                ""
                              ]
                            }
                          ]
                        }
                      ]
                    }
                  ]
                },
                {
                  "type": "BuiltinCommonInstructions::Standard",
                  "conditions": [],
                  "actions": [
                    {
                      "type": {
                        "value": "Tween::AddObjectOpacityTween"
                      },
                      "parameters": [
                        "screen_fade",
                        "Tween",
                        "\"fade_in\"",
                        "0",
                        "\"linear\"",
                        "1000",
                        ""
                      ]
                    }
                  ]
                }
              ]
            },
            {
              "type": "BuiltinCommonInstructions::Standard",
              "conditions": [
                {
                  "type": {
                    "value": "CompareTimer"
                  },
                  "parameters": [
                    "",
                    "\"rememberCard\"",
                    ">=",
                    "1"
                  ]
                }
              ],
              "actions": [
                {
                  "type": {
                    "value": "ModVarScene"
                  },
                  "parameters": [
                    "timeRemember",
                    "-",
                    "1"
                  ]
                },
                {
                  "type": {
                    "value": "TextObject::String"
                  },
                  "parameters": [
                    "rememberCard_timeRemember",
                    "=",
                    "ToString(Variable(timeRemember))"
                  ]
                },
                {
                  "type": {
                    "value": "ResetTimer"
                  },
                  "parameters": [
                    "",
                    "\"rememberCard\""
                  ]
                }
              ]
            },
            {
              "type": "BuiltinCommonInstructions::Standard",
              "conditions": [
                {
                  "type": {
                    "value": "VarScene"
                  },
                  "parameters": [
                    "timeRemember",
                    "<",
                    "0"
                  ]
                }
              ],
              "actions": [
                {
                  "type": {
                    "value": "ModVarScene"
                  },
                  "parameters": [
                    "randomNumQuesttion",
                    "=",
                    "RandomInRange(1,6)"
                  ]
                },
                {
                  "type": {
                    "value": "RemoveTimer"
                  },
                  "parameters": [
                    "",
                    "\"rememberCard\""
                  ]
                },
                {
                  "type": {
                    "value": "ModVarScene"
                  },
                  "parameters": [
                    "timeRemember",
                    "=",
                    "1"
                  ]
                },
                {
                  "type": {
                    "value": "Delete"
                  },
                  "parameters": [
                    "rememberCard_timeRemember",
                    ""
                  ]
                },
                {
                  "type": {
                    "value": "Tween::AddObjectScaleXTween"
                  },
                  "parameters": [
                    "rememberCard_animalCards",
                    "Tween",
                    "\"begin1\"",
                    "0",
                    "\"linear\"",
                    "125",
                    "",
                    "yes"
                  ]
                },
                {
                  "type": {
                    "value": "ResetTimer"
                  },
                  "parameters": [
                    "",
                    "\"timePlay\""
                  ]
                }
              ],
              "events": [
                {
                  "type": "BuiltinCommonInstructions::Standard",
                  "conditions": [
                    {
                      "type": {
                        "value": "VarScene"
                      },
                      "parameters": [
                        "randomNumQuesttion",
                        "=",
                        "1"
                      ]
                    }
                  ],
                  "actions": [
                    {
                      "type": {
                        "value": "ModVarSceneTxt"
                      },
                      "parameters": [
                        "randomKeyQuest",
                        "=",
                        "\"Giraffe\""
                      ]
                    },
                    {
                      "type": {
                        "value": "TextContainerCapability::TextContainerBehavior::SetValue"
                      },
                      "parameters": [
                        "rememberCard_KeyQuest",
                        "Text",
                        "=",
                        "VariableString(randomKeyQuest)"
                      ]
                    },
                    {
                      "type": {
                        "value": "Montre"
                      },
                      "parameters": [
                        "rememberCard_KeyQuest",
                        ""
                      ]
                    }
                  ]
                },
                {
                  "type": "BuiltinCommonInstructions::Standard",
                  "conditions": [
                    {
                      "type": {
                        "value": "VarScene"
                      },
                      "parameters": [
                        "randomNumQuesttion",
                        "=",
                        "2"
                      ]
                    }
                  ],
                  "actions": [
                    {
                      "type": {
                        "value": "ModVarSceneTxt"
                      },
                      "parameters": [
                        "randomKeyQuest",
                        "=",
                        "\"Monkey\""
                      ]
                    },
                    {
                      "type": {
                        "value": "TextContainerCapability::TextContainerBehavior::SetValue"
                      },
                      "parameters": [
                        "rememberCard_KeyQuest",
                        "Text",
                        "=",
                        "VariableString(randomKeyQuest)"
                      ]
                    },
                    {
                      "type": {
                        "value": "Montre"
                      },
                      "parameters": [
                        "rememberCard_KeyQuest",
                        ""
                      ]
                    }
                  ]
                },
                {
                  "type": "BuiltinCommonInstructions::Standard",
                  "conditions": [
                    {
                      "type": {
                        "value": "VarScene"
                      },
                      "parameters": [
                        "randomNumQuesttion",
                        "=",
                        "3"
                      ]
                    }
                  ],
                  "actions": [
                    {
                      "type": {
                        "value": "ModVarSceneTxt"
                      },
                      "parameters": [
                        "randomKeyQuest",
                        "=",
                        "\"Parrot\""
                      ]
                    },
                    {
                      "type": {
                        "value": "TextContainerCapability::TextContainerBehavior::SetValue"
                      },
                      "parameters": [
                        "rememberCard_KeyQuest",
                        "Text",
                        "=",
                        "VariableString(randomKeyQuest)"
                      ]
                    },
                    {
                      "type": {
                        "value": "Montre"
                      },
                      "parameters": [
                        "rememberCard_KeyQuest",
                        ""
                      ]
                    }
                  ]
                },
                {
                  "type": "BuiltinCommonInstructions::Standard",
                  "conditions": [
                    {
                      "type": {
                        "value": "VarScene"
                      },
                      "parameters": [
                        "randomNumQuesttion",
                        "=",
                        "4"
                      ]
                    }
                  ],
                  "actions": [
                    {
                      "type": {
                        "value": "ModVarSceneTxt"
                      },
                      "parameters": [
                        "randomKeyQuest",
                        "=",
                        "\"Duck\""
                      ]
                    },
                    {
                      "type": {
                        "value": "TextContainerCapability::TextContainerBehavior::SetValue"
                      },
                      "parameters": [
                        "rememberCard_KeyQuest",
                        "Text",
                        "=",
                        "VariableString(randomKeyQuest)"
                      ]
                    },
                    {
                      "type": {
                        "value": "Montre"
                      },
                      "parameters": [
                        "rememberCard_KeyQuest",
                        ""
                      ]
                    }
                  ]
                },
                {
                  "type": "BuiltinCommonInstructions::Standard",
                  "conditions": [
                    {
                      "type": {
                        "value": "VarScene"
                      },
                      "parameters": [
                        "randomNumQuesttion",
                        "=",
                        "5"
                      ]
                    }
                  ],
                  "actions": [
                    {
                      "type": {
                        "value": "ModVarSceneTxt"
                      },
                      "parameters": [
                        "randomKeyQuest",
                        "=",
                        "\"Owl\""
                      ]
                    },
                    {
                      "type": {
                        "value": "TextContainerCapability::TextContainerBehavior::SetValue"
                      },
                      "parameters": [
                        "rememberCard_KeyQuest",
                        "Text",
                        "=",
                        "VariableString(randomKeyQuest)"
                      ]
                    },
                    {
                      "type": {
                        "value": "Montre"
                      },
                      "parameters": [
                        "rememberCard_KeyQuest",
                        ""
                      ]
                    }
                  ]
                },
                {
                  "type": "BuiltinCommonInstructions::Standard",
                  "conditions": [
                    {
                      "type": {
                        "value": "VarScene"
                      },
                      "parameters": [
                        "randomNumQuesttion",
                        "=",
                        "6"
                      ]
                    }
                  ],
                  "actions": [
                    {
                      "type": {
                        "value": "ModVarSceneTxt"
                      },
                      "parameters": [
                        "randomKeyQuest",
                        "=",
                        "\"Fox\""
                      ]
                    },
                    {
                      "type": {
                        "value": "TextContainerCapability::TextContainerBehavior::SetValue"
                      },
                      "parameters": [
                        "rememberCard_KeyQuest",
                        "Text",
                        "=",
                        "VariableString(randomKeyQuest)"
                      ]
                    },
                    {
                      "type": {
                        "value": "Montre"
                      },
                      "parameters": [
                        "rememberCard_KeyQuest",
                        ""
                      ]
                    }
                  ]
                }
              ]
            },
            {
              "type": "BuiltinCommonInstructions::Standard",
              "conditions": [
                {
                  "type": {
                    "value": "CompareTimer"
                  },
                  "parameters": [
                    "",
                    "\"timePlay\"",
                    ">=",
                    "1"
                  ]
                }
              ],
              "actions": [
                {
                  "type": {
                    "value": "ModVarScene"
                  },
                  "parameters": [
                    "timePlayRememberCard",
                    "-",
                    "1"
                  ]
                },
                {
                  "type": {
                    "value": "TextContainerCapability::TextContainerBehavior::SetValue"
                  },
                  "parameters": [
                    "remembarCard_timePlayLv1",
                    "Text",
                    "=",
                    "ToString(Variable(timePlayRememberCard))"
                  ]
                },
                {
                  "type": {
                    "value": "ResetTimer"
                  },
                  "parameters": [
                    "",
                    "\"timePlay\""
                  ]
                }
              ]
            },
            {
              "type": "BuiltinCommonInstructions::Standard",
              "conditions": [],
              "actions": []
            }
          ],
          "parameters": []
        },
        {
          "colorB": 228,
          "colorG": 176,
          "colorR": 74,
          "creationTime": 0,
          "name": "Interaction",
          "source": "",
          "type": "BuiltinCommonInstructions::Group",
          "events": [
            {
              "type": "BuiltinCommonInstructions::Comment",
              "color": {
                "b": 109,
                "g": 230,
                "r": 255,
                "textB": 0,
                "textG": 0,
                "textR": 0
              },
              "comment": "Đúng"
            },
            {
              "type": "BuiltinCommonInstructions::Standard",
              "conditions": [
                {
                  "type": {
                    "value": "SceneVariableAsBoolean"
                  },
                  "parameters": [
                    "checkKeyQuest",
                    "False"
                  ]
                }
              ],
              "actions": [],
              "events": [
                {
                  "type": "BuiltinCommonInstructions::Standard",
                  "conditions": [
                    {
                      "type": {
                        "value": "VarScene"
                      },
                      "parameters": [
                        "randomNumQuesttion",
                        "=",
                        "1"
                      ]
                    },
                    {
                      "type": {
                        "value": "MouseButtonReleased"
                      },
                      "parameters": [
                        "",
                        "Left"
                      ]
                    },
                    {
                      "type": {
                        "value": "SourisSurObjet"
                      },
                      "parameters": [
                        "rememberCard_giraffeCard",
                        "",
                        "",
                        ""
                      ]
                    }
                  ],
                  "actions": [
                    {
                      "type": {
                        "value": "ModVarScene"
                      },
                      "parameters": [
                        "timePlayRememberCard",
                        "+",
                        "5"
                      ]
                    },
                    {
                      "type": {
                        "value": "SetSceneVariableAsBoolean"
                      },
                      "parameters": [
                        "checkKeyQuest",
                        "True"
                      ]
                    },
                    {
                      "type": {
                        "value": "Wait"
                      },
                      "parameters": [
                        "1"
                      ]
                    }
                  ],
                  "events": [
                    {
                      "type": "BuiltinCommonInstructions::Standard",
                      "conditions": [
                        {
                          "type": {
                            "value": "AnimationName"
                          },
                          "parameters": [
                            "rememberCard_giraffeCard",
                            "\"leak\""
                          ]
                        }
                      ],
                      "actions": [
                        {
                          "type": {
                            "value": "PlaySound"
                          },
                          "parameters": [
                            "",
                            "asset audio\\correct audio.mp3",
                            "",
                            "70",
                            ""
                          ]
                        },
                        {
                          "type": {
                            "value": "PauseTimer"
                          },
                          "parameters": [
                            "",
                            "\"timePlay\""
                          ]
                        }
                      ]
                    },
                    {
                      "type": "BuiltinCommonInstructions::Standard",
                      "conditions": [],
                      "actions": []
                    }
                  ]
                },
                {
                  "type": "BuiltinCommonInstructions::Standard",
                  "conditions": [
                    {
                      "type": {
                        "value": "VarScene"
                      },
                      "parameters": [
                        "randomNumQuesttion",
                        "=",
                        "2"
                      ]
                    },
                    {
                      "type": {
                        "value": "MouseButtonReleased"
                      },
                      "parameters": [
                        "",
                        "Left"
                      ]
                    },
                    {
                      "type": {
                        "value": "SourisSurObjet"
                      },
                      "parameters": [
                        "rememberCard_monkeyCard",
                        "",
                        "",
                        ""
                      ]
                    }
                  ],
                  "actions": [
                    {
                      "type": {
                        "value": "ModVarScene"
                      },
                      "parameters": [
                        "timePlayRememberCard",
                        "+",
                        "5"
                      ]
                    },
                    {
                      "type": {
                        "value": "SetSceneVariableAsBoolean"
                      },
                      "parameters": [
                        "checkKeyQuest",
                        "True"
                      ]
                    },
                    {
                      "type": {
                        "value": "Wait"
                      },
                      "parameters": [
                        "1"
                      ]
                    }
                  ],
                  "events": [
                    {
                      "type": "BuiltinCommonInstructions::Standard",
                      "conditions": [
                        {
                          "type": {
                            "value": "AnimationName"
                          },
                          "parameters": [
                            "rememberCard_monkeyCard",
                            "\"leak\""
                          ]
                        }
                      ],
                      "actions": [
                        {
                          "type": {
                            "value": "PlaySound"
                          },
                          "parameters": [
                            "",
                            "asset audio\\correct audio.mp3",
                            "",
                            "70",
                            ""
                          ]
                        },
                        {
                          "type": {
                            "value": "PauseTimer"
                          },
                          "parameters": [
                            "",
                            "\"timePlay\""
                          ]
                        }
                      ]
                    },
                    {
                      "type": "BuiltinCommonInstructions::Standard",
                      "conditions": [],
                      "actions": []
                    }
                  ]
                },
                {
                  "type": "BuiltinCommonInstructions::Standard",
                  "conditions": [
                    {
                      "type": {
                        "value": "VarScene"
                      },
                      "parameters": [
                        "randomNumQuesttion",
                        "=",
                        "3"
                      ]
                    },
                    {
                      "type": {
                        "value": "MouseButtonReleased"
                      },
                      "parameters": [
                        "",
                        "Left"
                      ]
                    },
                    {
                      "type": {
                        "value": "SourisSurObjet"
                      },
                      "parameters": [
                        "rememberCard_parrotCard",
                        "",
                        "",
                        ""
                      ]
                    }
                  ],
                  "actions": [
                    {
                      "type": {
                        "value": "ModVarScene"
                      },
                      "parameters": [
                        "timePlayRememberCard",
                        "+",
                        "5"
                      ]
                    },
                    {
                      "type": {
                        "value": "SetSceneVariableAsBoolean"
                      },
                      "parameters": [
                        "checkKeyQuest",
                        "True"
                      ]
                    },
                    {
                      "type": {
                        "value": "Wait"
                      },
                      "parameters": [
                        "1"
                      ]
                    }
                  ],
                  "events": [
                    {
                      "type": "BuiltinCommonInstructions::Standard",
                      "conditions": [
                        {
                          "type": {
                            "value": "AnimationName"
                          },
                          "parameters": [
                            "rememberCard_parrotCard",
                            "\"leak\""
                          ]
                        }
                      ],
                      "actions": [
                        {
                          "type": {
                            "value": "PlaySound"
                          },
                          "parameters": [
                            "",
                            "asset audio\\correct audio.mp3",
                            "",
                            "70",
                            ""
                          ]
                        },
                        {
                          "type": {
                            "value": "PauseTimer"
                          },
                          "parameters": [
                            "",
                            "\"timePlay\""
                          ]
                        }
                      ]
                    },
                    {
                      "type": "BuiltinCommonInstructions::Standard",
                      "conditions": [],
                      "actions": []
                    }
                  ]
                },
                {
                  "type": "BuiltinCommonInstructions::Standard",
                  "conditions": [
                    {
                      "type": {
                        "value": "VarScene"
                      },
                      "parameters": [
                        "randomNumQuesttion",
                        "=",
                        "4"
                      ]
                    },
                    {
                      "type": {
                        "value": "MouseButtonReleased"
                      },
                      "parameters": [
                        "",
                        "Left"
                      ]
                    },
                    {
                      "type": {
                        "value": "SourisSurObjet"
                      },
                      "parameters": [
                        "rememberCard_duckCard",
                        "",
                        "",
                        ""
                      ]
                    }
                  ],
                  "actions": [
                    {
                      "type": {
                        "value": "ModVarScene"
                      },
                      "parameters": [
                        "timePlayRememberCard",
                        "+",
                        "5"
                      ]
                    },
                    {
                      "type": {
                        "value": "SetSceneVariableAsBoolean"
                      },
                      "parameters": [
                        "checkKeyQuest",
                        "True"
                      ]
                    },
                    {
                      "type": {
                        "value": "Wait"
                      },
                      "parameters": [
                        "1"
                      ]
                    }
                  ],
                  "events": [
                    {
                      "type": "BuiltinCommonInstructions::Standard",
                      "conditions": [
                        {
                          "type": {
                            "value": "AnimationName"
                          },
                          "parameters": [
                            "rememberCard_duckCard",
                            "\"leak\""
                          ]
                        }
                      ],
                      "actions": [
                        {
                          "type": {
                            "value": "PlaySound"
                          },
                          "parameters": [
                            "",
                            "asset audio\\correct audio.mp3",
                            "",
                            "70",
                            ""
                          ]
                        },
                        {
                          "type": {
                            "value": "PauseTimer"
                          },
                          "parameters": [
                            "",
                            "\"timePlay\""
                          ]
                        }
                      ]
                    },
                    {
                      "type": "BuiltinCommonInstructions::Standard",
                      "conditions": [],
                      "actions": []
                    }
                  ]
                },
                {
                  "type": "BuiltinCommonInstructions::Standard",
                  "conditions": [
                    {
                      "type": {
                        "value": "VarScene"
                      },
                      "parameters": [
                        "randomNumQuesttion",
                        "=",
                        "5"
                      ]
                    },
                    {
                      "type": {
                        "value": "MouseButtonReleased"
                      },
                      "parameters": [
                        "",
                        "Left"
                      ]
                    },
                    {
                      "type": {
                        "value": "SourisSurObjet"
                      },
                      "parameters": [
                        "rememberCard_owlCard",
                        "",
                        "",
                        ""
                      ]
                    }
                  ],
                  "actions": [
                    {
                      "type": {
                        "value": "ModVarScene"
                      },
                      "parameters": [
                        "timePlayRememberCard",
                        "+",
                        "5"
                      ]
                    },
                    {
                      "type": {
                        "value": "SetSceneVariableAsBoolean"
                      },
                      "parameters": [
                        "checkKeyQuest",
                        "True"
                      ]
                    },
                    {
                      "type": {
                        "value": "Wait"
                      },
                      "parameters": [
                        "1"
                      ]
                    }
                  ],
                  "events": [
                    {
                      "type": "BuiltinCommonInstructions::Standard",
                      "conditions": [
                        {
                          "type": {
                            "value": "AnimationName"
                          },
                          "parameters": [
                            "rememberCard_owlCard",
                            "\"leak\""
                          ]
                        }
                      ],
                      "actions": [
                        {
                          "type": {
                            "value": "PlaySound"
                          },
                          "parameters": [
                            "",
                            "asset audio\\correct audio.mp3",
                            "",
                            "70",
                            ""
                          ]
                        },
                        {
                          "type": {
                            "value": "PauseTimer"
                          },
                          "parameters": [
                            "",
                            "\"timePlay\""
                          ]
                        }
                      ]
                    },
                    {
                      "type": "BuiltinCommonInstructions::Standard",
                      "conditions": [],
                      "actions": []
                    }
                  ]
                },
                {
                  "type": "BuiltinCommonInstructions::Standard",
                  "conditions": [
                    {
                      "type": {
                        "value": "VarScene"
                      },
                      "parameters": [
                        "randomNumQuesttion",
                        "=",
                        "6"
                      ]
                    },
                    {
                      "type": {
                        "value": "MouseButtonReleased"
                      },
                      "parameters": [
                        "",
                        "Left"
                      ]
                    },
                    {
                      "type": {
                        "value": "SourisSurObjet"
                      },
                      "parameters": [
                        "rememberCard_foxCard",
                        "",
                        "",
                        ""
                      ]
                    }
                  ],
                  "actions": [
                    {
                      "type": {
                        "value": "ModVarScene"
                      },
                      "parameters": [
                        "timePlayRememberCard",
                        "+",
                        "5"
                      ]
                    },
                    {
                      "type": {
                        "value": "SetSceneVariableAsBoolean"
                      },
                      "parameters": [
                        "checkKeyQuest",
                        "True"
                      ]
                    },
                    {
                      "type": {
                        "value": "Wait"
                      },
                      "parameters": [
                        "1"
                      ]
                    }
                  ],
                  "events": [
                    {
                      "type": "BuiltinCommonInstructions::Standard",
                      "conditions": [
                        {
                          "type": {
                            "value": "AnimationName"
                          },
                          "parameters": [
                            "rememberCard_foxCard",
                            "\"leak\""
                          ]
                        }
                      ],
                      "actions": [
                        {
                          "type": {
                            "value": "PlaySound"
                          },
                          "parameters": [
                            "",
                            "asset audio\\correct audio.mp3",
                            "",
                            "70",
                            ""
                          ]
                        },
                        {
                          "type": {
                            "value": "PauseTimer"
                          },
                          "parameters": [
                            "",
                            "\"timePlay\""
                          ]
                        }
                      ]
                    }
                  ]
                },
                {
                  "type": "BuiltinCommonInstructions::Standard",
                  "conditions": [],
                  "actions": []
                }
              ]
            },
            {
              "type": "BuiltinCommonInstructions::Standard",
              "conditions": [],
              "actions": []
            }
          ],
          "parameters": []
        },
        {
          "colorB": 228,
          "colorG": 176,
          "colorR": 74,
          "creationTime": 0,
          "name": "Check",
          "source": "",
          "type": "BuiltinCommonInstructions::Group",
          "events": [
            {
              "type": "BuiltinCommonInstructions::Standard",
              "conditions": [
                {
                  "type": {
                    "value": "SceneVariableAsBoolean"
                  },
                  "parameters": [
                    "checkKeyQuest",
                    "False"
                  ]
                },
                {
                  "type": {
                    "value": "VarScene"
                  },
                  "parameters": [
                    "timePlayRememberCard",
                    "<=",
                    "0"
                  ]
                }
              ],
              "actions": [
                {
                  "type": {
                    "value": "PauseTimer"
                  },
                  "parameters": [
                    "",
                    "\"timePlay\""
                  ]
                },
                {
                  "type": {
                    "value": "ModVarScene"
                  },
                  "parameters": [
                    "checkPassQuestion",
                    "=",
                    "50"
                  ]
                }
              ]
            },
            {
              "type": "BuiltinCommonInstructions::Standard",
              "conditions": [
                {
                  "type": {
                    "value": "SceneVariableAsBoolean"
                  },
                  "parameters": [
                    "checkKeyQuest",
                    "True"
                  ]
                }
              ],
              "actions": [
                {
                  "type": {
                    "value": "PauseTimer"
                  },
                  "parameters": [
                    "",
                    "\"timePlay\""
                  ]
                },
                {
                  "type": {
                    "value": "ModVarScene"
                  },
                  "parameters": [
                    "checkPassQuestion",
                    "=",
                    "100"
                  ]
                }
              ]
            },
            {
              "type": "BuiltinCommonInstructions::Standard",
              "conditions": [],
              "actions": []
            }
          ],
          "parameters": []
        }
      ],
      "parameters": []
    },
    {
      "type": "BuiltinCommonInstructions::Standard",
      "conditions": [],
      "actions": []
    }
  ]
}