{
  "associatedLayout": "4222_listening_lv2_p3",
  "lastChangeTimeStamp": 0,
  "name": "4222",
  "events": [
    {
      "colorB": 228,
      "colorG": 176,
      "colorR": 74,
      "creationTime": 0,
      "name": "4222",
      "source": "",
      "type": "BuiltinCommonInstructions::Group",
      "events": [
        {
          "colorB": 228,
          "colorG": 176,
          "colorR": 74,
          "creationTime": 0,
          "name": "Scene",
          "source": "",
          "type": "BuiltinCommonInstructions::Group",
          "events": [
            {
              "type": "BuiltinCommonInstructions::Standard",
              "conditions": [
                {
                  "type": {
                    "value": "DepartScene"
                  },
                  "parameters": [
                    ""
                  ]
                }
              ],
              "actions": [
                {
                  "type": {
                    "value": "BuiltinExternalLayouts::CreateObjectsFromExternalLayout"
                  },
                  "parameters": [
                    "",
                    "\"Listening\"",
                    "0",
                    "0",
                    "0"
                  ]
                },
                {
                  "type": {
                    "value": "ResetTimer"
                  },
                  "parameters": [
                    "",
                    "\"timePlay\""
                  ]
                },
                {
                  "type": {
                    "value": "PlayMusicCanal"
                  },
                  "parameters": [
                    "",
                    "lv2_bgmusic.mp3",
                    "15",
                    "yes",
                    "10",
                    "1"
                  ]
                },
                {
                  "type": {
                    "value": "ResizableCapability::ResizableBehavior::SetSize"
                  },
                  "parameters": [
                    "listening_btn",
                    "Resizable",
                    "309",
                    "110"
                  ]
                },
                {
                  "type": {
                    "value": "ResizableCapability::ResizableBehavior::SetSize"
                  },
                  "parameters": [
                    "listening_light",
                    "Resizable",
                    "100",
                    "100"
                  ]
                }
              ]
            },
            {
              "type": "BuiltinCommonInstructions::Standard",
              "conditions": [
                {
                  "type": {
                    "value": "CompareTimer"
                  },
                  "parameters": [
                    "",
                    "\"timePlay\"",
                    ">=",
                    "1"
                  ]
                }
              ],
              "actions": [
                {
                  "type": {
                    "value": "ModVarScene"
                  },
                  "parameters": [
                    "timePlayListen",
                    "-",
                    "1"
                  ]
                },
                {
                  "type": {
                    "value": "TextContainerCapability::TextContainerBehavior::SetValue"
                  },
                  "parameters": [
                    "listening_timePlay8",
                    "Text",
                    "=",
                    "ToString(Variable(timePlayListen))"
                  ]
                },
                {
                  "type": {
                    "value": "ResetTimer"
                  },
                  "parameters": [
                    "",
                    "\"timePlay\""
                  ]
                }
              ]
            },
            {
              "type": "BuiltinCommonInstructions::Standard",
              "conditions": [],
              "actions": []
            }
          ],
          "parameters": []
        },
        {
          "colorB": 228,
          "colorG": 176,
          "colorR": 74,
          "creationTime": 0,
          "name": "Interaction",
          "source": "",
          "type": "BuiltinCommonInstructions::Group",
          "events": [
            {
              "type": "BuiltinCommonInstructions::Standard",
              "conditions": [
                {
                  "type": {
                    "inverted": true,
                    "value": "MusicPlaying"
                  },
                  "parameters": [
                    "",
                    "10"
                  ]
                },
                {
                  "type": {
                    "value": "PanelSpriteButton::PanelSpriteButton::IsClicked"
                  },
                  "parameters": [
                    "listening_speakerQuest8",
                    ""
                  ]
                }
              ],
              "actions": [
                {
                  "type": {
                    "value": "PlaySound"
                  },
                  "parameters": [
                    "",
                    "asset audio\\btn_click.mp3",
                    "",
                    "90",
                    ""
                  ]
                },
                {
                  "type": {
                    "value": "PlayMusicCanal"
                  },
                  "parameters": [
                    "",
                    "frog - elephant - snail - crocodile.mp3",
                    "10",
                    "50",
                    "80",
                    "1"
                  ]
                },
                {
                  "type": {
                    "value": "PanelSpriteButton::PanelSpriteButton::Activate"
                  },
                  "parameters": [
                    "listening_speakerQuest8",
                    "no",
                    ""
                  ]
                }
              ]
            },
            {
              "type": "BuiltinCommonInstructions::Standard",
              "conditions": [
                {
                  "type": {
                    "value": "MusicStopped"
                  },
                  "parameters": [
                    "",
                    "10"
                  ]
                }
              ],
              "actions": [
                {
                  "type": {
                    "value": "PanelSpriteButton::PanelSpriteButton::Activate"
                  },
                  "parameters": [
                    "listening_speakerQuest8",
                    "yes",
                    ""
                  ]
                }
              ]
            },
            {
              "type": "BuiltinCommonInstructions::Standard",
              "conditions": [
                {
                  "type": {
                    "value": "PanelSpriteButton::PanelSpriteButton::IsClicked"
                  },
                  "parameters": [
                    "listening_btn",
                    ""
                  ]
                }
              ],
              "actions": [
                {
                  "type": {
                    "value": "PlaySound"
                  },
                  "parameters": [
                    "",
                    "asset audio\\btn_click.mp3",
                    "",
                    "50",
                    ""
                  ]
                }
              ]
            },
            {
              "type": "BuiltinCommonInstructions::Comment",
              "color": {
                "b": 109,
                "g": 230,
                "r": 255,
                "textB": 0,
                "textG": 0,
                "textR": 0
              },
              "comment": "Sai"
            },
            {
              "type": "BuiltinCommonInstructions::Standard",
              "conditions": [
                {
                  "type": {
                    "value": "BuiltinCommonInstructions::Or"
                  },
                  "parameters": [],
                  "subInstructions": [
                    {
                      "type": {
                        "value": "PanelSpriteButton::PanelSpriteButton::IsClicked"
                      },
                      "parameters": [
                        "listening_btnBear",
                        ""
                      ]
                    },
                    {
                      "type": {
                        "value": "PanelSpriteButton::PanelSpriteButton::IsClicked"
                      },
                      "parameters": [
                        "listening_btnMonkey",
                        ""
                      ]
                    },
                    {
                      "type": {
                        "value": "PanelSpriteButton::PanelSpriteButton::IsClicked"
                      },
                      "parameters": [
                        "listening_btnSnake",
                        ""
                      ]
                    },
                    {
                      "type": {
                        "value": "PanelSpriteButton::PanelSpriteButton::IsClicked"
                      },
                      "parameters": [
                        "listening_btnBat",
                        ""
                      ]
                    }
                  ]
                }
              ],
              "actions": [
                {
                  "type": {
                    "value": "ModVarScene"
                  },
                  "parameters": [
                    "timePlayListen",
                    "-",
                    "5"
                  ]
                },
                {
                  "type": {
                    "value": "PlaySound"
                  },
                  "parameters": [
                    "",
                    "assets\\asset audio\\wrong_choice.mp3",
                    "",
                    "50",
                    ""
                  ]
                }
              ]
            },
            {
              "type": "BuiltinCommonInstructions::Comment",
              "color": {
                "b": 109,
                "g": 230,
                "r": 255,
                "textB": 0,
                "textG": 0,
                "textR": 0
              },
              "comment": "Đúng"
            },
            {
              "type": "BuiltinCommonInstructions::Standard",
              "conditions": [
                {
                  "type": {
                    "value": "PanelSpriteButton::PanelSpriteButton::IsClicked"
                  },
                  "parameters": [
                    "listening_btnFrog",
                    ""
                  ]
                }
              ],
              "actions": [
                {
                  "type": {
                    "value": "PlaySound"
                  },
                  "parameters": [
                    "",
                    "assets\\asset audio\\correct audio.mp3",
                    "",
                    "50",
                    ""
                  ]
                },
                {
                  "type": {
                    "value": "AnimatableCapability::AnimatableBehavior::SetName"
                  },
                  "parameters": [
                    "listening_lightFrog",
                    "Animation",
                    "=",
                    "\"on\""
                  ]
                },
                {
                  "type": {
                    "value": "ModVarScene"
                  },
                  "parameters": [
                    "pass",
                    "+",
                    "1"
                  ]
                },
                {
                  "type": {
                    "value": "PanelSpriteButton::PanelSpriteButton::Activate"
                  },
                  "parameters": [
                    "listening_btnFrog",
                    "",
                    ""
                  ]
                }
              ]
            },
            {
              "type": "BuiltinCommonInstructions::Standard",
              "conditions": [
                {
                  "type": {
                    "value": "PanelSpriteButton::PanelSpriteButton::IsClicked"
                  },
                  "parameters": [
                    "listening_btnCrocodile",
                    ""
                  ]
                }
              ],
              "actions": [
                {
                  "type": {
                    "value": "PlaySound"
                  },
                  "parameters": [
                    "",
                    "assets\\asset audio\\correct audio.mp3",
                    "",
                    "50",
                    ""
                  ]
                },
                {
                  "type": {
                    "value": "AnimatableCapability::AnimatableBehavior::SetName"
                  },
                  "parameters": [
                    "listening_lightCrocodile",
                    "Animation",
                    "=",
                    "\"on\""
                  ]
                },
                {
                  "type": {
                    "value": "ModVarScene"
                  },
                  "parameters": [
                    "pass",
                    "+",
                    "1"
                  ]
                },
                {
                  "type": {
                    "value": "PanelSpriteButton::PanelSpriteButton::Activate"
                  },
                  "parameters": [
                    "listening_btnCrocodile",
                    "",
                    ""
                  ]
                }
              ]
            },
            {
              "type": "BuiltinCommonInstructions::Standard",
              "conditions": [
                {
                  "type": {
                    "value": "PanelSpriteButton::PanelSpriteButton::IsClicked"
                  },
                  "parameters": [
                    "listening_btnSnail",
                    ""
                  ]
                }
              ],
              "actions": [
                {
                  "type": {
                    "value": "PlaySound"
                  },
                  "parameters": [
                    "",
                    "assets\\asset audio\\correct audio.mp3",
                    "",
                    "50",
                    ""
                  ]
                },
                {
                  "type": {
                    "value": "AnimatableCapability::AnimatableBehavior::SetName"
                  },
                  "parameters": [
                    "listening_lightSnail",
                    "Animation",
                    "=",
                    "\"on\""
                  ]
                },
                {
                  "type": {
                    "value": "ModVarScene"
                  },
                  "parameters": [
                    "pass",
                    "+",
                    "1"
                  ]
                },
                {
                  "type": {
                    "value": "PanelSpriteButton::PanelSpriteButton::Activate"
                  },
                  "parameters": [
                    "listening_btnSnail",
                    "",
                    ""
                  ]
                }
              ]
            },
            {
              "type": "BuiltinCommonInstructions::Standard",
              "conditions": [
                {
                  "type": {
                    "value": "PanelSpriteButton::PanelSpriteButton::IsClicked"
                  },
                  "parameters": [
                    "listening_btnElephant",
                    ""
                  ]
                }
              ],
              "actions": [
                {
                  "type": {
                    "value": "PlaySound"
                  },
                  "parameters": [
                    "",
                    "assets\\asset audio\\correct audio.mp3",
                    "",
                    "50",
                    ""
                  ]
                },
                {
                  "type": {
                    "value": "AnimatableCapability::AnimatableBehavior::SetName"
                  },
                  "parameters": [
                    "listening_lightElephant",
                    "Animation",
                    "=",
                    "\"on\""
                  ]
                },
                {
                  "type": {
                    "value": "ModVarScene"
                  },
                  "parameters": [
                    "pass",
                    "+",
                    "1"
                  ]
                },
                {
                  "type": {
                    "value": "PanelSpriteButton::PanelSpriteButton::Activate"
                  },
                  "parameters": [
                    "listening_btnElephant",
                    "",
                    ""
                  ]
                }
              ]
            },
            {
              "type": "BuiltinCommonInstructions::Standard",
              "conditions": [],
              "actions": []
            }
          ],
          "parameters": []
        },
        {
          "colorB": 228,
          "colorG": 176,
          "colorR": 74,
          "creationTime": 0,
          "name": "Check",
          "source": "",
          "type": "BuiltinCommonInstructions::Group",
          "events": [
            {
              "type": "BuiltinCommonInstructions::Standard",
              "conditions": [
                {
                  "type": {
                    "value": "VarScene"
                  },
                  "parameters": [
                    "timePlayListen",
                    "<=",
                    "0"
                  ]
                },
                {
                  "type": {
                    "value": "VarScene"
                  },
                  "parameters": [
                    "pass",
                    "<",
                    "4"
                  ]
                }
              ],
              "actions": [
                {
                  "type": {
                    "value": "ModVarScene"
                  },
                  "parameters": [
                    "checkPassQuestion",
                    "=",
                    "50"
                  ]
                },
                {
                  "type": {
                    "value": "PanelSpriteButton::PanelSpriteButton::Activate"
                  },
                  "parameters": [
                    "listening_btn",
                    "no",
                    ""
                  ]
                },
                {
                  "type": {
                    "value": "PauseTimer"
                  },
                  "parameters": [
                    "",
                    "\"timePlay\""
                  ]
                }
              ]
            },
            {
              "type": "BuiltinCommonInstructions::Standard",
              "conditions": [
                {
                  "type": {
                    "value": "VarScene"
                  },
                  "parameters": [
                    "pass",
                    "=",
                    "4"
                  ]
                },
                {
                  "type": {
                    "value": "VarScene"
                  },
                  "parameters": [
                    "timePlayListen",
                    ">",
                    "0"
                  ]
                }
              ],
              "actions": [
                {
                  "type": {
                    "value": "ModVarScene"
                  },
                  "parameters": [
                    "checkPassQuestion",
                    "=",
                    "100"
                  ]
                },
                {
                  "type": {
                    "value": "PanelSpriteButton::PanelSpriteButton::Activate"
                  },
                  "parameters": [
                    "listening_btn",
                    "no",
                    ""
                  ]
                },
                {
                  "type": {
                    "value": "PauseTimer"
                  },
                  "parameters": [
                    "",
                    "\"timePlay\""
                  ]
                }
              ]
            },
            {
              "type": "BuiltinCommonInstructions::Standard",
              "conditions": [],
              "actions": []
            }
          ],
          "parameters": []
        }
      ],
      "parameters": []
    },
    {
      "type": "BuiltinCommonInstructions::Standard",
      "conditions": [],
      "actions": []
    }
  ]
}