{
  "associatedLayout": "1131_rememberCard_lv1_p1",
  "lastChangeTimeStamp": 0,
  "name": "rememberCard_audioCard",
  "events": [
    {
      "type": "BuiltinCommonInstructions::Standard",
      "conditions": [
        {
          "type": {
            "value": "MouseButtonReleased"
          },
          "parameters": [
            "",
            "Left"
          ]
        },
        {
          "type": {
            "value": "SourisSurObjet"
          },
          "parameters": [
            "rememberCard_lionCard",
            "",
            "",
            ""
          ]
        }
      ],
      "actions": [
        {
          "type": {
            "value": "Wait"
          },
          "parameters": [
            "0.5"
          ]
        },
        {
          "type": {
            "value": "PlaySound"
          },
          "parameters": [
            "",
            "asset audio\\lion.mp3",
            "",
            "50",
            "1"
          ]
        }
      ]
    },
    {
      "type": "BuiltinCommonInstructions::Standard",
      "conditions": [
        {
          "type": {
            "value": "MouseButtonReleased"
          },
          "parameters": [
            "",
            "Left"
          ]
        },
        {
          "type": {
            "value": "SourisSurObjet"
          },
          "parameters": [
            "rememberCard_catCard",
            "",
            "",
            ""
          ]
        }
      ],
      "actions": [
        {
          "type": {
            "value": "Wait"
          },
          "parameters": [
            "0.5"
          ]
        },
        {
          "type": {
            "value": "PlaySound"
          },
          "parameters": [
            "",
            "asset audio\\cat.mp3",
            "",
            "50",
            "1"
          ]
        }
      ]
    },
    {
      "type": "BuiltinCommonInstructions::Standard",
      "conditions": [
        {
          "type": {
            "value": "MouseButtonReleased"
          },
          "parameters": [
            "",
            "Left"
          ]
        },
        {
          "type": {
            "value": "SourisSurObjet"
          },
          "parameters": [
            "rememberCard_elephantCard",
            "",
            "",
            ""
          ]
        }
      ],
      "actions": [
        {
          "type": {
            "value": "Wait"
          },
          "parameters": [
            "0.5"
          ]
        },
        {
          "type": {
            "value": "PlaySound"
          },
          "parameters": [
            "",
            "asset audio\\elephant.mp3",
            "",
            "50",
            "1"
          ]
        }
      ]
    },
    {
      "type": "BuiltinCommonInstructions::Standard",
      "conditions": [
        {
          "type": {
            "value": "MouseButtonReleased"
          },
          "parameters": [
            "",
            "Left"
          ]
        },
        {
          "type": {
            "value": "SourisSurObjet"
          },
          "parameters": [
            "rememberCard_foxCard",
            "",
            "",
            ""
          ]
        }
      ],
      "actions": [
        {
          "type": {
            "value": "Wait"
          },
          "parameters": [
            "0.5"
          ]
        },
        {
          "type": {
            "value": "PlaySound"
          },
          "parameters": [
            "",
            "asset audio\\fox.mp3",
            "",
            "50",
            "1"
          ]
        }
      ]
    },
    {
      "type": "BuiltinCommonInstructions::Standard",
      "conditions": [
        {
          "type": {
            "value": "MouseButtonReleased"
          },
          "parameters": [
            "",
            "Left"
          ]
        },
        {
          "type": {
            "value": "SourisSurObjet"
          },
          "parameters": [
            "rememberCard_giraffeCard",
            "",
            "",
            ""
          ]
        }
      ],
      "actions": [
        {
          "type": {
            "value": "Wait"
          },
          "parameters": [
            "0.5"
          ]
        },
        {
          "type": {
            "value": "PlaySound"
          },
          "parameters": [
            "",
            "asset audio\\giraffe.mp3",
            "",
            "50",
            "1"
          ]
        }
      ]
    },
    {
      "type": "BuiltinCommonInstructions::Standard",
      "conditions": [
        {
          "type": {
            "value": "MouseButtonReleased"
          },
          "parameters": [
            "",
            "Left"
          ]
        },
        {
          "type": {
            "value": "SourisSurObjet"
          },
          "parameters": [
            "rememberCard_monkeyCard",
            "",
            "",
            ""
          ]
        }
      ],
      "actions": [
        {
          "type": {
            "value": "Wait"
          },
          "parameters": [
            "0.5"
          ]
        },
        {
          "type": {
            "value": "PlaySound"
          },
          "parameters": [
            "",
            "asset audio\\monkey.mp3",
            "",
            "50",
            "1"
          ]
        }
      ]
    },
    {
      "type": "BuiltinCommonInstructions::Standard",
      "conditions": [
        {
          "type": {
            "value": "MouseButtonReleased"
          },
          "parameters": [
            "",
            "Left"
          ]
        },
        {
          "type": {
            "value": "SourisSurObjet"
          },
          "parameters": [
            "rememberCard_duckCard",
            "",
            "",
            ""
          ]
        }
      ],
      "actions": [
        {
          "type": {
            "value": "Wait"
          },
          "parameters": [
            "0.5"
          ]
        },
        {
          "type": {
            "value": "PlaySound"
          },
          "parameters": [
            "",
            "asset audio\\duck.mp3",
            "",
            "50",
            "1"
          ]
        }
      ]
    },
    {
      "type": "BuiltinCommonInstructions::Standard",
      "conditions": [
        {
          "type": {
            "value": "MouseButtonReleased"
          },
          "parameters": [
            "",
            "Left"
          ]
        },
        {
          "type": {
            "value": "SourisSurObjet"
          },
          "parameters": [
            "rememberCard_cockCard",
            "",
            "",
            ""
          ]
        }
      ],
      "actions": [
        {
          "type": {
            "value": "Wait"
          },
          "parameters": [
            "0.5"
          ]
        },
        {
          "type": {
            "value": "PlaySound"
          },
          "parameters": [
            "",
            "asset audio\\cock.mp3",
            "",
            "50",
            "1"
          ]
        }
      ]
    },
    {
      "type": "BuiltinCommonInstructions::Standard",
      "conditions": [
        {
          "type": {
            "value": "MouseButtonReleased"
          },
          "parameters": [
            "",
            "Left"
          ]
        },
        {
          "type": {
            "value": "SourisSurObjet"
          },
          "parameters": [
            "rememberCard_penguinCard",
            "",
            "",
            ""
          ]
        }
      ],
      "actions": [
        {
          "type": {
            "value": "Wait"
          },
          "parameters": [
            "0.5"
          ]
        },
        {
          "type": {
            "value": "PlaySound"
          },
          "parameters": [
            "",
            "asset audio\\penguin.mp3",
            "",
            "50",
            "1"
          ]
        }
      ]
    },
    {
      "type": "BuiltinCommonInstructions::Standard",
      "conditions": [
        {
          "type": {
            "value": "MouseButtonReleased"
          },
          "parameters": [
            "",
            "Left"
          ]
        },
        {
          "type": {
            "value": "SourisSurObjet"
          },
          "parameters": [
            "rememberCard_parrotCard",
            "",
            "",
            ""
          ]
        }
      ],
      "actions": [
        {
          "type": {
            "value": "Wait"
          },
          "parameters": [
            "0.5"
          ]
        },
        {
          "type": {
            "value": "PlaySound"
          },
          "parameters": [
            "",
            "asset audio\\parrot.mp3",
            "",
            "50",
            "1"
          ]
        }
      ]
    },
    {
      "type": "BuiltinCommonInstructions::Standard",
      "conditions": [
        {
          "type": {
            "value": "MouseButtonReleased"
          },
          "parameters": [
            "",
            "Left"
          ]
        },
        {
          "type": {
            "value": "SourisSurObjet"
          },
          "parameters": [
            "rememberCard_owlCard",
            "",
            "",
            ""
          ]
        }
      ],
      "actions": [
        {
          "type": {
            "value": "Wait"
          },
          "parameters": [
            "0.5"
          ]
        },
        {
          "type": {
            "value": "PlaySound"
          },
          "parameters": [
            "",
            "asset audio\\owl.mp3",
            "",
            "50",
            "1"
          ]
        }
      ]
    },
    {
      "type": "BuiltinCommonInstructions::Standard",
      "conditions": [
        {
          "type": {
            "value": "MouseButtonReleased"
          },
          "parameters": [
            "",
            "Left"
          ]
        },
        {
          "type": {
            "value": "SourisSurObjet"
          },
          "parameters": [
            "rememberCard_deerCard",
            "",
            "",
            ""
          ]
        }
      ],
      "actions": [
        {
          "type": {
            "value": "Wait"
          },
          "parameters": [
            "0.5"
          ]
        },
        {
          "type": {
            "value": "PlaySound"
          },
          "parameters": [
            "",
            "asset audio\\deer.mp3",
            "",
            "50",
            "1"
          ]
        }
      ]
    },
    {
      "type": "BuiltinCommonInstructions::Standard",
      "conditions": [
        {
          "type": {
            "value": "MouseButtonReleased"
          },
          "parameters": [
            "",
            "Left"
          ]
        },
        {
          "type": {
            "value": "SourisSurObjet"
          },
          "parameters": [
            "rememberCard_dolphinCard",
            "",
            "",
            ""
          ]
        }
      ],
      "actions": [
        {
          "type": {
            "value": "Wait"
          },
          "parameters": [
            "0.5"
          ]
        },
        {
          "type": {
            "value": "PlaySound"
          },
          "parameters": [
            "",
            "assets\\asset audio\\dolphin.mp3",
            "",
            "50",
            "1"
          ]
        }
      ]
    },
    {
      "type": "BuiltinCommonInstructions::Standard",
      "conditions": [
        {
          "type": {
            "value": "MouseButtonReleased"
          },
          "parameters": [
            "",
            "Left"
          ]
        },
        {
          "type": {
            "value": "SourisSurObjet"
          },
          "parameters": [
            "rememberCard_dolphinCard1",
            "",
            "",
            ""
          ]
        }
      ],
      "actions": [
        {
          "type": {
            "value": "Wait"
          },
          "parameters": [
            "0.5"
          ]
        },
        {
          "type": {
            "value": "PlaySound"
          },
          "parameters": [
            "",
            "assets\\asset audio\\dolphin.mp3",
            "",
            "50",
            "1"
          ]
        }
      ]
    },
    {
      "type": "BuiltinCommonInstructions::Standard",
      "conditions": [
        {
          "type": {
            "value": "MouseButtonReleased"
          },
          "parameters": [
            "",
            "Left"
          ]
        },
        {
          "type": {
            "value": "SourisSurObjet"
          },
          "parameters": [
            "rememberCard_frogCard",
            "",
            "",
            ""
          ]
        }
      ],
      "actions": [
        {
          "type": {
            "value": "Wait"
          },
          "parameters": [
            "0.5"
          ]
        },
        {
          "type": {
            "value": "PlaySound"
          },
          "parameters": [
            "",
            "assets\\asset audio\\frog.mp3",
            "",
            "50",
            "1"
          ]
        }
      ]
    },
    {
      "type": "BuiltinCommonInstructions::Standard",
      "conditions": [
        {
          "type": {
            "value": "MouseButtonReleased"
          },
          "parameters": [
            "",
            "Left"
          ]
        },
        {
          "type": {
            "value": "SourisSurObjet"
          },
          "parameters": [
            "rememberCard_frogCard1",
            "",
            "",
            ""
          ]
        }
      ],
      "actions": [
        {
          "type": {
            "value": "Wait"
          },
          "parameters": [
            "0.5"
          ]
        },
        {
          "type": {
            "value": "PlaySound"
          },
          "parameters": [
            "",
            "assets\\asset audio\\frog.mp3",
            "",
            "50",
            "1"
          ]
        }
      ]
    },
    {
      "type": "BuiltinCommonInstructions::Standard",
      "conditions": [
        {
          "type": {
            "value": "MouseButtonReleased"
          },
          "parameters": [
            "",
            "Left"
          ]
        },
        {
          "type": {
            "value": "SourisSurObjet"
          },
          "parameters": [
            "rememberCard_rabbitCard",
            "",
            "",
            ""
          ]
        }
      ],
      "actions": [
        {
          "type": {
            "value": "Wait"
          },
          "parameters": [
            "0.5"
          ]
        },
        {
          "type": {
            "value": "PlaySound"
          },
          "parameters": [
            "",
            "assets\\asset audio\\rabbit.mp3",
            "",
            "50",
            "1"
          ]
        }
      ]
    },
    {
      "type": "BuiltinCommonInstructions::Standard",
      "conditions": [
        {
          "type": {
            "value": "MouseButtonReleased"
          },
          "parameters": [
            "",
            "Left"
          ]
        },
        {
          "type": {
            "value": "SourisSurObjet"
          },
          "parameters": [
            "rememberCard_rabbitCard1",
            "",
            "",
            ""
          ]
        }
      ],
      "actions": [
        {
          "type": {
            "value": "Wait"
          },
          "parameters": [
            "0.5"
          ]
        },
        {
          "type": {
            "value": "PlaySound"
          },
          "parameters": [
            "",
            "assets\\asset audio\\rabbit.mp3",
            "",
            "50",
            "1"
          ]
        }
      ]
    },
    {
      "type": "BuiltinCommonInstructions::Standard",
      "conditions": [
        {
          "type": {
            "value": "MouseButtonReleased"
          },
          "parameters": [
            "",
            "Left"
          ]
        },
        {
          "type": {
            "value": "SourisSurObjet"
          },
          "parameters": [
            "rememberCard_snakeCard",
            "",
            "",
            ""
          ]
        }
      ],
      "actions": [
        {
          "type": {
            "value": "Wait"
          },
          "parameters": [
            "0.5"
          ]
        },
        {
          "type": {
            "value": "PlaySound"
          },
          "parameters": [
            "",
            "assets\\asset audio\\snake.mp3",
            "",
            "50",
            "1"
          ]
        }
      ]
    },
    {
      "type": "BuiltinCommonInstructions::Standard",
      "conditions": [
        {
          "type": {
            "value": "MouseButtonReleased"
          },
          "parameters": [
            "",
            "Left"
          ]
        },
        {
          "type": {
            "value": "SourisSurObjet"
          },
          "parameters": [
            "rememberCard_snakeCard1",
            "",
            "",
            ""
          ]
        }
      ],
      "actions": [
        {
          "type": {
            "value": "Wait"
          },
          "parameters": [
            "0.5"
          ]
        },
        {
          "type": {
            "value": "PlaySound"
          },
          "parameters": [
            "",
            "assets\\asset audio\\snake.mp3",
            "",
            "50",
            "1"
          ]
        }
      ]
    },
    {
      "type": "BuiltinCommonInstructions::Standard",
      "conditions": [],
      "actions": []
    }
  ]
}