{
  "b": 209,
  "disableInputWhenNotFocused": true,
  "mangledName": "_48_95ChooseMode",
  "name": "0_ChooseMode",
  "r": 209,
  "standardSortMethod": true,
  "stopSoundsOnStartup": true,
  "title": "",
  "v": 209,
  "uiSettings": {
    "grid": false,
    "gridType": "rectangular",
    "gridWidth": 32,
    "gridHeight": 32,
    "gridOffsetX": 0,
    "gridOffsetY": 0,
    "gridColor": 10401023,
    "gridAlpha": 0.8,
    "snap": false,
    "zoomFactor": 0.43034038022076565,
    "windowMask": false
  },
  "objectsGroups": [],
  "variables": [
    {
      "name": "tmpNum",
      "type": "number",
      "value": 0
    },
    {
      "folded": true,
      "name": "tmpBool",
      "type": "boolean",
      "value": false
    }
  ],
  "instances": [
    {
      "angle": 0,
      "customSize": true,
      "depth": 35,
      "height": 120,
      "layer": "UI",
      "name": "Button1",
      "persistentUuid": "4193736f-b61f-4881-a833-bb17f0b3d936",
      "width": 290,
      "x": 1309,
      "y": 301,
      "zOrder": 1,
      "numberProperties": [],
      "stringProperties": [],
      "initialVariables": []
    },
    {
      "angle": 0,
      "customSize": true,
      "depth": 32,
      "height": 120,
      "layer": "UI",
      "name": "Button2",
      "persistentUuid": "0189577e-92d4-4a04-8af1-eb0cdb51005c",
      "width": 290,
      "x": 1309,
      "y": 449,
      "zOrder": 2,
      "numberProperties": [],
      "stringProperties": [],
      "initialVariables": []
    },
    {
      "angle": 0,
      "customSize": true,
      "depth": 1,
      "height": 1094,
      "layer": "",
      "name": "intro_background",
      "persistentUuid": "9163a820-5f35-405b-afe4-e8b80e73e414",
      "width": 1927,
      "x": -3,
      "y": -8,
      "zOrder": 4,
      "numberProperties": [],
      "stringProperties": [],
      "initialVariables": []
    },
    {
      "angle": 0,
      "customSize": true,
      "depth": 1,
      "height": 894,
      "layer": "",
      "name": "intro_board",
      "persistentUuid": "5f01db11-a8c4-4ee4-ae9c-9d15e09fe25f",
      "width": 608,
      "x": 1176,
      "y": -1,
      "zOrder": 5,
      "numberProperties": [],
      "stringProperties": [],
      "initialVariables": []
    },
    {
      "angle": 0,
      "customSize": true,
      "depth": 2,
      "height": 474,
      "layer": "",
      "name": "intro_title",
      "persistentUuid": "2687ceb1-f9d2-4359-b258-3aa2060f933b",
      "width": 936,
      "x": 203,
      "y": 256,
      "zOrder": 6,
      "numberProperties": [],
      "stringProperties": [],
      "initialVariables": []
    },
    {
      "angle": 0,
      "customSize": true,
      "depth": 2,
      "height": 614,
      "layer": "",
      "name": "intro_girrafeDecor",
      "persistentUuid": "c15f0b08-94a4-41de-8950-9c3cafbd30e6",
      "width": 257,
      "x": 1645,
      "y": 418,
      "zOrder": 7,
      "numberProperties": [],
      "stringProperties": [],
      "initialVariables": []
    },
    {
      "angle": 0,
      "customSize": true,
      "depth": 2,
      "height": 254,
      "layer": "",
      "name": "intro_monkeyDecor",
      "persistentUuid": "973c2028-8a86-4131-a4fe-11f0ee1acc18",
      "width": 161,
      "x": 57,
      "y": 3,
      "zOrder": 8,
      "numberProperties": [],
      "stringProperties": [],
      "initialVariables": []
    },
    {
      "angle": 0,
      "customSize": true,
      "depth": 1,
      "height": 260,
      "layer": "",
      "name": "intro_grass",
      "persistentUuid": "46cba708-3a89-4703-8feb-6f23d5a97a9e",
      "width": 333,
      "x": 1586,
      "y": 825,
      "zOrder": 9,
      "numberProperties": [],
      "stringProperties": [],
      "initialVariables": []
    },
    {
      "angle": 0,
      "customSize": true,
      "depth": 2,
      "height": 172,
      "layer": "",
      "name": "intro_groupName",
      "persistentUuid": "90e3d71c-87c2-4630-afa4-374e946dbf88",
      "width": 850,
      "x": 548,
      "y": 914,
      "zOrder": 10,
      "numberProperties": [],
      "stringProperties": [],
      "initialVariables": []
    },
    {
      "angle": 0,
      "customSize": true,
      "depth": 32,
      "height": 120,
      "layer": "",
      "name": "Button3",
      "persistentUuid": "68adb00a-e801-4211-959c-19d976397a7e",
      "width": 290,
      "x": 1309,
      "y": 602,
      "zOrder": 12,
      "numberProperties": [],
      "stringProperties": [],
      "initialVariables": []
    }
  ],
  "objects": [
    {
      "assetStoreId": "f0c3d7ae6099e3b9b8beed4e30b555107550b4fb2a5879e984a014b1e06865bf",
      "name": "Button1",
      "type": "PanelSpriteButton::PanelSpriteButton",
      "variables": [],
      "effects": [],
      "behaviors": [],
      "content": {
        "LeftPadding": 0,
        "RightPadding": 0,
        "PressedLabelOffsetY": 4,
        "BottomPadding": 6,
        "TopPadding": 0,
        "HoveredFadeOutDuration": 0
      },
      "childrenContent": {
        "Hovered": {
          "bottomMargin": 10,
          "height": 64,
          "leftMargin": 6,
          "rightMargin": 6,
          "texture": "assets\\NEWGAME2@6x.png",
          "tiled": false,
          "topMargin": 10,
          "width": 192
        },
        "Idle": {
          "bottomMargin": 10,
          "height": 64,
          "leftMargin": 6,
          "rightMargin": 6,
          "texture": "assets\\NEWGAME1@6x.png",
          "tiled": false,
          "topMargin": 10,
          "width": 192
        },
        "Label": {
          "bold": false,
          "italic": false,
          "smoothed": true,
          "underlined": false,
          "string": "",
          "font": "Kenney Mini Square.ttf",
          "textAlignment": "center",
          "characterSize": 50,
          "color": {
            "b": 255,
            "g": 255,
            "r": 255
          }
        },
        "Pressed": {
          "bottomMargin": 10,
          "height": 64,
          "leftMargin": 6,
          "rightMargin": 6,
          "texture": "assets\\NEWGAME2@6x.png",
          "tiled": false,
          "topMargin": 10,
          "width": 192
        }
      }
    },
    {
      "assetStoreId": "f0c3d7ae6099e3b9b8beed4e30b555107550b4fb2a5879e984a014b1e06865bf",
      "name": "Button2",
      "type": "PanelSpriteButton::PanelSpriteButton",
      "variables": [],
      "effects": [],
      "behaviors": [],
      "content": {
        "LeftPadding": 0,
        "RightPadding": 0,
        "PressedLabelOffsetY": 4,
        "BottomPadding": 6,
        "TopPadding": 0,
        "HoveredFadeOutDuration": 0
      },
      "childrenContent": {
        "Hovered": {
          "bottomMargin": 10,
          "height": 64,
          "leftMargin": 6,
          "rightMargin": 6,
          "texture": "assets\\LOADGAME2@6x.png",
          "tiled": false,
          "topMargin": 10,
          "width": 192
        },
        "Idle": {
          "bottomMargin": 10,
          "height": 64,
          "leftMargin": 6,
          "rightMargin": 6,
          "texture": "assets\\LOADGAME1@6x.png",
          "tiled": false,
          "topMargin": 10,
          "width": 192
        },
        "Label": {
          "bold": false,
          "italic": false,
          "smoothed": true,
          "underlined": false,
          "string": "",
          "font": "Kenney Mini Square.ttf",
          "textAlignment": "center",
          "characterSize": 50,
          "color": {
            "b": 255,
            "g": 255,
            "r": 255
          }
        },
        "Pressed": {
          "bottomMargin": 10,
          "height": 64,
          "leftMargin": 6,
          "rightMargin": 6,
          "texture": "assets\\LOADGAME2@6x.png",
          "tiled": false,
          "topMargin": 10,
          "width": 192
        }
      }
    },
    {
      "assetStoreId": "f0c3d7ae6099e3b9b8beed4e30b555107550b4fb2a5879e984a014b1e06865bf",
      "name": "Button3",
      "type": "PanelSpriteButton::PanelSpriteButton",
      "variables": [],
      "effects": [],
      "behaviors": [],
      "content": {
        "LeftPadding": 0,
        "RightPadding": 0,
        "PressedLabelOffsetY": 4,
        "BottomPadding": 6,
        "TopPadding": 0,
        "HoveredFadeOutDuration": 0
      },
      "childrenContent": {
        "Hovered": {
          "bottomMargin": 10,
          "height": 64,
          "leftMargin": 6,
          "rightMargin": 6,
          "texture": "assets\\BACK2@6x.png",
          "tiled": false,
          "topMargin": 10,
          "width": 192
        },
        "Idle": {
          "bottomMargin": 10,
          "height": 64,
          "leftMargin": 6,
          "rightMargin": 6,
          "texture": "assets\\BACK1@6x.png",
          "tiled": false,
          "topMargin": 10,
          "width": 192
        },
        "Label": {
          "bold": false,
          "italic": false,
          "smoothed": true,
          "underlined": false,
          "string": "",
          "font": "Kenney Mini Square.ttf",
          "textAlignment": "center",
          "characterSize": 50,
          "color": {
            "b": 255,
            "g": 255,
            "r": 255
          }
        },
        "Pressed": {
          "bottomMargin": 10,
          "height": 64,
          "leftMargin": 6,
          "rightMargin": 6,
          "texture": "assets\\BACK2@6x.png",
          "tiled": false,
          "topMargin": 10,
          "width": 192
        }
      }
    }
  ],
  "objectsFolderStructure": {
    "folderName": "__ROOT",
    "children": [
      {
        "objectName": "Button1"
      },
      {
        "objectName": "Button2"
      },
      {
        "objectName": "Button3"
      }
    ]
  },
  "events": [
    {
      "colorB": 228,
      "colorG": 176,
      "colorR": 74,
      "creationTime": 0,
      "name": "Start scene",
      "source": "",
      "type": "BuiltinCommonInstructions::Group",
      "events": [
        {
          "type": "BuiltinCommonInstructions::Standard",
          "conditions": [
            {
              "type": {
                "value": "DepartScene"
              },
              "parameters": [
                ""
              ]
            }
          ],
          "actions": [
            {
              "type": {
                "value": "PlayMusicCanal"
              },
              "parameters": [
                "",
                "assets\\asset audio\\intro music.mp3",
                "15",
                "yes",
                "40",
                "1"
              ]
            },
            {
              "type": {
                "value": "DeleteFichier"
              },
              "parameters": [
                "\"CheckPoint\""
              ]
            },
            {
              "type": {
                "value": "ShowLayer"
              },
              "parameters": [
                "",
                "\"Fade\""
              ]
            }
          ]
        },
        {
          "type": "BuiltinCommonInstructions::Standard",
          "conditions": [
            {
              "type": {
                "value": "KeyReleased"
              },
              "parameters": [
                "",
                "f"
              ]
            }
          ],
          "actions": [
            {
              "type": {
                "value": "DeleteFichier"
              },
              "parameters": [
                "\"MemoryGame\""
              ]
            }
          ]
        }
      ],
      "parameters": []
    },
    {
      "colorB": 228,
      "colorG": 176,
      "colorR": 74,
      "creationTime": 0,
      "name": "Button",
      "source": "",
      "type": "BuiltinCommonInstructions::Group",
      "events": [
        {
          "type": "BuiltinCommonInstructions::Standard",
          "conditions": [
            {
              "type": {
                "value": "PanelSpriteButton::PanelSpriteButton::IsClicked"
              },
              "parameters": [
                "Button1",
                ""
              ]
            }
          ],
          "actions": [
            {
              "type": {
                "value": "SetGlobalVariableAsBoolean"
              },
              "parameters": [
                "multiLevel",
                "True"
              ]
            }
          ],
          "events": [
            {
              "type": "BuiltinCommonInstructions::Link",
              "include": {
                "includeConfig": 0
              },
              "target": "0_RandomLevels"
            },
            {
              "type": "BuiltinCommonInstructions::Standard",
              "conditions": [],
              "actions": []
            },
            {
              "type": "BuiltinCommonInstructions::Standard",
              "conditions": [],
              "actions": [
                {
                  "type": {
                    "value": "Scene"
                  },
                  "parameters": [
                    "",
                    "\"0_Introduction\"",
                    ""
                  ]
                }
              ]
            }
          ]
        },
        {
          "type": "BuiltinCommonInstructions::Standard",
          "conditions": [
            {
              "type": {
                "value": "PanelSpriteButton::PanelSpriteButton::IsClicked"
              },
              "parameters": [
                "Button2",
                ""
              ]
            }
          ],
          "actions": [],
          "events": [
            {
              "type": "BuiltinCommonInstructions::Standard",
              "conditions": [
                {
                  "type": {
                    "inverted": true,
                    "value": "GroupExists"
                  },
                  "parameters": [
                    "\"MemoryGame\"",
                    "\"currentLevel\""
                  ]
                }
              ],
              "actions": [],
              "events": [
                {
                  "type": "BuiltinCommonInstructions::Standard",
                  "conditions": [],
                  "actions": [
                    {
                      "type": {
                        "value": "PushScene"
                      },
                      "parameters": [
                        "",
                        "\"2_CantLoad\""
                      ]
                    }
                  ]
                }
              ]
            },
            {
              "type": "BuiltinCommonInstructions::Standard",
              "conditions": [
                {
                  "type": {
                    "value": "GroupExists"
                  },
                  "parameters": [
                    "\"MemoryGame\"",
                    "\"currentLevel\""
                  ]
                }
              ],
              "actions": [],
              "events": [
                {
                  "type": "BuiltinCommonInstructions::Standard",
                  "conditions": [],
                  "actions": [
                    {
                      "type": {
                        "value": "Tween::AddObjectOpacityTween"
                      },
                      "parameters": [
                        "screen_fade",
                        "Tween",
                        "\"fade_in\"",
                        "255",
                        "\"linear\"",
                        "500",
                        ""
                      ]
                    },
                    {
                      "type": {
                        "value": "Wait"
                      },
                      "parameters": [
                        "0.5"
                      ]
                    }
                  ]
                },
                {
                  "type": "BuiltinCommonInstructions::Link",
                  "include": {
                    "includeConfig": 0
                  },
                  "target": "0_LoadGame"
                },
                {
                  "type": "BuiltinCommonInstructions::Standard",
                  "conditions": [
                    {
                      "type": {
                        "value": "VarGlobal"
                      },
                      "parameters": [
                        "currentLevel",
                        "=",
                        "1"
                      ]
                    }
                  ],
                  "actions": [
                    {
                      "type": {
                        "value": "Scene"
                      },
                      "parameters": [
                        "",
                        "\"1_MapLevel1\"",
                        ""
                      ]
                    }
                  ]
                },
                {
                  "type": "BuiltinCommonInstructions::Standard",
                  "conditions": [
                    {
                      "type": {
                        "value": "VarGlobal"
                      },
                      "parameters": [
                        "currentLevel",
                        "=",
                        "2"
                      ]
                    }
                  ],
                  "actions": [
                    {
                      "type": {
                        "value": "Scene"
                      },
                      "parameters": [
                        "",
                        "\"1_MapLevel2\"",
                        ""
                      ]
                    }
                  ]
                },
                {
                  "type": "BuiltinCommonInstructions::Standard",
                  "conditions": [
                    {
                      "type": {
                        "value": "VarGlobal"
                      },
                      "parameters": [
                        "currentLevel",
                        "=",
                        "3"
                      ]
                    }
                  ],
                  "actions": [
                    {
                      "type": {
                        "value": "Scene"
                      },
                      "parameters": [
                        "",
                        "\"1_MapLevel3\"",
                        ""
                      ]
                    }
                  ]
                },
                {
                  "type": "BuiltinCommonInstructions::Standard",
                  "conditions": [
                    {
                      "type": {
                        "value": "VarGlobal"
                      },
                      "parameters": [
                        "currentLevel",
                        "=",
                        "4"
                      ]
                    }
                  ],
                  "actions": [
                    {
                      "type": {
                        "value": "Scene"
                      },
                      "parameters": [
                        "",
                        "\"1_MapLevel4\"",
                        ""
                      ]
                    }
                  ]
                },
                {
                  "type": "BuiltinCommonInstructions::Standard",
                  "conditions": [
                    {
                      "type": {
                        "value": "VarGlobal"
                      },
                      "parameters": [
                        "currentLevel",
                        "=",
                        "5"
                      ]
                    }
                  ],
                  "actions": [
                    {
                      "type": {
                        "value": "Scene"
                      },
                      "parameters": [
                        "",
                        "\"1_MapLevel5\"",
                        ""
                      ]
                    }
                  ]
                }
              ]
            }
          ]
        },
        {
          "type": "BuiltinCommonInstructions::Standard",
          "conditions": [
            {
              "type": {
                "value": "PanelSpriteButton::PanelSpriteButton::IsClicked"
              },
              "parameters": [
                "Button3",
                ""
              ]
            }
          ],
          "actions": [
            {
              "type": {
                "value": "PopScene"
              },
              "parameters": [
                ""
              ]
            }
          ]
        }
      ],
      "parameters": []
    },
    {
      "type": "BuiltinCommonInstructions::Standard",
      "conditions": [],
      "actions": []
    }
  ],
  "layers": [
    {
      "ambientLightColorB": 200,
      "ambientLightColorG": 200,
      "ambientLightColorR": 200,
      "camera3DFarPlaneDistance": 10000,
      "camera3DFieldOfView": 45,
      "camera3DNearPlaneDistance": 3,
      "followBaseLayerCamera": false,
      "isLightingLayer": false,
      "isLocked": false,
      "name": "",
      "renderingType": "",
      "visibility": true,
      "cameras": [
        {
          "defaultSize": true,
          "defaultViewport": true,
          "height": 0,
          "viewportBottom": 1,
          "viewportLeft": 0,
          "viewportRight": 1,
          "viewportTop": 0,
          "width": 0
        }
      ],
      "effects": [
        {
          "effectType": "Scene3D::HemisphereLight",
          "name": "3D Light",
          "doubleParameters": {
            "elevation": 45,
            "intensity": 1,
            "rotation": 0
          },
          "stringParameters": {
            "groundColor": "64;64;64",
            "skyColor": "255;255;255",
            "top": "Y-"
          },
          "booleanParameters": {}
        }
      ]
    },
    {
      "ambientLightColorB": 200,
      "ambientLightColorG": 200,
      "ambientLightColorR": 200,
      "camera3DFarPlaneDistance": 10000,
      "camera3DFieldOfView": 45,
      "camera3DNearPlaneDistance": 3,
      "followBaseLayerCamera": false,
      "isLightingLayer": false,
      "isLocked": false,
      "name": "UI",
      "renderingType": "",
      "visibility": true,
      "cameras": [],
      "effects": [
        {
          "effectType": "Scene3D::HemisphereLight",
          "name": "3D Light",
          "doubleParameters": {
            "elevation": 45,
            "intensity": 1,
            "rotation": 0
          },
          "stringParameters": {
            "groundColor": "64;64;64",
            "skyColor": "255;255;255",
            "top": "Y-"
          },
          "booleanParameters": {}
        }
      ]
    },
    {
      "ambientLightColorB": 200,
      "ambientLightColorG": 200,
      "ambientLightColorR": 200,
      "camera3DFarPlaneDistance": 10000,
      "camera3DFieldOfView": 45,
      "camera3DNearPlaneDistance": 3,
      "followBaseLayerCamera": false,
      "isLightingLayer": false,
      "isLocked": false,
      "name": "Fade",
      "renderingType": "",
      "visibility": true,
      "cameras": [],
      "effects": [
        {
          "effectType": "Scene3D::HemisphereLight",
          "name": "3D Light",
          "doubleParameters": {
            "elevation": 45,
            "intensity": 1,
            "rotation": 0
          },
          "stringParameters": {
            "groundColor": "64;64;64",
            "skyColor": "255;255;255",
            "top": "Y-"
          },
          "booleanParameters": {}
        }
      ]
    }
  ],
  "behaviorsSharedData": [
    {
      "name": "Animation",
      "type": "AnimatableCapability::AnimatableBehavior"
    },
    {
      "name": "Effect",
      "type": "EffectCapability::EffectBehavior"
    },
    {
      "name": "FlashTransitionPainter",
      "type": "FlashTransitionPainter::FlashTransitionPainter"
    },
    {
      "name": "Flippable",
      "type": "FlippableCapability::FlippableBehavior"
    },
    {
      "name": "Health",
      "type": "Health::Health"
    },
    {
      "name": "Opacity",
      "type": "OpacityCapability::OpacityBehavior"
    },
    {
      "name": "RectangleMovement",
      "type": "RectangleMovement::RectangleMovement"
    },
    {
      "name": "Resizable",
      "type": "ResizableCapability::ResizableBehavior"
    },
    {
      "name": "Scale",
      "type": "ScalableCapability::ScalableBehavior"
    },
    {
      "name": "ShakeObject_PositionAngle",
      "type": "ShakeObject::ShakeObject_PositionAngle"
    },
    {
      "name": "ShakeObject_PositionAngleScale",
      "type": "ShakeObject::ShakeObject_PositionAngleScale"
    },
    {
      "name": "Text",
      "type": "TextContainerCapability::TextContainerBehavior"
    },
    {
      "name": "TopDownMovement",
      "type": "TopDownMovementBehavior::TopDownMovementBehavior"
    },
    {
      "name": "Tween",
      "type": "Tween::TweenBehavior"
    }
  ]
}