{
  "b": 209,
  "disableInputWhenNotFocused": true,
  "mangledName": "_48_95SummaryWords",
  "name": "0_SummaryWords",
  "r": 209,
  "standardSortMethod": true,
  "stopSoundsOnStartup": true,
  "title": "",
  "v": 209,
  "uiSettings": {
    "grid": false,
    "gridType": "rectangular",
    "gridWidth": 32,
    "gridHeight": 32,
    "gridOffsetX": 0,
    "gridOffsetY": 0,
    "gridColor": 10401023,
    "gridAlpha": 0.8,
    "snap": false,
    "zoomFactor": 0.475358508712693,
    "windowMask": false
  },
  "objectsGroups": [],
  "variables": [],
  "instances": [
    {
      "angle": 0,
      "customSize": true,
      "depth": 2,
      "height": 1151,
      "layer": "",
      "name": "summary_background",
      "persistentUuid": "ebfff8d5-e968-4886-962f-d7a4ac2213cd",
      "width": 1919,
      "x": 1,
      "y": -40,
      "zOrder": 1,
      "numberProperties": [],
      "stringProperties": [],
      "initialVariables": []
    },
    {
      "angle": 0,
      "customSize": true,
      "depth": 17,
      "height": 110,
      "layer": "",
      "name": "summary_btnBack",
      "persistentUuid": "b143a83d-4332-47e1-9ccb-d0665a3db6f7",
      "width": 108,
      "x": 181,
      "y": 437,
      "zOrder": 2,
      "numberProperties": [],
      "stringProperties": [],
      "initialVariables": []
    },
    {
      "angle": 0,
      "customSize": true,
      "depth": 32,
      "height": 110,
      "layer": "",
      "name": "summary_btnNext",
      "persistentUuid": "2466dcbf-34b5-420d-b7b2-380e4fcf6980",
      "width": 108,
      "x": 1649,
      "y": 437,
      "zOrder": 3,
      "numberProperties": [],
      "stringProperties": [],
      "initialVariables": []
    },
    {
      "angle": 0,
      "customSize": false,
      "height": 0,
      "layer": "",
      "name": "picture_penguinText",
      "persistentUuid": "a9f7bfcc-c0c4-4331-ad02-e8086d88f9e7",
      "width": 0,
      "x": 513,
      "y": 259,
      "zOrder": 4,
      "numberProperties": [],
      "stringProperties": [],
      "initialVariables": []
    },
    {
      "angle": 0,
      "customSize": false,
      "height": 0,
      "layer": "",
      "name": "picture_lionText",
      "persistentUuid": "27391ef2-22c1-494d-9662-b52406ab7b81",
      "width": 0,
      "x": 553,
      "y": 366,
      "zOrder": 5,
      "numberProperties": [],
      "stringProperties": [],
      "initialVariables": []
    },
    {
      "angle": 0,
      "customSize": false,
      "height": 0,
      "layer": "",
      "name": "picture_catText",
      "persistentUuid": "98136a5c-9d9a-467e-86b1-a2a05be6caca",
      "width": 0,
      "x": 559,
      "y": 486,
      "zOrder": 6,
      "numberProperties": [],
      "stringProperties": [],
      "initialVariables": []
    },
    {
      "angle": 0,
      "customSize": false,
      "height": 0,
      "layer": "",
      "name": "picture_fishText",
      "persistentUuid": "d9fb22ab-6250-4085-9ce4-ac6ed31ac150",
      "width": 0,
      "x": 551,
      "y": 595,
      "zOrder": 7,
      "numberProperties": [],
      "stringProperties": [],
      "initialVariables": []
    },
    {
      "angle": 0,
      "customSize": false,
      "height": 0,
      "layer": "",
      "name": "picture_dogText",
      "persistentUuid": "70f21444-f09d-44d9-ba93-6160114a4c86",
      "width": 0,
      "x": 551,
      "y": 709,
      "zOrder": 8,
      "numberProperties": [],
      "stringProperties": [],
      "initialVariables": []
    },
    {
      "angle": 0,
      "customSize": false,
      "height": 0,
      "layer": "",
      "name": "picture_duckText",
      "persistentUuid": "09b74f77-ea05-4cee-b065-06eff18ff02a",
      "width": 0,
      "x": 902,
      "y": 259,
      "zOrder": 9,
      "numberProperties": [],
      "stringProperties": [],
      "initialVariables": []
    },
    {
      "angle": 0,
      "customSize": false,
      "height": 0,
      "layer": "",
      "name": "picture_frogText",
      "persistentUuid": "01dcf31d-433a-4fce-8b94-d05d63b8622c",
      "width": 0,
      "x": 910,
      "y": 364,
      "zOrder": 10,
      "numberProperties": [],
      "stringProperties": [],
      "initialVariables": []
    },
    {
      "angle": 0,
      "customSize": false,
      "height": 0,
      "layer": "",
      "name": "picture_snakeText",
      "persistentUuid": "b19bbcdd-e5b3-4232-88df-5fc9d21f105b",
      "width": 0,
      "x": 902,
      "y": 484,
      "zOrder": 11,
      "numberProperties": [],
      "stringProperties": [],
      "initialVariables": []
    },
    {
      "angle": 0,
      "customSize": false,
      "height": 0,
      "layer": "",
      "name": "picture_batText",
      "persistentUuid": "2c887505-4f78-49fd-a782-010f0aa55e5c",
      "width": 0,
      "x": 921,
      "y": 595,
      "zOrder": 12,
      "numberProperties": [],
      "stringProperties": [],
      "initialVariables": []
    },
    {
      "angle": 0,
      "customSize": false,
      "height": 0,
      "layer": "",
      "name": "picture_bearText",
      "persistentUuid": "6b2f719e-1eec-4ebc-9d23-705ea55cc2fe",
      "width": 0,
      "x": 906,
      "y": 709,
      "zOrder": 13,
      "numberProperties": [],
      "stringProperties": [],
      "initialVariables": []
    },
    {
      "angle": 0,
      "customSize": false,
      "height": 0,
      "layer": "",
      "name": "picture_elephantText",
      "persistentUuid": "ce05abd7-8cc5-4f11-b56f-80207c5b1a13",
      "width": 0,
      "x": 1220,
      "y": 256,
      "zOrder": 14,
      "numberProperties": [],
      "stringProperties": [],
      "initialVariables": []
    },
    {
      "angle": 0,
      "customSize": false,
      "height": 0,
      "layer": "",
      "name": "picture_foxText",
      "persistentUuid": "8ba9a343-bc7e-45cb-b4d2-d154f93cde59",
      "width": 0,
      "x": 1276,
      "y": 364,
      "zOrder": 15,
      "numberProperties": [],
      "stringProperties": [],
      "initialVariables": []
    },
    {
      "angle": 0,
      "customSize": false,
      "height": 0,
      "layer": "",
      "name": "picture_monkeyText",
      "persistentUuid": "23f97fb8-f2d8-4c29-b79e-5c4a4e4eb01d",
      "width": 0,
      "x": 1236,
      "y": 488,
      "zOrder": 16,
      "numberProperties": [],
      "stringProperties": [],
      "initialVariables": []
    },
    {
      "angle": 0,
      "customSize": false,
      "height": 0,
      "layer": "",
      "name": "picture_snailText",
      "persistentUuid": "89c7e1ec-df1f-489d-8562-e39f8b9ff07b",
      "width": 0,
      "x": 1272,
      "y": 595,
      "zOrder": 17,
      "numberProperties": [],
      "stringProperties": [],
      "initialVariables": []
    },
    {
      "angle": 0,
      "customSize": false,
      "height": 0,
      "layer": "",
      "name": "picture_mouseText",
      "persistentUuid": "a89ce742-d2b6-499a-9e1e-efb03ec64909",
      "width": 0,
      "x": 1255,
      "y": 711,
      "zOrder": 18,
      "numberProperties": [],
      "stringProperties": [],
      "initialVariables": []
    }
  ],
  "objects": [],
  "objectsFolderStructure": {
    "folderName": "__ROOT"
  },
  "events": [
    {
      "type": "BuiltinCommonInstructions::Standard",
      "conditions": [
        {
          "type": {
            "value": "DepartScene"
          },
          "parameters": [
            ""
          ]
        }
      ],
      "actions": [
        {
          "type": {
            "value": "PlayMusicCanal"
          },
          "parameters": [
            "",
            "assets\\asset audio\\outro music.mp3",
            "15",
            "yes",
            "40",
            "1"
          ]
        },
        {
          "type": {
            "value": "TextObject::ChangeColor"
          },
          "parameters": [
            "picture_animalText",
            "\"47;131;228\""
          ]
        }
      ]
    }
  ],
  "layers": [
    {
      "ambientLightColorB": 200,
      "ambientLightColorG": 200,
      "ambientLightColorR": 200,
      "camera3DFarPlaneDistance": 10000,
      "camera3DFieldOfView": 45,
      "camera3DNearPlaneDistance": 3,
      "followBaseLayerCamera": false,
      "isLightingLayer": false,
      "isLocked": false,
      "name": "",
      "renderingType": "",
      "visibility": true,
      "cameras": [
        {
          "defaultSize": true,
          "defaultViewport": true,
          "height": 0,
          "viewportBottom": 1,
          "viewportLeft": 0,
          "viewportRight": 1,
          "viewportTop": 0,
          "width": 0
        }
      ],
      "effects": [
        {
          "effectType": "Scene3D::HemisphereLight",
          "name": "3D Light",
          "doubleParameters": {
            "elevation": 45,
            "intensity": 1,
            "rotation": 0
          },
          "stringParameters": {
            "groundColor": "64;64;64",
            "skyColor": "255;255;255",
            "top": "Y-"
          },
          "booleanParameters": {}
        }
      ]
    }
  ],
  "behaviorsSharedData": [
    {
      "name": "Animation",
      "type": "AnimatableCapability::AnimatableBehavior"
    },
    {
      "name": "Effect",
      "type": "EffectCapability::EffectBehavior"
    },
    {
      "name": "FlashTransitionPainter",
      "type": "FlashTransitionPainter::FlashTransitionPainter"
    },
    {
      "name": "Flippable",
      "type": "FlippableCapability::FlippableBehavior"
    },
    {
      "name": "Health",
      "type": "Health::Health"
    },
    {
      "name": "Opacity",
      "type": "OpacityCapability::OpacityBehavior"
    },
    {
      "name": "RectangleMovement",
      "type": "RectangleMovement::RectangleMovement"
    },
    {
      "name": "Resizable",
      "type": "ResizableCapability::ResizableBehavior"
    },
    {
      "name": "Scale",
      "type": "ScalableCapability::ScalableBehavior"
    },
    {
      "name": "ShakeObject_PositionAngle",
      "type": "ShakeObject::ShakeObject_PositionAngle"
    },
    {
      "name": "ShakeObject_PositionAngleScale",
      "type": "ShakeObject::ShakeObject_PositionAngleScale"
    },
    {
      "name": "Text",
      "type": "TextContainerCapability::TextContainerBehavior"
    },
    {
      "name": "TopDownMovement",
      "type": "TopDownMovementBehavior::TopDownMovementBehavior"
    },
    {
      "name": "Tween",
      "type": "Tween::TweenBehavior"
    }
  ]
}