{
  "b": 209,
  "disableInputWhenNotFocused": true,
  "mangledName": "_49_95L1_95P1_953",
  "name": "1_L1_P1_3",
  "r": 209,
  "standardSortMethod": true,
  "stopSoundsOnStartup": true,
  "title": "",
  "v": 209,
  "uiSettings": {
    "grid": false,
    "gridType": "rectangular",
    "gridWidth": 32,
    "gridHeight": 32,
    "gridOffsetX": 0,
    "gridOffsetY": 0,
    "gridColor": 10401023,
    "gridAlpha": 0.8,
    "snap": false,
    "zoomFactor": 0.33005600491659237,
    "windowMask": false
  },
  "objectsGroups": [],
  "variables": [
    {
      "folded": true,
      "name": "checkPassQuestion",
      "type": "number",
      "value": 0
    },
    {
      "folded": true,
      "name": "pass",
      "type": "number",
      "value": 0
    },
    {
      "folded": true,
      "name": "timePlayPicture",
      "type": "number",
      "value": 20
    },
    {
      "folded": true,
      "name": "timePlayListen",
      "type": "number",
      "value": 20
    },
    {
      "folded": true,
      "name": "timeRemember",
      "type": "number",
      "value": 10
    },
    {
      "folded": true,
      "name": "timePlayRememberCard",
      "type": "number",
      "value": 20
    },
    {
      "folded": true,
      "name": "reallyStartRememberCardGame",
      "type": "boolean",
      "value": false
    },
    {
      "folded": true,
      "name": "randomNumQuesttion",
      "type": "number",
      "value": 0
    },
    {
      "folded": true,
      "name": "randomKeyQuest",
      "type": "string",
      "value": "0"
    },
    {
      "folded": true,
      "name": "checkKeyQuest",
      "type": "boolean",
      "value": false
    },
    {
      "folded": true,
      "name": "Win_textCongrat",
      "type": "string",
      "value": ""
    },
    {
      "folded": true,
      "name": "Win_randomText",
      "type": "number",
      "value": 0
    },
    {
      "folded": true,
      "name": "checkMatch",
      "type": "number",
      "value": 0
    },
    {
      "folded": true,
      "name": "tmpVar",
      "type": "number",
      "value": 0
    },
    {
      "folded": true,
      "name": "losePoint",
      "type": "number",
      "value": 0
    },
    {
      "folded": true,
      "name": "winPoint",
      "type": "number",
      "value": 0
    },
    {
      "folded": true,
      "name": "bonusPoint",
      "type": "number",
      "value": 0
    }
  ],
  "instances": [],
  "objects": [],
  "objectsFolderStructure": {
    "folderName": "__ROOT"
  },
  "events": [
    {
      "colorB": 228,
      "colorG": 176,
      "colorR": 74,
      "creationTime": 0,
      "name": "Match Question",
      "source": "",
      "type": "BuiltinCommonInstructions::Group",
      "events": [
        {
          "type": "BuiltinCommonInstructions::Standard",
          "conditions": [
            {
              "type": {
                "value": "DepartScene"
              },
              "parameters": [
                ""
              ]
            }
          ],
          "actions": [
            {
              "type": {
                "value": "ModVarScene"
              },
              "parameters": [
                "checkMatch",
                "=",
                "GlobalVariable(L1_P1_3)"
              ]
            },
            {
              "type": {
                "value": "ModVarScene"
              },
              "parameters": [
                "losePoint",
                "=",
                "50"
              ]
            },
            {
              "type": {
                "value": "ModVarScene"
              },
              "parameters": [
                "winPoint",
                "=",
                "100"
              ]
            },
            {
              "type": {
                "value": "ModVarScene"
              },
              "parameters": [
                "bonusPoint",
                "=",
                "125"
              ]
            }
          ]
        },
        {
          "type": "BuiltinCommonInstructions::Link",
          "include": {
            "includeConfig": 0
          },
          "target": "0_RandomQuestions"
        }
      ],
      "parameters": []
    },
    {
      "colorB": 228,
      "colorG": 176,
      "colorR": 74,
      "creationTime": 0,
      "name": "Check",
      "source": "",
      "type": "BuiltinCommonInstructions::Group",
      "events": [
        {
          "type": "BuiltinCommonInstructions::Comment",
          "color": {
            "b": 109,
            "g": 230,
            "r": 255,
            "textB": 0,
            "textG": 0,
            "textR": 0
          },
          "comment": "Chưa trả lời được"
        },
        {
          "type": "BuiltinCommonInstructions::Standard",
          "conditions": [
            {
              "type": {
                "value": "VarScene"
              },
              "parameters": [
                "checkPassQuestion",
                "=",
                "50"
              ]
            },
            {
              "type": {
                "value": "BuiltinCommonInstructions::Once"
              },
              "parameters": []
            }
          ],
          "actions": [
            {
              "type": {
                "value": "PrioritizeLoadingOfScene"
              },
              "parameters": [
                "",
                "\"1_MapLevel1\""
              ]
            },
            {
              "type": {
                "value": "Wait"
              },
              "parameters": [
                "3"
              ]
            },
            {
              "type": {
                "value": "BuiltinExternalLayouts::CreateObjectsFromExternalLayout"
              },
              "parameters": [
                "",
                "\"Lose_scene\"",
                "0",
                "0",
                "0"
              ]
            },
            {
              "type": {
                "value": "ModVarGlobal"
              },
              "parameters": [
                "PlayerScore",
                "+",
                "Variable(losePoint)"
              ]
            },
            {
              "type": {
                "value": "TextContainerCapability::TextContainerBehavior::SetValue"
              },
              "parameters": [
                "_0_PointTextMG",
                "Text",
                "=",
                "ToString(GlobalVariable(PlayerScore))"
              ]
            }
          ],
          "events": [
            {
              "type": "BuiltinCommonInstructions::Link",
              "include": {
                "includeConfig": 0
              },
              "target": "no_pass_question"
            },
            {
              "type": "BuiltinCommonInstructions::Link",
              "include": {
                "includeConfig": 0
              },
              "target": "01_RealCheckPoint"
            },
            {
              "type": "BuiltinCommonInstructions::Standard",
              "conditions": [],
              "actions": [
                {
                  "type": {
                    "value": "ModVarGlobal"
                  },
                  "parameters": [
                    "L1_P1_Check",
                    "=",
                    "0"
                  ]
                },
                {
                  "type": {
                    "value": "Wait"
                  },
                  "parameters": [
                    "3"
                  ]
                },
                {
                  "type": {
                    "value": "Tween::AddObjectOpacityTween"
                  },
                  "parameters": [
                    "screen_fade",
                    "Tween",
                    "\"fade_out\"",
                    "255",
                    "\"easeOutCubic\"",
                    "500",
                    ""
                  ]
                },
                {
                  "type": {
                    "value": "Wait"
                  },
                  "parameters": [
                    "1"
                  ]
                },
                {
                  "type": {
                    "value": "Scene"
                  },
                  "parameters": [
                    "",
                    "\"1_MapLevel1\"",
                    ""
                  ]
                }
              ]
            }
          ]
        },
        {
          "type": "BuiltinCommonInstructions::Comment",
          "color": {
            "b": 109,
            "g": 230,
            "r": 255,
            "textB": 0,
            "textG": 0,
            "textR": 0
          },
          "comment": "Trả lời được"
        },
        {
          "type": "BuiltinCommonInstructions::Standard",
          "conditions": [
            {
              "type": {
                "value": "VarScene"
              },
              "parameters": [
                "checkPassQuestion",
                "=",
                "100"
              ]
            },
            {
              "type": {
                "value": "BuiltinCommonInstructions::Once"
              },
              "parameters": []
            }
          ],
          "actions": [
            {
              "type": {
                "value": "PrioritizeLoadingOfScene"
              },
              "parameters": [
                "",
                "\"1_MapLevel1\""
              ]
            },
            {
              "type": {
                "value": "Wait"
              },
              "parameters": [
                "3"
              ]
            },
            {
              "type": {
                "value": "BuiltinExternalLayouts::CreateObjectsFromExternalLayout"
              },
              "parameters": [
                "",
                "\"Win_scene\"",
                "0",
                "0",
                "0"
              ]
            },
            {
              "type": {
                "value": "ModVarGlobal"
              },
              "parameters": [
                "PlayerScore",
                "+",
                "Variable(winPoint) + Variable(bonusPoint)"
              ]
            },
            {
              "type": {
                "value": "TextContainerCapability::TextContainerBehavior::SetValue"
              },
              "parameters": [
                "_0_PointTextMG",
                "Text",
                "=",
                "ToString(GlobalVariable(PlayerScore))"
              ]
            }
          ],
          "events": [
            {
              "type": "BuiltinCommonInstructions::Link",
              "include": {
                "includeConfig": 0
              },
              "target": "pass_question"
            },
            {
              "type": "BuiltinCommonInstructions::Link",
              "include": {
                "includeConfig": 0
              },
              "target": "01_RealCheckPoint"
            },
            {
              "type": "BuiltinCommonInstructions::Standard",
              "conditions": [],
              "actions": [
                {
                  "type": {
                    "value": "ModVarGlobal"
                  },
                  "parameters": [
                    "L1_P1_Check",
                    "=",
                    "0"
                  ]
                },
                {
                  "type": {
                    "value": "Wait"
                  },
                  "parameters": [
                    "3"
                  ]
                },
                {
                  "type": {
                    "value": "Tween::AddObjectOpacityTween"
                  },
                  "parameters": [
                    "screen_fade",
                    "Tween",
                    "\"fade_out\"",
                    "255",
                    "\"easeOutCubic\"",
                    "500",
                    ""
                  ]
                },
                {
                  "type": {
                    "value": "Wait"
                  },
                  "parameters": [
                    "1"
                  ]
                },
                {
                  "type": {
                    "value": "Scene"
                  },
                  "parameters": [
                    "",
                    "\"1_MapLevel1\"",
                    ""
                  ]
                }
              ]
            }
          ]
        }
      ],
      "parameters": []
    }
  ],
  "layers": [
    {
      "ambientLightColorB": 200,
      "ambientLightColorG": 200,
      "ambientLightColorR": 200,
      "camera3DFarPlaneDistance": 10000,
      "camera3DFieldOfView": 45,
      "camera3DNearPlaneDistance": 3,
      "followBaseLayerCamera": false,
      "isLightingLayer": false,
      "isLocked": false,
      "name": "",
      "renderingType": "",
      "visibility": true,
      "cameras": [
        {
          "defaultSize": true,
          "defaultViewport": true,
          "height": 0,
          "viewportBottom": 1,
          "viewportLeft": 0,
          "viewportRight": 1,
          "viewportTop": 0,
          "width": 0
        }
      ],
      "effects": [
        {
          "effectType": "Scene3D::HemisphereLight",
          "name": "3D Light",
          "doubleParameters": {
            "elevation": 45,
            "intensity": 1,
            "rotation": 0
          },
          "stringParameters": {
            "groundColor": "64;64;64",
            "skyColor": "255;255;255",
            "top": "Y-"
          },
          "booleanParameters": {}
        }
      ]
    },
    {
      "ambientLightColorB": 200,
      "ambientLightColorG": 200,
      "ambientLightColorR": 200,
      "camera3DFarPlaneDistance": 10000,
      "camera3DFieldOfView": 45,
      "camera3DNearPlaneDistance": 3,
      "followBaseLayerCamera": false,
      "isLightingLayer": false,
      "isLocked": false,
      "name": "Quest",
      "renderingType": "",
      "visibility": true,
      "cameras": [],
      "effects": [
        {
          "effectType": "Scene3D::HemisphereLight",
          "name": "3D Light",
          "doubleParameters": {
            "elevation": 45,
            "intensity": 1,
            "rotation": 0
          },
          "stringParameters": {
            "groundColor": "64;64;64",
            "skyColor": "255;255;255",
            "top": "Y-"
          },
          "booleanParameters": {}
        }
      ]
    },
    {
      "ambientLightColorB": 200,
      "ambientLightColorG": 200,
      "ambientLightColorR": 200,
      "camera3DFarPlaneDistance": 10000,
      "camera3DFieldOfView": 45,
      "camera3DNearPlaneDistance": 3,
      "followBaseLayerCamera": false,
      "isLightingLayer": false,
      "isLocked": false,
      "name": "Tutorial",
      "renderingType": "",
      "visibility": true,
      "cameras": [],
      "effects": [
        {
          "effectType": "Scene3D::HemisphereLight",
          "name": "3D Light",
          "doubleParameters": {
            "elevation": 45,
            "intensity": 1,
            "rotation": 0
          },
          "stringParameters": {
            "groundColor": "64;64;64",
            "skyColor": "255;255;255",
            "top": "Y-"
          },
          "booleanParameters": {}
        }
      ]
    },
    {
      "ambientLightColorB": 200,
      "ambientLightColorG": 200,
      "ambientLightColorR": 200,
      "camera3DFarPlaneDistance": 10000,
      "camera3DFieldOfView": 45,
      "camera3DNearPlaneDistance": 3,
      "followBaseLayerCamera": false,
      "isLightingLayer": false,
      "isLocked": false,
      "name": "Result",
      "renderingType": "",
      "visibility": true,
      "cameras": [],
      "effects": [
        {
          "effectType": "Scene3D::HemisphereLight",
          "name": "3D Light",
          "doubleParameters": {
            "elevation": 45,
            "intensity": 1,
            "rotation": 0
          },
          "stringParameters": {
            "groundColor": "64;64;64",
            "skyColor": "255;255;255",
            "top": "Y-"
          },
          "booleanParameters": {}
        }
      ]
    },
    {
      "ambientLightColorB": 200,
      "ambientLightColorG": 200,
      "ambientLightColorR": 200,
      "camera3DFarPlaneDistance": 10000,
      "camera3DFieldOfView": 45,
      "camera3DNearPlaneDistance": 3,
      "followBaseLayerCamera": false,
      "isLightingLayer": false,
      "isLocked": false,
      "name": "Fade",
      "renderingType": "",
      "visibility": true,
      "cameras": [],
      "effects": [
        {
          "effectType": "Scene3D::HemisphereLight",
          "name": "3D Light",
          "doubleParameters": {
            "elevation": 45,
            "intensity": 1,
            "rotation": 0
          },
          "stringParameters": {
            "groundColor": "64;64;64",
            "skyColor": "255;255;255",
            "top": "Y-"
          },
          "booleanParameters": {}
        }
      ]
    },
    {
      "ambientLightColorB": 200,
      "ambientLightColorG": 200,
      "ambientLightColorR": 200,
      "camera3DFarPlaneDistance": 10000,
      "camera3DFieldOfView": 45,
      "camera3DNearPlaneDistance": 3,
      "followBaseLayerCamera": false,
      "isLightingLayer": false,
      "isLocked": false,
      "name": "UI",
      "renderingType": "",
      "visibility": true,
      "cameras": [],
      "effects": [
        {
          "effectType": "Scene3D::HemisphereLight",
          "name": "3D Light",
          "doubleParameters": {
            "elevation": 45,
            "intensity": 1,
            "rotation": 0
          },
          "stringParameters": {
            "groundColor": "64;64;64",
            "skyColor": "255;255;255",
            "top": "Y-"
          },
          "booleanParameters": {}
        }
      ]
    }
  ],
  "behaviorsSharedData": [
    {
      "name": "Animation",
      "type": "AnimatableCapability::AnimatableBehavior"
    },
    {
      "name": "Effect",
      "type": "EffectCapability::EffectBehavior"
    },
    {
      "name": "FlashTransitionPainter",
      "type": "FlashTransitionPainter::FlashTransitionPainter"
    },
    {
      "name": "Flippable",
      "type": "FlippableCapability::FlippableBehavior"
    },
    {
      "name": "Health",
      "type": "Health::Health"
    },
    {
      "name": "Opacity",
      "type": "OpacityCapability::OpacityBehavior"
    },
    {
      "name": "RectangleMovement",
      "type": "RectangleMovement::RectangleMovement"
    },
    {
      "name": "Resizable",
      "type": "ResizableCapability::ResizableBehavior"
    },
    {
      "name": "Scale",
      "type": "ScalableCapability::ScalableBehavior"
    },
    {
      "name": "ShakeObject_PositionAngle",
      "type": "ShakeObject::ShakeObject_PositionAngle"
    },
    {
      "name": "ShakeObject_PositionAngleScale",
      "type": "ShakeObject::ShakeObject_PositionAngleScale"
    },
    {
      "name": "Text",
      "type": "TextContainerCapability::TextContainerBehavior"
    },
    {
      "name": "TopDownMovement",
      "type": "TopDownMovementBehavior::TopDownMovementBehavior"
    },
    {
      "name": "Tween",
      "type": "Tween::TweenBehavior"
    }
  ]
}