{
  "b": 209,
  "disableInputWhenNotFocused": true,
  "mangledName": "_50112_95picture_95lv1_95p3",
  "name": "2112_picture_lv1_p3",
  "r": 209,
  "standardSortMethod": true,
  "stopSoundsOnStartup": true,
  "title": "",
  "v": 209,
  "uiSettings": {
    "grid": false,
    "gridType": "rectangular",
    "gridWidth": 32,
    "gridHeight": 32,
    "gridOffsetX": 0,
    "gridOffsetY": 0,
    "gridColor": 10401023,
    "gridAlpha": 0.8,
    "snap": false,
    "zoomFactor": 0.34118560234734485,
    "windowMask": false
  },
  "objectsGroups": [],
  "variables": [
    {
      "folded": true,
      "name": "pass",
      "type": "number",
      "value": 0
    },
    {
      "folded": true,
      "name": "timePlayPicture",
      "type": "number",
      "value": 20
    }
  ],
  "instances": [
    {
      "angle": 0,
      "customSize": true,
      "depth": 1,
      "height": 163,
      "layer": "",
      "name": "picture_duckPic",
      "persistentUuid": "ae56115b-6795-4696-8f67-b5c53778b00e",
      "width": 130,
      "x": 480,
      "y": 214,
      "zOrder": 24,
      "numberProperties": [],
      "stringProperties": [],
      "initialVariables": []
    },
    {
      "angle": 0,
      "customSize": true,
      "depth": 2,
      "height": 178,
      "layer": "",
      "name": "picture_foxPic",
      "persistentUuid": "125db1ca-c30e-4958-a5ea-52464db11296",
      "width": 167,
      "x": 878,
      "y": 372,
      "zOrder": 25,
      "numberProperties": [],
      "stringProperties": [],
      "initialVariables": []
    },
    {
      "angle": 0,
      "customSize": true,
      "depth": 2,
      "height": 162,
      "layer": "",
      "name": "picture_snailPic",
      "persistentUuid": "1e558778-ed4c-4103-9503-42c9c4c27d06",
      "width": 134,
      "x": 508,
      "y": 685,
      "zOrder": 26,
      "numberProperties": [],
      "stringProperties": [],
      "initialVariables": []
    },
    {
      "angle": 0,
      "customSize": true,
      "depth": 2,
      "height": 166,
      "layer": "",
      "name": "picture_owlPic",
      "persistentUuid": "c7c7f963-624a-4578-b446-51b89ec219b0",
      "width": 113,
      "x": 732,
      "y": 186,
      "zOrder": 27,
      "numberProperties": [],
      "stringProperties": [],
      "initialVariables": []
    },
    {
      "angle": 0,
      "customSize": true,
      "depth": 2,
      "height": 164,
      "layer": "",
      "name": "picture_tigerPic",
      "persistentUuid": "2e46fa2c-d426-453c-b66a-2e01defa0464",
      "width": 132,
      "x": 800,
      "y": 676,
      "zOrder": 28,
      "numberProperties": [],
      "stringProperties": [],
      "initialVariables": []
    },
    {
      "angle": 0,
      "customSize": true,
      "depth": 2,
      "height": 154,
      "layer": "",
      "name": "picture_bearPic",
      "persistentUuid": "b9993cf8-d71b-4de2-b084-4d53405d6b7b",
      "width": 88,
      "x": 350,
      "y": 445,
      "zOrder": 29,
      "numberProperties": [],
      "stringProperties": [],
      "initialVariables": []
    },
    {
      "angle": 0,
      "customSize": false,
      "height": 0,
      "layer": "",
      "name": "picture_tigerText",
      "persistentUuid": "bb347116-47ec-40e3-bde9-a3663f9568e5",
      "width": 0,
      "x": 1371,
      "y": 436,
      "zOrder": 30,
      "numberProperties": [],
      "stringProperties": [],
      "initialVariables": []
    },
    {
      "angle": 0,
      "customSize": false,
      "height": 0,
      "layer": "",
      "name": "picture_snailText",
      "persistentUuid": "1c0dedfa-347c-41ac-b663-ec2341630446",
      "width": 0,
      "x": 1377,
      "y": 544,
      "zOrder": 31,
      "numberProperties": [],
      "stringProperties": [],
      "initialVariables": []
    },
    {
      "angle": 0,
      "customSize": false,
      "height": 0,
      "layer": "",
      "name": "picture_bearText",
      "persistentUuid": "4762de75-6c2b-465c-82c6-c0c36a9fc85a",
      "width": 0,
      "x": 1381,
      "y": 658,
      "zOrder": 32,
      "numberProperties": [],
      "stringProperties": [],
      "initialVariables": []
    },
    {
      "angle": 0,
      "customSize": false,
      "height": 0,
      "layer": "",
      "name": "picture_timePlay",
      "persistentUuid": "27c7c296-87cc-4c97-a79f-bf136b1ee495",
      "width": 0,
      "x": 1679,
      "y": 42,
      "zOrder": 33,
      "numberProperties": [],
      "stringProperties": [],
      "initialVariables": []
    },
    {
      "angle": 0,
      "customSize": true,
      "depth": 1,
      "height": 1110,
      "layer": "Fade",
      "name": "screen_fade",
      "persistentUuid": "99728488-6597-47dc-8fba-3f0de6fd7943",
      "width": 1960,
      "x": -13,
      "y": -15,
      "zOrder": 34,
      "numberProperties": [],
      "stringProperties": [],
      "initialVariables": []
    }
  ],
  "objects": [],
  "objectsFolderStructure": {
    "folderName": "__ROOT"
  },
  "events": [
    {
      "colorB": 228,
      "colorG": 176,
      "colorR": 74,
      "creationTime": 0,
      "name": "2112",
      "source": "",
      "type": "BuiltinCommonInstructions::Group",
      "events": [
        {
          "colorB": 228,
          "colorG": 176,
          "colorR": 74,
          "creationTime": 0,
          "name": "Scene",
          "source": "",
          "type": "BuiltinCommonInstructions::Group",
          "events": [
            {
              "type": "BuiltinCommonInstructions::Standard",
              "conditions": [
                {
                  "type": {
                    "value": "DepartScene"
                  },
                  "parameters": [
                    ""
                  ]
                }
              ],
              "actions": [
                {
                  "type": {
                    "value": "BuiltinExternalLayouts::CreateObjectsFromExternalLayout"
                  },
                  "parameters": [
                    "",
                    "\"Picture\"",
                    "0",
                    "0",
                    "0"
                  ]
                }
              ]
            },
            {
              "type": "BuiltinCommonInstructions::Standard",
              "conditions": [
                {
                  "type": {
                    "value": "DepartScene"
                  },
                  "parameters": [
                    ""
                  ]
                }
              ],
              "actions": [
                {
                  "type": {
                    "value": "TextContainerCapability::TextContainerBehavior::SetValue"
                  },
                  "parameters": [
                    "picture_timePlay",
                    "Text",
                    "=",
                    "ToString(Variable(timePlayPicture))"
                  ]
                },
                {
                  "type": {
                    "value": "ShowLayer"
                  },
                  "parameters": [
                    "",
                    "\"Fade\""
                  ]
                },
                {
                  "type": {
                    "value": "OpacityCapability::OpacityBehavior::SetValue"
                  },
                  "parameters": [
                    "picture_animalPic",
                    "Opacity",
                    "=",
                    "0"
                  ]
                },
                {
                  "type": {
                    "value": "PlayMusicCanal"
                  },
                  "parameters": [
                    "",
                    "lv1_music bg.mp3",
                    "15",
                    "yes",
                    "10",
                    "1"
                  ]
                },
                {
                  "type": {
                    "value": "ResetTimer"
                  },
                  "parameters": [
                    "",
                    "\"timePlay\""
                  ]
                }
              ],
              "events": [
                {
                  "type": "BuiltinCommonInstructions::Standard",
                  "conditions": [],
                  "actions": [
                    {
                      "type": {
                        "value": "Tween::AddObjectOpacityTween"
                      },
                      "parameters": [
                        "screen_fade",
                        "Tween",
                        "\"fade_in\"",
                        "0",
                        "\"linear\"",
                        "500",
                        ""
                      ]
                    },
                    {
                      "type": {
                        "value": "Tween::TweenBehavior::AddObjectOpacityTween2"
                      },
                      "parameters": [
                        "picture_animalPic",
                        "Tween",
                        "\"Opacity\"",
                        "255",
                        "\"easeInCubic\"",
                        "1",
                        ""
                      ]
                    }
                  ]
                }
              ]
            },
            {
              "type": "BuiltinCommonInstructions::Standard",
              "conditions": [
                {
                  "type": {
                    "value": "CompareTimer"
                  },
                  "parameters": [
                    "",
                    "\"timePlay\"",
                    ">=",
                    "1"
                  ]
                }
              ],
              "actions": [
                {
                  "type": {
                    "value": "ModVarScene"
                  },
                  "parameters": [
                    "timePlayPicture",
                    "-",
                    "1"
                  ]
                },
                {
                  "type": {
                    "value": "TextContainerCapability::TextContainerBehavior::SetValue"
                  },
                  "parameters": [
                    "picture_timePlay",
                    "Text",
                    "=",
                    "ToString(Variable(timePlayPicture))"
                  ]
                },
                {
                  "type": {
                    "value": "ResetTimer"
                  },
                  "parameters": [
                    "",
                    "\"timePlay\""
                  ]
                }
              ]
            },
            {
              "type": "BuiltinCommonInstructions::Standard",
              "conditions": [
                {
                  "type": {
                    "value": "VarScene"
                  },
                  "parameters": [
                    "timePlayPicture",
                    "<=",
                    "0"
                  ]
                }
              ],
              "actions": [
                {
                  "type": {
                    "value": "TextContainerCapability::TextContainerBehavior::SetValue"
                  },
                  "parameters": [
                    "picture_timePlay",
                    "Text",
                    "=",
                    "\"0\""
                  ]
                }
              ]
            }
          ],
          "parameters": []
        },
        {
          "colorB": 228,
          "colorG": 176,
          "colorR": 74,
          "creationTime": 0,
          "name": "Interaction",
          "source": "",
          "type": "BuiltinCommonInstructions::Group",
          "events": [
            {
              "type": "BuiltinCommonInstructions::Standard",
              "conditions": [
                {
                  "type": {
                    "value": "VarScene"
                  },
                  "parameters": [
                    "timePlayPicture",
                    ">",
                    "0"
                  ]
                },
                {
                  "type": {
                    "value": "VarScene"
                  },
                  "parameters": [
                    "pass",
                    "<",
                    "3"
                  ]
                },
                {
                  "type": {
                    "value": "BuiltinCommonInstructions::Or"
                  },
                  "parameters": [],
                  "subInstructions": [
                    {
                      "type": {
                        "inverted": true,
                        "value": "SourisSurObjet"
                      },
                      "parameters": [
                        "picture_tigerPic",
                        "",
                        "",
                        ""
                      ]
                    },
                    {
                      "type": {
                        "inverted": true,
                        "value": "SourisSurObjet"
                      },
                      "parameters": [
                        "picture_bearPic",
                        "",
                        "",
                        ""
                      ]
                    },
                    {
                      "type": {
                        "inverted": true,
                        "value": "SourisSurObjet"
                      },
                      "parameters": [
                        "picture_snailPic",
                        "",
                        "",
                        ""
                      ]
                    }
                  ]
                }
              ],
              "actions": [],
              "events": [
                {
                  "type": "BuiltinCommonInstructions::Standard",
                  "conditions": [
                    {
                      "type": {
                        "inverted": true,
                        "value": "ShakeObject::ShakeObject_PositionAngleScale::IsShaking"
                      },
                      "parameters": [
                        "picture_animalPic",
                        "ShakeObject_PositionAngleScale",
                        "\"Opacity\""
                      ]
                    },
                    {
                      "type": {
                        "value": "MouseButtonReleased"
                      },
                      "parameters": [
                        "",
                        "Left"
                      ]
                    },
                    {
                      "type": {
                        "value": "SourisSurObjet"
                      },
                      "parameters": [
                        "picture_animalPic",
                        "",
                        "",
                        ""
                      ]
                    }
                  ],
                  "actions": [
                    {
                      "type": {
                        "value": "ShakeObject::ShakeObject_PositionAngleScale::ShakeObject_PositionAngleScale"
                      },
                      "parameters": [
                        "picture_animalPic",
                        "ShakeObject_PositionAngleScale",
                        "0.5",
                        "50",
                        "50",
                        "0",
                        "5",
                        "0.08",
                        "",
                        ""
                      ]
                    },
                    {
                      "type": {
                        "value": "ModVarScene"
                      },
                      "parameters": [
                        "timePlayPicture",
                        "-",
                        "5"
                      ]
                    },
                    {
                      "type": {
                        "value": "TextContainerCapability::TextContainerBehavior::SetValue"
                      },
                      "parameters": [
                        "picture_timePlay",
                        "Text",
                        "=",
                        "ToString(Variable(timePlayPicture))"
                      ]
                    },
                    {
                      "type": {
                        "value": "PlaySound"
                      },
                      "parameters": [
                        "",
                        "asset audio\\wrong_choice.mp3",
                        "",
                        "50",
                        ""
                      ]
                    },
                    {
                      "type": {
                        "value": "Create"
                      },
                      "parameters": [
                        "",
                        "subtractTime",
                        "1679",
                        "190",
                        ""
                      ]
                    },
                    {
                      "type": {
                        "value": "Wait"
                      },
                      "parameters": [
                        "0.3"
                      ]
                    },
                    {
                      "type": {
                        "value": "Delete"
                      },
                      "parameters": [
                        "subtractTime",
                        ""
                      ]
                    }
                  ]
                }
              ]
            },
            {
              "type": "BuiltinCommonInstructions::Standard",
              "conditions": [
                {
                  "type": {
                    "value": "VarScene"
                  },
                  "parameters": [
                    "timePlayPicture",
                    ">",
                    "0"
                  ]
                },
                {
                  "type": {
                    "inverted": true,
                    "value": "Tween::IsPlaying"
                  },
                  "parameters": [
                    "picture_tigerPic",
                    "Tween",
                    "\"Opacity\""
                  ]
                },
                {
                  "type": {
                    "value": "SourisSurObjet"
                  },
                  "parameters": [
                    "picture_tigerPic",
                    "",
                    "",
                    ""
                  ]
                },
                {
                  "type": {
                    "value": "MouseButtonReleased"
                  },
                  "parameters": [
                    "",
                    "Left"
                  ]
                }
              ],
              "actions": [
                {
                  "type": {
                    "value": "ModVarScene"
                  },
                  "parameters": [
                    "pass",
                    "+",
                    "1"
                  ]
                },
                {
                  "type": {
                    "value": "PlaySound"
                  },
                  "parameters": [
                    "",
                    "asset audio\\correct audio.mp3",
                    "",
                    "50",
                    "1.5"
                  ]
                },
                {
                  "type": {
                    "value": "ShakeObject::ShakeObject_PositionAngleScale::StopShaking"
                  },
                  "parameters": [
                    "picture_tigerPic",
                    "ShakeObject_PositionAngleScale",
                    ""
                  ]
                }
              ],
              "events": [
                {
                  "type": "BuiltinCommonInstructions::Standard",
                  "conditions": [],
                  "actions": [
                    {
                      "type": {
                        "value": "Tween::TweenBehavior::AddObjectOpacityTween2"
                      },
                      "parameters": [
                        "picture_tigerPic",
                        "Tween",
                        "\"Opacity\"",
                        "0",
                        "\"easeInQuad\"",
                        "1",
                        ""
                      ]
                    },
                    {
                      "type": {
                        "value": "Wait"
                      },
                      "parameters": [
                        "1"
                      ]
                    },
                    {
                      "type": {
                        "value": "Delete"
                      },
                      "parameters": [
                        "picture_tigerPic",
                        ""
                      ]
                    }
                  ]
                },
                {
                  "type": "BuiltinCommonInstructions::Standard",
                  "conditions": [],
                  "actions": [
                    {
                      "type": {
                        "value": "Tween::TweenBehavior::AddObjectOpacityTween2"
                      },
                      "parameters": [
                        "picture_tigerText",
                        "Tween",
                        "\"Opacity\"",
                        "0",
                        "\"easeInQuad\"",
                        "1",
                        ""
                      ]
                    }
                  ]
                }
              ]
            },
            {
              "type": "BuiltinCommonInstructions::Standard",
              "conditions": [
                {
                  "type": {
                    "value": "VarScene"
                  },
                  "parameters": [
                    "timePlayPicture",
                    ">",
                    "0"
                  ]
                },
                {
                  "type": {
                    "inverted": true,
                    "value": "Tween::IsPlaying"
                  },
                  "parameters": [
                    "picture_bearPic",
                    "Tween",
                    "\"Opacity\""
                  ]
                },
                {
                  "type": {
                    "value": "SourisSurObjet"
                  },
                  "parameters": [
                    "picture_bearPic",
                    "",
                    "",
                    ""
                  ]
                },
                {
                  "type": {
                    "value": "MouseButtonReleased"
                  },
                  "parameters": [
                    "",
                    "Left"
                  ]
                }
              ],
              "actions": [
                {
                  "type": {
                    "value": "ModVarScene"
                  },
                  "parameters": [
                    "pass",
                    "+",
                    "1"
                  ]
                },
                {
                  "type": {
                    "value": "PlaySound"
                  },
                  "parameters": [
                    "",
                    "asset audio\\correct audio.mp3",
                    "",
                    "50",
                    "1.5"
                  ]
                },
                {
                  "type": {
                    "value": "ShakeObject::ShakeObject_PositionAngleScale::StopShaking"
                  },
                  "parameters": [
                    "picture_bearPic",
                    "ShakeObject_PositionAngleScale",
                    ""
                  ]
                }
              ],
              "events": [
                {
                  "type": "BuiltinCommonInstructions::Standard",
                  "conditions": [],
                  "actions": [
                    {
                      "type": {
                        "value": "Tween::TweenBehavior::AddObjectOpacityTween2"
                      },
                      "parameters": [
                        "picture_bearPic",
                        "Tween",
                        "\"Opacity\"",
                        "0",
                        "\"easeInQuad\"",
                        "1",
                        ""
                      ]
                    },
                    {
                      "type": {
                        "value": "Wait"
                      },
                      "parameters": [
                        "1"
                      ]
                    },
                    {
                      "type": {
                        "value": "Delete"
                      },
                      "parameters": [
                        "picture_mousePic",
                        ""
                      ]
                    }
                  ]
                },
                {
                  "type": "BuiltinCommonInstructions::Standard",
                  "conditions": [],
                  "actions": [
                    {
                      "type": {
                        "value": "Tween::TweenBehavior::AddObjectOpacityTween2"
                      },
                      "parameters": [
                        "picture_bearText",
                        "Tween",
                        "\"Opacity\"",
                        "0",
                        "\"easeInQuad\"",
                        "1",
                        ""
                      ]
                    }
                  ]
                }
              ]
            },
            {
              "type": "BuiltinCommonInstructions::Standard",
              "conditions": [
                {
                  "type": {
                    "value": "VarScene"
                  },
                  "parameters": [
                    "timePlayPicture",
                    ">",
                    "0"
                  ]
                },
                {
                  "type": {
                    "inverted": true,
                    "value": "Tween::IsPlaying"
                  },
                  "parameters": [
                    "picture_snailPic",
                    "Tween",
                    "\"Opacity\""
                  ]
                },
                {
                  "type": {
                    "value": "SourisSurObjet"
                  },
                  "parameters": [
                    "picture_snailPic",
                    "",
                    "",
                    ""
                  ]
                },
                {
                  "type": {
                    "value": "MouseButtonReleased"
                  },
                  "parameters": [
                    "",
                    "Left"
                  ]
                }
              ],
              "actions": [
                {
                  "type": {
                    "value": "ModVarScene"
                  },
                  "parameters": [
                    "pass",
                    "+",
                    "1"
                  ]
                },
                {
                  "type": {
                    "value": "PlaySound"
                  },
                  "parameters": [
                    "",
                    "asset audio\\correct audio.mp3",
                    "",
                    "50",
                    "1.5"
                  ]
                },
                {
                  "type": {
                    "value": "ShakeObject::ShakeObject_PositionAngleScale::StopShaking"
                  },
                  "parameters": [
                    "picture_snailPic",
                    "ShakeObject_PositionAngleScale",
                    ""
                  ]
                }
              ],
              "events": [
                {
                  "type": "BuiltinCommonInstructions::Standard",
                  "conditions": [],
                  "actions": [
                    {
                      "type": {
                        "value": "Tween::TweenBehavior::AddObjectOpacityTween2"
                      },
                      "parameters": [
                        "picture_snailPic",
                        "Tween",
                        "\"Opacity\"",
                        "0",
                        "\"easeInQuad\"",
                        "1",
                        ""
                      ]
                    },
                    {
                      "type": {
                        "value": "Wait"
                      },
                      "parameters": [
                        "1"
                      ]
                    },
                    {
                      "type": {
                        "value": "Delete"
                      },
                      "parameters": [
                        "picture_snailPic",
                        ""
                      ]
                    }
                  ]
                },
                {
                  "type": "BuiltinCommonInstructions::Standard",
                  "conditions": [],
                  "actions": [
                    {
                      "type": {
                        "value": "Tween::TweenBehavior::AddObjectOpacityTween2"
                      },
                      "parameters": [
                        "picture_snailText",
                        "Tween",
                        "\"Opacity\"",
                        "0",
                        "\"easeInQuad\"",
                        "1",
                        ""
                      ]
                    }
                  ]
                }
              ]
            }
          ],
          "parameters": []
        },
        {
          "colorB": 228,
          "colorG": 176,
          "colorR": 74,
          "creationTime": 0,
          "name": "Check",
          "source": "",
          "type": "BuiltinCommonInstructions::Group",
          "events": [
            {
              "type": "BuiltinCommonInstructions::Standard",
              "conditions": [
                {
                  "type": {
                    "value": "VarScene"
                  },
                  "parameters": [
                    "timePlayPicture",
                    "<=",
                    "0"
                  ]
                },
                {
                  "type": {
                    "value": "VarScene"
                  },
                  "parameters": [
                    "pass",
                    "<",
                    "3"
                  ]
                }
              ],
              "actions": [
                {
                  "type": {
                    "value": "ModVarScene"
                  },
                  "parameters": [
                    "checkPassQuestion",
                    "=",
                    "50"
                  ]
                },
                {
                  "type": {
                    "value": "PauseTimer"
                  },
                  "parameters": [
                    "",
                    "\"timePlay\""
                  ]
                }
              ]
            },
            {
              "type": "BuiltinCommonInstructions::Standard",
              "conditions": [
                {
                  "type": {
                    "value": "VarScene"
                  },
                  "parameters": [
                    "pass",
                    "=",
                    "3"
                  ]
                },
                {
                  "type": {
                    "value": "VarScene"
                  },
                  "parameters": [
                    "timePlayPicture",
                    ">",
                    "0"
                  ]
                }
              ],
              "actions": [
                {
                  "type": {
                    "value": "ModVarScene"
                  },
                  "parameters": [
                    "checkPassQuestion",
                    "=",
                    "100"
                  ]
                },
                {
                  "type": {
                    "value": "PauseTimer"
                  },
                  "parameters": [
                    "",
                    "\"timePlay\""
                  ]
                }
              ]
            }
          ],
          "parameters": []
        }
      ],
      "parameters": []
    }
  ],
  "layers": [
    {
      "ambientLightColorB": 200,
      "ambientLightColorG": 200,
      "ambientLightColorR": 200,
      "camera3DFarPlaneDistance": 10000,
      "camera3DFieldOfView": 45,
      "camera3DNearPlaneDistance": 3,
      "followBaseLayerCamera": false,
      "isLightingLayer": false,
      "isLocked": false,
      "name": "Background",
      "renderingType": "",
      "visibility": true,
      "cameras": [],
      "effects": [
        {
          "effectType": "Scene3D::HemisphereLight",
          "name": "3D Light",
          "doubleParameters": {
            "elevation": 45,
            "intensity": 1,
            "rotation": 0
          },
          "stringParameters": {
            "groundColor": "64;64;64",
            "skyColor": "255;255;255",
            "top": "Y-"
          },
          "booleanParameters": {}
        }
      ]
    },
    {
      "ambientLightColorB": 200,
      "ambientLightColorG": 200,
      "ambientLightColorR": 200,
      "camera3DFarPlaneDistance": 10000,
      "camera3DFieldOfView": 45,
      "camera3DNearPlaneDistance": 3,
      "followBaseLayerCamera": false,
      "isLightingLayer": false,
      "isLocked": false,
      "name": "",
      "renderingType": "",
      "visibility": true,
      "cameras": [
        {
          "defaultSize": true,
          "defaultViewport": true,
          "height": 0,
          "viewportBottom": 1,
          "viewportLeft": 0,
          "viewportRight": 1,
          "viewportTop": 0,
          "width": 0
        }
      ],
      "effects": [
        {
          "effectType": "Scene3D::HemisphereLight",
          "name": "3D Light",
          "doubleParameters": {
            "elevation": 45,
            "intensity": 1,
            "rotation": 0
          },
          "stringParameters": {
            "groundColor": "64;64;64",
            "skyColor": "255;255;255",
            "top": "Y-"
          },
          "booleanParameters": {}
        }
      ]
    },
    {
      "ambientLightColorB": 200,
      "ambientLightColorG": 200,
      "ambientLightColorR": 200,
      "camera3DFarPlaneDistance": 10000,
      "camera3DFieldOfView": 45,
      "camera3DNearPlaneDistance": 3,
      "followBaseLayerCamera": false,
      "isLightingLayer": false,
      "isLocked": false,
      "name": "Fade",
      "renderingType": "",
      "visibility": false,
      "cameras": [],
      "effects": [
        {
          "effectType": "Scene3D::HemisphereLight",
          "name": "3D Light",
          "doubleParameters": {
            "elevation": 45,
            "intensity": 1,
            "rotation": 0
          },
          "stringParameters": {
            "groundColor": "64;64;64",
            "skyColor": "255;255;255",
            "top": "Y-"
          },
          "booleanParameters": {}
        }
      ]
    }
  ],
  "behaviorsSharedData": [
    {
      "name": "Animation",
      "type": "AnimatableCapability::AnimatableBehavior"
    },
    {
      "name": "Effect",
      "type": "EffectCapability::EffectBehavior"
    },
    {
      "name": "FlashTransitionPainter",
      "type": "FlashTransitionPainter::FlashTransitionPainter"
    },
    {
      "name": "Flippable",
      "type": "FlippableCapability::FlippableBehavior"
    },
    {
      "name": "Health",
      "type": "Health::Health"
    },
    {
      "name": "Opacity",
      "type": "OpacityCapability::OpacityBehavior"
    },
    {
      "name": "RectangleMovement",
      "type": "RectangleMovement::RectangleMovement"
    },
    {
      "name": "Resizable",
      "type": "ResizableCapability::ResizableBehavior"
    },
    {
      "name": "Scale",
      "type": "ScalableCapability::ScalableBehavior"
    },
    {
      "name": "ShakeObject_PositionAngle",
      "type": "ShakeObject::ShakeObject_PositionAngle"
    },
    {
      "name": "ShakeObject_PositionAngleScale",
      "type": "ShakeObject::ShakeObject_PositionAngleScale"
    },
    {
      "name": "Text",
      "type": "TextContainerCapability::TextContainerBehavior"
    },
    {
      "name": "TopDownMovement",
      "type": "TopDownMovementBehavior::TopDownMovementBehavior"
    },
    {
      "name": "Tween",
      "type": "Tween::TweenBehavior"
    }
  ]
}