{
  "b": 209,
  "disableInputWhenNotFocused": true,
  "mangledName": "_50123_95listening_95lv1_95p4",
  "name": "2123_listening_lv1_p4",
  "r": 209,
  "standardSortMethod": true,
  "stopSoundsOnStartup": true,
  "title": "",
  "v": 209,
  "uiSettings": {
    "grid": false,
    "gridType": "rectangular",
    "gridWidth": 32,
    "gridHeight": 32,
    "gridOffsetX": 0,
    "gridOffsetY": 0,
    "gridColor": 10401023,
    "gridAlpha": 0.8,
    "snap": false,
    "zoomFactor": 0.35269049347712306,
    "windowMask": false
  },
  "objectsGroups": [],
  "variables": [
    {
      "folded": true,
      "name": "timePlayListen",
      "type": "number",
      "value": 30
    },
    {
      "folded": true,
      "name": "pass",
      "type": "number",
      "value": 0
    }
  ],
  "instances": [
    {
      "angle": 0,
      "customSize": true,
      "depth": 216,
      "height": 338,
      "layer": "Quest",
      "name": "listening_speakerQuest4",
      "persistentUuid": "5ded33a0-82ed-4dfb-ba7a-d3119b2ccdfb",
      "width": 345,
      "x": 1454,
      "y": 388,
      "zOrder": 7,
      "numberProperties": [],
      "stringProperties": [],
      "initialVariables": []
    },
    {
      "angle": 0,
      "customSize": true,
      "depth": 1,
      "height": 115,
      "layer": "Quest",
      "name": "listening_timePlay4",
      "persistentUuid": "460302f0-c070-4717-8f29-e1918c77c9cf",
      "width": 157,
      "x": 1679,
      "y": 42,
      "zOrder": 14,
      "numberProperties": [],
      "stringProperties": [],
      "initialVariables": []
    },
    {
      "angle": 0,
      "customSize": false,
      "height": 0,
      "layer": "",
      "name": "listening_btnLion",
      "persistentUuid": "f155d53a-7407-4348-aa23-2c2e94e85296",
      "width": 0,
      "x": 300,
      "y": 499,
      "zOrder": 26,
      "numberProperties": [],
      "stringProperties": [],
      "initialVariables": []
    },
    {
      "angle": 0,
      "customSize": false,
      "height": 0,
      "layer": "",
      "name": "listening_btnGiraffe",
      "persistentUuid": "0f7dd1f1-49e0-4b03-bcd4-a1544e5a5114",
      "width": 0,
      "x": 300,
      "y": 750,
      "zOrder": 27,
      "numberProperties": [],
      "stringProperties": [],
      "initialVariables": []
    },
    {
      "angle": 0,
      "customSize": true,
      "depth": 1,
      "height": 159,
      "layer": "",
      "name": "listening_lightLion",
      "persistentUuid": "111da048-8a09-4a15-a66e-ea62827615fb",
      "width": 159,
      "x": 415,
      "y": 388,
      "zOrder": 29,
      "numberProperties": [],
      "stringProperties": [],
      "initialVariables": []
    },
    {
      "angle": 0,
      "customSize": true,
      "depth": 1,
      "height": 179,
      "layer": "",
      "name": "listening_lightGiraffe",
      "persistentUuid": "4a31c5f2-bfe9-4366-92ca-2b932bababd5",
      "width": 179,
      "x": 415,
      "y": 643,
      "zOrder": 31,
      "numberProperties": [],
      "stringProperties": [],
      "initialVariables": []
    },
    {
      "angle": 0,
      "customSize": false,
      "height": 0,
      "layer": "",
      "name": "listening_btnParrot",
      "persistentUuid": "d7423c22-abff-4612-82f5-b5f746e062f8",
      "width": 0,
      "x": 833,
      "y": 499,
      "zOrder": 33,
      "numberProperties": [],
      "stringProperties": [],
      "initialVariables": []
    },
    {
      "angle": 0,
      "customSize": false,
      "height": 0,
      "layer": "",
      "name": "listening_btnCock",
      "persistentUuid": "c7eab158-3b16-4165-812d-d575ffd16101",
      "width": 0,
      "x": 833,
      "y": 261,
      "zOrder": 34,
      "numberProperties": [],
      "stringProperties": [],
      "initialVariables": []
    },
    {
      "angle": 0,
      "customSize": false,
      "height": 0,
      "layer": "",
      "name": "listening_btnFrog",
      "persistentUuid": "50e01caa-44e2-4bd3-b647-f1a92edbf1ac",
      "width": 0,
      "x": 300,
      "y": 261,
      "zOrder": 35,
      "numberProperties": [],
      "stringProperties": [],
      "initialVariables": []
    },
    {
      "angle": 0,
      "customSize": true,
      "depth": 32,
      "height": 106,
      "layer": "",
      "name": "listening_btnTiger",
      "persistentUuid": "bfa08db2-80b5-4f75-9360-cc5d1e53ef6e",
      "width": 256,
      "x": 833,
      "y": 750,
      "zOrder": 36,
      "numberProperties": [],
      "stringProperties": [],
      "initialVariables": []
    },
    {
      "angle": 0,
      "customSize": true,
      "depth": 0,
      "height": 198,
      "layer": "",
      "name": "listening_lightFrog",
      "persistentUuid": "274c620e-5d70-45d5-8dc1-c381fb938472",
      "width": 198,
      "x": 415,
      "y": 155,
      "zOrder": 37,
      "numberProperties": [],
      "stringProperties": [],
      "initialVariables": []
    },
    {
      "angle": 0,
      "customSize": true,
      "depth": 0,
      "height": 205,
      "layer": "",
      "name": "listening_lightCock",
      "persistentUuid": "8dcf2194-520b-4a6f-b968-47f7ac22face",
      "width": 205,
      "x": 940,
      "y": 155,
      "zOrder": 38,
      "numberProperties": [],
      "stringProperties": [],
      "initialVariables": []
    },
    {
      "angle": 0,
      "customSize": true,
      "depth": 1,
      "height": 288,
      "layer": "",
      "name": "listening_lightParrot",
      "persistentUuid": "589560a0-6cc5-478e-b20a-a0a2d192a5ca",
      "width": 288,
      "x": 938,
      "y": 388,
      "zOrder": 39,
      "numberProperties": [],
      "stringProperties": [],
      "initialVariables": []
    },
    {
      "angle": 0,
      "customSize": true,
      "depth": 1,
      "height": 244,
      "layer": "",
      "name": "listening_lightTiger",
      "persistentUuid": "f045e9b6-120d-42fd-b4ba-4f33aaf3223f",
      "width": 244,
      "x": 938,
      "y": 643,
      "zOrder": 40,
      "numberProperties": [],
      "stringProperties": [],
      "initialVariables": []
    },
    {
      "angle": 0,
      "customSize": true,
      "depth": 1,
      "height": 1093,
      "layer": "Fade",
      "name": "screen_fade",
      "persistentUuid": "06210e01-9523-4c4f-9cd3-276281c651b4",
      "width": 1938,
      "x": -6,
      "y": -6,
      "zOrder": 41,
      "numberProperties": [],
      "stringProperties": [],
      "initialVariables": []
    }
  ],
  "objects": [
    {
      "adaptCollisionMaskAutomatically": true,
      "assetStoreId": "",
      "name": "listening_background",
      "type": "Sprite",
      "updateIfNotVisible": false,
      "variables": [],
      "effects": [],
      "behaviors": [],
      "animations": [
        {
          "name": "",
          "useMultipleDirections": false,
          "directions": [
            {
              "looping": false,
              "timeBetweenFrames": 0.08,
              "sprites": [
                {
                  "hasCustomCollisionMask": true,
                  "image": "Background.png",
                  "points": [],
                  "originPoint": {
                    "name": "origine",
                    "x": 0,
                    "y": 0
                  },
                  "centerPoint": {
                    "automatic": true,
                    "name": "centre",
                    "x": 0,
                    "y": 0
                  },
                  "customCollisionMask": [
                    [
                      {
                        "x": 1,
                        "y": 0
                      },
                      {
                        "x": 11056,
                        "y": 0
                      },
                      {
                        "x": 11056,
                        "y": 7897
                      },
                      {
                        "x": 1,
                        "y": 7897
                      }
                    ]
                  ]
                }
              ]
            }
          ]
        }
      ]
    },
    {
      "adaptCollisionMaskAutomatically": true,
      "assetStoreId": "",
      "name": "listening_cloud1",
      "type": "Sprite",
      "updateIfNotVisible": false,
      "variables": [],
      "effects": [],
      "behaviors": [],
      "animations": [
        {
          "name": "",
          "useMultipleDirections": false,
          "directions": [
            {
              "looping": false,
              "timeBetweenFrames": 0.08,
              "sprites": [
                {
                  "hasCustomCollisionMask": true,
                  "image": "cloud1@3x.png",
                  "points": [],
                  "originPoint": {
                    "name": "origine",
                    "x": 0,
                    "y": 0
                  },
                  "centerPoint": {
                    "automatic": true,
                    "name": "centre",
                    "x": 0,
                    "y": 0
                  },
                  "customCollisionMask": [
                    [
                      {
                        "x": 0,
                        "y": 0
                      },
                      {
                        "x": 1737,
                        "y": 0
                      },
                      {
                        "x": 1737,
                        "y": 878
                      },
                      {
                        "x": 0,
                        "y": 878
                      }
                    ]
                  ]
                }
              ]
            }
          ]
        }
      ]
    },
    {
      "adaptCollisionMaskAutomatically": true,
      "assetStoreId": "",
      "name": "listening_cloud2",
      "type": "Sprite",
      "updateIfNotVisible": false,
      "variables": [],
      "effects": [],
      "behaviors": [],
      "animations": [
        {
          "name": "",
          "useMultipleDirections": false,
          "directions": [
            {
              "looping": false,
              "timeBetweenFrames": 0.08,
              "sprites": [
                {
                  "hasCustomCollisionMask": true,
                  "image": "cloud2@3x.png",
                  "points": [],
                  "originPoint": {
                    "name": "origine",
                    "x": 0,
                    "y": 0
                  },
                  "centerPoint": {
                    "automatic": true,
                    "name": "centre",
                    "x": 0,
                    "y": 0
                  },
                  "customCollisionMask": [
                    [
                      {
                        "x": 0,
                        "y": 0
                      },
                      {
                        "x": 2118,
                        "y": 0
                      },
                      {
                        "x": 2118,
                        "y": 1266
                      },
                      {
                        "x": 0,
                        "y": 1266
                      }
                    ]
                  ]
                }
              ]
            }
          ]
        }
      ]
    },
    {
      "adaptCollisionMaskAutomatically": true,
      "assetStoreId": "",
      "name": "listening_board",
      "type": "Sprite",
      "updateIfNotVisible": false,
      "variables": [],
      "effects": [],
      "behaviors": [],
      "animations": [
        {
          "name": "",
          "useMultipleDirections": false,
          "directions": [
            {
              "looping": false,
              "timeBetweenFrames": 0.08,
              "sprites": [
                {
                  "hasCustomCollisionMask": true,
                  "image": "board.png",
                  "points": [],
                  "originPoint": {
                    "name": "origine",
                    "x": 0,
                    "y": 0
                  },
                  "centerPoint": {
                    "automatic": true,
                    "name": "centre",
                    "x": 0,
                    "y": 0
                  },
                  "customCollisionMask": [
                    [
                      {
                        "x": 0,
                        "y": 0
                      },
                      {
                        "x": 2780,
                        "y": 0
                      },
                      {
                        "x": 2780,
                        "y": 2046
                      },
                      {
                        "x": 0,
                        "y": 2046
                      }
                    ]
                  ]
                }
              ]
            }
          ]
        }
      ]
    }
  ],
  "objectsFolderStructure": {
    "folderName": "__ROOT",
    "children": [
      {
        "objectName": "listening_background"
      },
      {
        "objectName": "listening_cloud1"
      },
      {
        "objectName": "listening_cloud2"
      },
      {
        "objectName": "listening_board"
      }
    ]
  },
  "events": [
    {
      "colorB": 228,
      "colorG": 176,
      "colorR": 74,
      "creationTime": 0,
      "name": "2123",
      "source": "",
      "type": "BuiltinCommonInstructions::Group",
      "events": [
        {
          "colorB": 228,
          "colorG": 176,
          "colorR": 74,
          "creationTime": 0,
          "name": "Scene",
          "source": "",
          "type": "BuiltinCommonInstructions::Group",
          "events": [
            {
              "type": "BuiltinCommonInstructions::Standard",
              "conditions": [
                {
                  "type": {
                    "value": "DepartScene"
                  },
                  "parameters": [
                    ""
                  ]
                }
              ],
              "actions": [
                {
                  "type": {
                    "value": "BuiltinExternalLayouts::CreateObjectsFromExternalLayout"
                  },
                  "parameters": [
                    "",
                    "\"Listening\"",
                    "0",
                    "0",
                    "0"
                  ]
                }
              ]
            },
            {
              "type": "BuiltinCommonInstructions::Standard",
              "conditions": [
                {
                  "type": {
                    "value": "DepartScene"
                  },
                  "parameters": [
                    ""
                  ]
                }
              ],
              "actions": [
                {
                  "type": {
                    "value": "TextContainerCapability::TextContainerBehavior::SetValue"
                  },
                  "parameters": [
                    "listening_timePlay4",
                    "Text",
                    "=",
                    "ToString(Variable(timePlayListen))"
                  ]
                },
                {
                  "type": {
                    "value": "ShowLayer"
                  },
                  "parameters": [
                    "",
                    "\"Fade\""
                  ]
                },
                {
                  "type": {
                    "value": "PlayMusicCanal"
                  },
                  "parameters": [
                    "",
                    "lv1_music bg.mp3",
                    "15",
                    "yes",
                    "10",
                    "1"
                  ]
                },
                {
                  "type": {
                    "value": "ResetTimer"
                  },
                  "parameters": [
                    "",
                    "\"timePlay\""
                  ]
                },
                {
                  "type": {
                    "value": "ResizableCapability::ResizableBehavior::SetSize"
                  },
                  "parameters": [
                    "listening_btn",
                    "Resizable",
                    "309",
                    "110"
                  ]
                },
                {
                  "type": {
                    "value": "ResizableCapability::ResizableBehavior::SetSize"
                  },
                  "parameters": [
                    "listening_light",
                    "Resizable",
                    "100",
                    "100"
                  ]
                }
              ],
              "events": [
                {
                  "type": "BuiltinCommonInstructions::Standard",
                  "conditions": [],
                  "actions": [
                    {
                      "type": {
                        "value": "Tween::AddObjectOpacityTween"
                      },
                      "parameters": [
                        "screen_fade",
                        "Tween",
                        "\"fade_in\"",
                        "0",
                        "\"linear\"",
                        "500",
                        ""
                      ]
                    }
                  ]
                }
              ]
            },
            {
              "type": "BuiltinCommonInstructions::Standard",
              "conditions": [
                {
                  "type": {
                    "value": "CompareTimer"
                  },
                  "parameters": [
                    "",
                    "\"timePlay\"",
                    ">=",
                    "1"
                  ]
                }
              ],
              "actions": [
                {
                  "type": {
                    "value": "ModVarScene"
                  },
                  "parameters": [
                    "timePlayListen",
                    "-",
                    "1"
                  ]
                },
                {
                  "type": {
                    "value": "TextContainerCapability::TextContainerBehavior::SetValue"
                  },
                  "parameters": [
                    "listening_timePlay4",
                    "Text",
                    "=",
                    "ToString(Variable(timePlayListen))"
                  ]
                },
                {
                  "type": {
                    "value": "ResetTimer"
                  },
                  "parameters": [
                    "",
                    "\"timePlay\""
                  ]
                }
              ]
            },
            {
              "type": "BuiltinCommonInstructions::Standard",
              "conditions": [
                {
                  "type": {
                    "value": "VarScene"
                  },
                  "parameters": [
                    "timePlayListen",
                    "<=",
                    "0"
                  ]
                }
              ],
              "actions": [
                {
                  "type": {
                    "value": "TextContainerCapability::TextContainerBehavior::SetValue"
                  },
                  "parameters": [
                    "listening_timePlay4",
                    "Text",
                    "=",
                    "\"0\""
                  ]
                }
              ]
            },
            {
              "type": "BuiltinCommonInstructions::Standard",
              "conditions": [],
              "actions": []
            }
          ],
          "parameters": []
        },
        {
          "colorB": 228,
          "colorG": 176,
          "colorR": 74,
          "creationTime": 0,
          "name": "Interaction",
          "source": "",
          "type": "BuiltinCommonInstructions::Group",
          "events": [
            {
              "type": "BuiltinCommonInstructions::Standard",
              "conditions": [
                {
                  "type": {
                    "inverted": true,
                    "value": "MusicPlaying"
                  },
                  "parameters": [
                    "",
                    "10"
                  ]
                },
                {
                  "type": {
                    "value": "PanelSpriteButton::PanelSpriteButton::IsClicked"
                  },
                  "parameters": [
                    "listening_speakerQuest4",
                    ""
                  ]
                }
              ],
              "actions": [
                {
                  "type": {
                    "value": "PlaySound"
                  },
                  "parameters": [
                    "",
                    "asset audio\\btn_click.mp3",
                    "",
                    "50",
                    ""
                  ]
                },
                {
                  "type": {
                    "value": "Wait"
                  },
                  "parameters": [
                    "0.5"
                  ]
                },
                {
                  "type": {
                    "value": "PlayMusicCanal"
                  },
                  "parameters": [
                    "",
                    "lv1_p4.mp3",
                    "10",
                    "50",
                    "80",
                    "1"
                  ]
                },
                {
                  "type": {
                    "value": "PanelSpriteButton::PanelSpriteButton::Activate"
                  },
                  "parameters": [
                    "listening_speakerQuest4",
                    "no",
                    ""
                  ]
                }
              ]
            },
            {
              "type": "BuiltinCommonInstructions::Standard",
              "conditions": [
                {
                  "type": {
                    "value": "MusicStopped"
                  },
                  "parameters": [
                    "",
                    "10"
                  ]
                }
              ],
              "actions": [
                {
                  "type": {
                    "value": "PanelSpriteButton::PanelSpriteButton::Activate"
                  },
                  "parameters": [
                    "listening_speakerQuest4",
                    "yes",
                    ""
                  ]
                }
              ]
            },
            {
              "type": "BuiltinCommonInstructions::Standard",
              "conditions": [
                {
                  "type": {
                    "value": "PanelSpriteButton::PanelSpriteButton::IsClicked"
                  },
                  "parameters": [
                    "listening_btn",
                    ""
                  ]
                }
              ],
              "actions": [
                {
                  "type": {
                    "value": "PlaySound"
                  },
                  "parameters": [
                    "",
                    "asset audio\\btn_click.mp3",
                    "",
                    "50",
                    ""
                  ]
                }
              ]
            },
            {
              "type": "BuiltinCommonInstructions::Comment",
              "color": {
                "b": 109,
                "g": 230,
                "r": 255,
                "textB": 0,
                "textG": 0,
                "textR": 0
              },
              "comment": "Sai"
            },
            {
              "type": "BuiltinCommonInstructions::Standard",
              "conditions": [
                {
                  "type": {
                    "value": "BuiltinCommonInstructions::Or"
                  },
                  "parameters": [],
                  "subInstructions": [
                    {
                      "type": {
                        "value": "PanelSpriteButton::PanelSpriteButton::IsClicked"
                      },
                      "parameters": [
                        "listening_btnFrog",
                        ""
                      ]
                    },
                    {
                      "type": {
                        "value": "PanelSpriteButton::PanelSpriteButton::IsClicked"
                      },
                      "parameters": [
                        "listening_btnGiraffe",
                        ""
                      ]
                    },
                    {
                      "type": {
                        "value": "PanelSpriteButton::PanelSpriteButton::IsClicked"
                      },
                      "parameters": [
                        "listening_btnTiger",
                        ""
                      ]
                    }
                  ]
                }
              ],
              "actions": [
                {
                  "type": {
                    "value": "ModVarScene"
                  },
                  "parameters": [
                    "timePlayListen",
                    "-",
                    "5"
                  ]
                },
                {
                  "type": {
                    "value": "TextContainerCapability::TextContainerBehavior::SetValue"
                  },
                  "parameters": [
                    "listening_timePlay4",
                    "Text",
                    "=",
                    "ToString(Variable(timePlayListen))"
                  ]
                },
                {
                  "type": {
                    "value": "Create"
                  },
                  "parameters": [
                    "",
                    "subtractTime",
                    "1679",
                    "190",
                    "\"Quest\""
                  ]
                },
                {
                  "type": {
                    "value": "Wait"
                  },
                  "parameters": [
                    "0.3"
                  ]
                },
                {
                  "type": {
                    "value": "Delete"
                  },
                  "parameters": [
                    "subtractTime",
                    ""
                  ]
                },
                {
                  "type": {
                    "value": "PlaySound"
                  },
                  "parameters": [
                    "",
                    "assets\\asset audio\\wrong_choice.mp3",
                    "",
                    "50",
                    ""
                  ]
                }
              ]
            },
            {
              "type": "BuiltinCommonInstructions::Comment",
              "color": {
                "b": 109,
                "g": 230,
                "r": 255,
                "textB": 0,
                "textG": 0,
                "textR": 0
              },
              "comment": "Đúng"
            },
            {
              "type": "BuiltinCommonInstructions::Standard",
              "conditions": [
                {
                  "type": {
                    "value": "PanelSpriteButton::PanelSpriteButton::IsClicked"
                  },
                  "parameters": [
                    "listening_btnCock",
                    ""
                  ]
                }
              ],
              "actions": [
                {
                  "type": {
                    "value": "PlaySound"
                  },
                  "parameters": [
                    "",
                    "assets\\asset audio\\correct audio.mp3",
                    "",
                    "50",
                    ""
                  ]
                },
                {
                  "type": {
                    "value": "AnimatableCapability::AnimatableBehavior::SetName"
                  },
                  "parameters": [
                    "listening_lightCock",
                    "Animation",
                    "=",
                    "\"on\""
                  ]
                },
                {
                  "type": {
                    "value": "ModVarScene"
                  },
                  "parameters": [
                    "pass",
                    "+",
                    "1"
                  ]
                },
                {
                  "type": {
                    "value": "PanelSpriteButton::PanelSpriteButton::Activate"
                  },
                  "parameters": [
                    "listening_btnCock",
                    "",
                    ""
                  ]
                }
              ]
            },
            {
              "type": "BuiltinCommonInstructions::Standard",
              "conditions": [
                {
                  "type": {
                    "value": "PanelSpriteButton::PanelSpriteButton::IsClicked"
                  },
                  "parameters": [
                    "listening_btnParrot",
                    ""
                  ]
                }
              ],
              "actions": [
                {
                  "type": {
                    "value": "PlaySound"
                  },
                  "parameters": [
                    "",
                    "assets\\asset audio\\correct audio.mp3",
                    "",
                    "50",
                    ""
                  ]
                },
                {
                  "type": {
                    "value": "AnimatableCapability::AnimatableBehavior::SetName"
                  },
                  "parameters": [
                    "listening_lightParrot",
                    "Animation",
                    "=",
                    "\"on\""
                  ]
                },
                {
                  "type": {
                    "value": "ModVarScene"
                  },
                  "parameters": [
                    "pass",
                    "+",
                    "1"
                  ]
                },
                {
                  "type": {
                    "value": "PanelSpriteButton::PanelSpriteButton::Activate"
                  },
                  "parameters": [
                    "listening_btnParrot",
                    "",
                    ""
                  ]
                }
              ]
            },
            {
              "type": "BuiltinCommonInstructions::Standard",
              "conditions": [
                {
                  "type": {
                    "value": "PanelSpriteButton::PanelSpriteButton::IsClicked"
                  },
                  "parameters": [
                    "listening_btnLion",
                    ""
                  ]
                }
              ],
              "actions": [
                {
                  "type": {
                    "value": "PlaySound"
                  },
                  "parameters": [
                    "",
                    "assets\\asset audio\\correct audio.mp3",
                    "",
                    "50",
                    ""
                  ]
                },
                {
                  "type": {
                    "value": "AnimatableCapability::AnimatableBehavior::SetName"
                  },
                  "parameters": [
                    "listening_lightLion",
                    "Animation",
                    "=",
                    "\"on\""
                  ]
                },
                {
                  "type": {
                    "value": "ModVarScene"
                  },
                  "parameters": [
                    "pass",
                    "+",
                    "1"
                  ]
                },
                {
                  "type": {
                    "value": "PanelSpriteButton::PanelSpriteButton::Activate"
                  },
                  "parameters": [
                    "listening_btnLion",
                    "",
                    ""
                  ]
                }
              ]
            },
            {
              "type": "BuiltinCommonInstructions::Standard",
              "conditions": [],
              "actions": []
            }
          ],
          "parameters": []
        },
        {
          "colorB": 228,
          "colorG": 176,
          "colorR": 74,
          "creationTime": 0,
          "name": "Check",
          "source": "",
          "type": "BuiltinCommonInstructions::Group",
          "events": [
            {
              "type": "BuiltinCommonInstructions::Standard",
              "conditions": [
                {
                  "type": {
                    "value": "VarScene"
                  },
                  "parameters": [
                    "timePlayListen",
                    "<=",
                    "0"
                  ]
                },
                {
                  "type": {
                    "value": "VarScene"
                  },
                  "parameters": [
                    "pass",
                    "<",
                    "3"
                  ]
                }
              ],
              "actions": [
                {
                  "type": {
                    "value": "ModVarScene"
                  },
                  "parameters": [
                    "checkPassQuestion",
                    "=",
                    "50"
                  ]
                },
                {
                  "type": {
                    "value": "PanelSpriteButton::PanelSpriteButton::Activate"
                  },
                  "parameters": [
                    "listening_btn",
                    "no",
                    ""
                  ]
                },
                {
                  "type": {
                    "value": "PauseTimer"
                  },
                  "parameters": [
                    "",
                    "\"timePlay\""
                  ]
                }
              ]
            },
            {
              "type": "BuiltinCommonInstructions::Standard",
              "conditions": [
                {
                  "type": {
                    "value": "VarScene"
                  },
                  "parameters": [
                    "pass",
                    "=",
                    "3"
                  ]
                },
                {
                  "type": {
                    "value": "VarScene"
                  },
                  "parameters": [
                    "timePlayListen",
                    ">",
                    "0"
                  ]
                }
              ],
              "actions": [
                {
                  "type": {
                    "value": "ModVarScene"
                  },
                  "parameters": [
                    "checkPassQuestion",
                    "=",
                    "100"
                  ]
                },
                {
                  "type": {
                    "value": "PanelSpriteButton::PanelSpriteButton::Activate"
                  },
                  "parameters": [
                    "listening_btn",
                    "no",
                    ""
                  ]
                },
                {
                  "type": {
                    "value": "PauseTimer"
                  },
                  "parameters": [
                    "",
                    "\"timePlay\""
                  ]
                }
              ]
            },
            {
              "type": "BuiltinCommonInstructions::Standard",
              "conditions": [],
              "actions": []
            }
          ],
          "parameters": []
        }
      ],
      "parameters": []
    }
  ],
  "layers": [
    {
      "ambientLightColorB": 200,
      "ambientLightColorG": 200,
      "ambientLightColorR": 200,
      "camera3DFarPlaneDistance": 10000,
      "camera3DFieldOfView": 45,
      "camera3DNearPlaneDistance": 3,
      "followBaseLayerCamera": false,
      "isLightingLayer": false,
      "isLocked": false,
      "name": "Background",
      "renderingType": "",
      "visibility": true,
      "cameras": [],
      "effects": [
        {
          "effectType": "Scene3D::HemisphereLight",
          "name": "3D Light",
          "doubleParameters": {
            "elevation": 45,
            "intensity": 1,
            "rotation": 0
          },
          "stringParameters": {
            "groundColor": "64;64;64",
            "skyColor": "255;255;255",
            "top": "Y-"
          },
          "booleanParameters": {}
        }
      ]
    },
    {
      "ambientLightColorB": 200,
      "ambientLightColorG": 200,
      "ambientLightColorR": 200,
      "camera3DFarPlaneDistance": 10000,
      "camera3DFieldOfView": 45,
      "camera3DNearPlaneDistance": 3,
      "followBaseLayerCamera": false,
      "isLightingLayer": false,
      "isLocked": false,
      "name": "",
      "renderingType": "",
      "visibility": true,
      "cameras": [
        {
          "defaultSize": true,
          "defaultViewport": true,
          "height": 0,
          "viewportBottom": 1,
          "viewportLeft": 0,
          "viewportRight": 1,
          "viewportTop": 0,
          "width": 0
        }
      ],
      "effects": [
        {
          "effectType": "Scene3D::HemisphereLight",
          "name": "3D Light",
          "doubleParameters": {
            "elevation": 45,
            "intensity": 1,
            "rotation": 0
          },
          "stringParameters": {
            "groundColor": "64;64;64",
            "skyColor": "255;255;255",
            "top": "Y-"
          },
          "booleanParameters": {}
        }
      ]
    },
    {
      "ambientLightColorB": 200,
      "ambientLightColorG": 200,
      "ambientLightColorR": 200,
      "camera3DFarPlaneDistance": 10000,
      "camera3DFieldOfView": 45,
      "camera3DNearPlaneDistance": 3,
      "followBaseLayerCamera": false,
      "isLightingLayer": false,
      "isLocked": false,
      "name": "Quest",
      "renderingType": "",
      "visibility": true,
      "cameras": [],
      "effects": [
        {
          "effectType": "Scene3D::HemisphereLight",
          "name": "3D Light",
          "doubleParameters": {
            "elevation": 45,
            "intensity": 1,
            "rotation": 0
          },
          "stringParameters": {
            "groundColor": "64;64;64",
            "skyColor": "255;255;255",
            "top": "Y-"
          },
          "booleanParameters": {}
        }
      ]
    },
    {
      "ambientLightColorB": 200,
      "ambientLightColorG": 200,
      "ambientLightColorR": 200,
      "camera3DFarPlaneDistance": 10000,
      "camera3DFieldOfView": 45,
      "camera3DNearPlaneDistance": 3,
      "followBaseLayerCamera": false,
      "isLightingLayer": false,
      "isLocked": false,
      "name": "Fade",
      "renderingType": "",
      "visibility": false,
      "cameras": [],
      "effects": [
        {
          "effectType": "Scene3D::HemisphereLight",
          "name": "3D Light",
          "doubleParameters": {
            "elevation": 45,
            "intensity": 1,
            "rotation": 0
          },
          "stringParameters": {
            "groundColor": "64;64;64",
            "skyColor": "255;255;255",
            "top": "Y-"
          },
          "booleanParameters": {}
        }
      ]
    }
  ],
  "behaviorsSharedData": [
    {
      "name": "Animation",
      "type": "AnimatableCapability::AnimatableBehavior"
    },
    {
      "name": "Effect",
      "type": "EffectCapability::EffectBehavior"
    },
    {
      "name": "FlashTransitionPainter",
      "type": "FlashTransitionPainter::FlashTransitionPainter"
    },
    {
      "name": "Flippable",
      "type": "FlippableCapability::FlippableBehavior"
    },
    {
      "name": "Health",
      "type": "Health::Health"
    },
    {
      "name": "Opacity",
      "type": "OpacityCapability::OpacityBehavior"
    },
    {
      "name": "RectangleMovement",
      "type": "RectangleMovement::RectangleMovement"
    },
    {
      "name": "Resizable",
      "type": "ResizableCapability::ResizableBehavior"
    },
    {
      "name": "Scale",
      "type": "ScalableCapability::ScalableBehavior"
    },
    {
      "name": "ShakeObject_PositionAngle",
      "type": "ShakeObject::ShakeObject_PositionAngle"
    },
    {
      "name": "ShakeObject_PositionAngleScale",
      "type": "ShakeObject::ShakeObject_PositionAngleScale"
    },
    {
      "name": "Text",
      "type": "TextContainerCapability::TextContainerBehavior"
    },
    {
      "name": "TopDownMovement",
      "type": "TopDownMovementBehavior::TopDownMovementBehavior"
    },
    {
      "name": "Tween",
      "type": "Tween::TweenBehavior"
    }
  ]
}