{
  "b": 209,
  "disableInputWhenNotFocused": true,
  "mangledName": "_52331_95rememberCard_95lv3_95p1",
  "name": "4331_rememberCard_lv3_p1",
  "r": 209,
  "standardSortMethod": true,
  "stopSoundsOnStartup": true,
  "title": "",
  "v": 209,
  "uiSettings": {
    "grid": false,
    "gridType": "rectangular",
    "gridWidth": 32,
    "gridHeight": 32,
    "gridOffsetX": 0,
    "gridOffsetY": 0,
    "gridColor": 10401023,
    "gridAlpha": 0.8,
    "snap": false,
    "zoomFactor": 0.19962545521158917,
    "windowMask": false
  },
  "objectsGroups": [],
  "variables": [
    {
      "folded": true,
      "name": "timeRemember",
      "type": "number",
      "value": 10
    },
    {
      "folded": true,
      "name": "reallyStartRememberCardGame",
      "type": "boolean",
      "value": false
    },
    {
      "folded": true,
      "name": "randomNumQuesttion",
      "type": "number",
      "value": 0
    },
    {
      "folded": true,
      "name": "randomKeyQuest",
      "type": "string",
      "value": ""
    },
    {
      "folded": true,
      "name": "timePlayRememberCard",
      "type": "number",
      "value": 20
    },
    {
      "folded": true,
      "name": "checkKeyQuest",
      "type": "boolean",
      "value": false
    }
  ],
  "instances": [
    {
      "angle": 0,
      "customSize": true,
      "height": 1111,
      "layer": "Fade",
      "name": "screen_fade",
      "persistentUuid": "535a5a93-ba08-419e-a3e4-d6f7462d1bfc",
      "width": 1958,
      "x": -19,
      "y": -12,
      "zOrder": 1,
      "numberProperties": [],
      "stringProperties": [],
      "initialVariables": []
    },
    {
      "angle": 0,
      "customSize": false,
      "height": 0,
      "layer": "",
      "name": "rememberCard_palceholderPosition9",
      "persistentUuid": "031ecf19-8c46-4f15-88c2-39784edc78e7",
      "width": 0,
      "x": 150,
      "y": 270,
      "zOrder": 15,
      "numberProperties": [],
      "stringProperties": [],
      "initialVariables": []
    },
    {
      "angle": 0,
      "customSize": false,
      "height": 0,
      "layer": "",
      "name": "rememberCard_palceholderPosition9",
      "persistentUuid": "ff35a4b1-3411-4df6-8ddb-29de5806cdd2",
      "width": 0,
      "x": 400,
      "y": 270,
      "zOrder": 15,
      "numberProperties": [],
      "stringProperties": [],
      "initialVariables": []
    },
    {
      "angle": 0,
      "customSize": false,
      "height": 0,
      "layer": "",
      "name": "rememberCard_palceholderPosition9",
      "persistentUuid": "bd50a121-45d1-4842-85f4-7b2af27df868",
      "width": 0,
      "x": 650,
      "y": 270,
      "zOrder": 15,
      "numberProperties": [],
      "stringProperties": [],
      "initialVariables": []
    },
    {
      "angle": 0,
      "customSize": false,
      "height": 0,
      "layer": "",
      "name": "rememberCard_palceholderPosition9",
      "persistentUuid": "551199ed-d346-429b-9dcc-37621cef36ba",
      "width": 0,
      "x": 900,
      "y": 270,
      "zOrder": 20,
      "numberProperties": [],
      "stringProperties": [],
      "initialVariables": []
    },
    {
      "angle": 0,
      "customSize": false,
      "height": 0,
      "layer": "",
      "name": "rememberCard_palceholderPosition9",
      "persistentUuid": "36e444db-5792-48a6-b557-9af71b1464c4",
      "width": 0,
      "x": 150,
      "y": 570,
      "zOrder": 17,
      "numberProperties": [],
      "stringProperties": [],
      "initialVariables": []
    },
    {
      "angle": 0,
      "customSize": false,
      "height": 0,
      "layer": "",
      "name": "rememberCard_palceholderPosition9",
      "persistentUuid": "1909edcc-d8b0-493c-9b11-4b59f84bc3db",
      "width": 0,
      "x": 400,
      "y": 570,
      "zOrder": 17,
      "numberProperties": [],
      "stringProperties": [],
      "initialVariables": []
    },
    {
      "angle": 0,
      "customSize": false,
      "height": 0,
      "layer": "",
      "name": "rememberCard_timeRemember",
      "persistentUuid": "65aac937-48a9-41e4-b777-0d60ac098251",
      "width": 0,
      "x": 1461,
      "y": 443,
      "zOrder": 18,
      "numberProperties": [],
      "stringProperties": [],
      "initialVariables": []
    },
    {
      "angle": 0,
      "customSize": false,
      "height": 0,
      "layer": "",
      "name": "rememberCard_palceholderPosition9",
      "persistentUuid": "08d86797-15e4-4e6b-b0df-3074d392de77",
      "width": 0,
      "x": 650,
      "y": 570,
      "zOrder": 15,
      "numberProperties": [],
      "stringProperties": [],
      "initialVariables": []
    },
    {
      "angle": 0,
      "customSize": false,
      "height": 0,
      "layer": "",
      "name": "rememberCard_palceholderPosition9",
      "persistentUuid": "16448812-5894-4ddb-a89e-84e56427227a",
      "width": 0,
      "x": 900,
      "y": 570,
      "zOrder": 21,
      "numberProperties": [],
      "stringProperties": [],
      "initialVariables": []
    },
    {
      "angle": 0,
      "customSize": false,
      "height": 0,
      "layer": "",
      "name": "rememberCard_frogCard1",
      "persistentUuid": "18c7e986-56b8-44d1-9f33-43a8652e761e",
      "width": 0,
      "x": -397,
      "y": -78,
      "zOrder": 22,
      "numberProperties": [],
      "stringProperties": [],
      "initialVariables": []
    },
    {
      "angle": 0,
      "customSize": false,
      "height": 0,
      "layer": "",
      "name": "rememberCard_rabbitCard1",
      "persistentUuid": "bc314feb-6b48-4054-8da4-34810a19793d",
      "width": 0,
      "x": -417,
      "y": 290,
      "zOrder": 24,
      "numberProperties": [],
      "stringProperties": [],
      "initialVariables": []
    },
    {
      "angle": 0,
      "customSize": false,
      "height": 0,
      "layer": "",
      "name": "rememberCard_giraffeCard",
      "persistentUuid": "74d3fe84-c244-4ca0-8f1c-8e4c84bc0eca",
      "width": 0,
      "x": -230,
      "y": -74,
      "zOrder": 25,
      "numberProperties": [],
      "stringProperties": [],
      "initialVariables": []
    },
    {
      "angle": 0,
      "customSize": false,
      "height": 0,
      "layer": "",
      "name": "rememberCard_monkeyCard",
      "persistentUuid": "b9db1d3a-4cc4-4ab9-aaad-82529f7e0b0f",
      "width": 0,
      "x": -640,
      "y": 277,
      "zOrder": 26,
      "numberProperties": [],
      "stringProperties": [],
      "initialVariables": []
    },
    {
      "angle": 0,
      "customSize": false,
      "height": 0,
      "layer": "",
      "name": "rememberCard_owlCard",
      "persistentUuid": "bd55ab38-fbe7-46ea-b1d5-c47d1fc2d3db",
      "width": 0,
      "x": -209,
      "y": 317,
      "zOrder": 27,
      "numberProperties": [],
      "stringProperties": [],
      "initialVariables": []
    },
    {
      "angle": 0,
      "customSize": false,
      "height": 0,
      "layer": "",
      "name": "rememberCard_penguinCard",
      "persistentUuid": "8daf5965-1972-45e1-8f48-c573f0f67326",
      "width": 0,
      "x": -586,
      "y": 627,
      "zOrder": 28,
      "numberProperties": [],
      "stringProperties": [],
      "initialVariables": []
    },
    {
      "angle": 0,
      "customSize": false,
      "height": 0,
      "layer": "",
      "name": "rememberCard_duckCard",
      "persistentUuid": "1839ee59-a3f2-498b-aa66-b9b1350b0008",
      "width": 0,
      "x": -277,
      "y": 617,
      "zOrder": 29,
      "numberProperties": [],
      "stringProperties": [],
      "initialVariables": []
    },
    {
      "angle": 0,
      "customSize": true,
      "depth": 32,
      "height": 342,
      "layer": "",
      "name": "rememberCard_btnLv3",
      "persistentUuid": "45fd7dee-47f9-42b1-92ea-6c3d22afaae1",
      "width": 342,
      "x": 747,
      "y": -728,
      "zOrder": 30,
      "numberProperties": [],
      "stringProperties": [],
      "initialVariables": []
    },
    {
      "angle": 0,
      "customSize": false,
      "height": 0,
      "layer": "",
      "name": "remembarCard_timePlayLv1",
      "persistentUuid": "8ca52e0f-0168-4b15-823a-7dabb9680aa9",
      "width": 0,
      "x": 1679,
      "y": 43,
      "zOrder": 31,
      "numberProperties": [],
      "stringProperties": [],
      "initialVariables": []
    },
    {
      "angle": 0,
      "customSize": false,
      "height": 0,
      "layer": "",
      "name": "rememberCard_dolphinCard1",
      "persistentUuid": "b3a51e11-79bf-4a22-b5e6-db6597448a4b",
      "width": 0,
      "x": -629,
      "y": -30,
      "zOrder": 32,
      "numberProperties": [],
      "stringProperties": [],
      "initialVariables": []
    }
  ],
  "objects": [],
  "objectsFolderStructure": {
    "folderName": "__ROOT"
  },
  "events": [
    {
      "colorB": 228,
      "colorG": 176,
      "colorR": 74,
      "creationTime": 0,
      "name": "4331",
      "source": "",
      "type": "BuiltinCommonInstructions::Group",
      "events": [
        {
          "colorB": 228,
          "colorG": 176,
          "colorR": 74,
          "creationTime": 0,
          "name": "Scene",
          "source": "",
          "type": "BuiltinCommonInstructions::Group",
          "events": [
            {
              "type": "BuiltinCommonInstructions::Link",
              "include": {
                "includeConfig": 0
              },
              "target": "cardFlip_button23"
            },
            {
              "type": "BuiltinCommonInstructions::Link",
              "include": {
                "includeConfig": 0
              },
              "target": "rememberCard_audioCard"
            },
            {
              "type": "BuiltinCommonInstructions::Comment",
              "color": {
                "b": 109,
                "g": 230,
                "r": 255,
                "textB": 0,
                "textG": 0,
                "textR": 0
              },
              "comment": "Begin"
            },
            {
              "type": "BuiltinCommonInstructions::Standard",
              "conditions": [
                {
                  "type": {
                    "value": "DepartScene"
                  },
                  "parameters": [
                    ""
                  ]
                }
              ],
              "actions": [
                {
                  "type": {
                    "value": "BuiltinExternalLayouts::CreateObjectsFromExternalLayout"
                  },
                  "parameters": [
                    "",
                    "\"RememberCard\"",
                    "0",
                    "0",
                    "0"
                  ]
                }
              ]
            },
            {
              "type": "BuiltinCommonInstructions::Standard",
              "conditions": [
                {
                  "type": {
                    "value": "VarScene"
                  },
                  "parameters": [
                    "timePlayRememberCard",
                    "<=",
                    "0"
                  ]
                }
              ],
              "actions": [
                {
                  "type": {
                    "value": "Wait"
                  },
                  "parameters": [
                    "0.01"
                  ]
                }
              ],
              "events": [
                {
                  "type": "BuiltinCommonInstructions::Standard",
                  "conditions": [
                    {
                      "type": {
                        "value": "SceneVariableAsBoolean"
                      },
                      "parameters": [
                        "checkKeyQuest",
                        "False"
                      ]
                    }
                  ],
                  "actions": [
                    {
                      "type": {
                        "value": "TextContainerCapability::TextContainerBehavior::SetValue"
                      },
                      "parameters": [
                        "remembarCard_timePlayLv1",
                        "Text",
                        "=",
                        "\"0\""
                      ]
                    }
                  ]
                }
              ]
            },
            {
              "type": "BuiltinCommonInstructions::Standard",
              "conditions": [
                {
                  "type": {
                    "value": "DepartScene"
                  },
                  "parameters": [
                    ""
                  ]
                }
              ],
              "actions": [
                {
                  "type": {
                    "value": "TextContainerCapability::TextContainerBehavior::SetValue"
                  },
                  "parameters": [
                    "remembarCard_timePlayLv1",
                    "Text",
                    "=",
                    "ToString(Variable(timePlayRememberCard))"
                  ]
                },
                {
                  "type": {
                    "value": "PlayMusicCanal"
                  },
                  "parameters": [
                    "",
                    "lv3_musicbg.mp3",
                    "15",
                    "yes",
                    "10",
                    "1"
                  ]
                },
                {
                  "type": {
                    "value": "ShowLayer"
                  },
                  "parameters": [
                    "",
                    "\"Fade\""
                  ]
                },
                {
                  "type": {
                    "value": "ResetTimer"
                  },
                  "parameters": [
                    "",
                    "\"rememberCard\""
                  ]
                },
                {
                  "type": {
                    "value": "ResizableCapability::ResizableBehavior::SetSize"
                  },
                  "parameters": [
                    "rememberCard_animalCards",
                    "Resizable",
                    "195",
                    "290"
                  ]
                }
              ],
              "events": [
                {
                  "type": "BuiltinCommonInstructions::ForEach",
                  "object": "rememberCard_palceholderPosition9",
                  "conditions": [],
                  "actions": [],
                  "events": [
                    {
                      "type": "BuiltinCommonInstructions::Standard",
                      "conditions": [
                        {
                          "type": {
                            "value": "AnimationName"
                          },
                          "parameters": [
                            "rememberCard_animalCards",
                            "\"leak\""
                          ]
                        }
                      ],
                      "actions": [
                        {
                          "type": {
                            "value": "Tween::AddObjectPositionTween"
                          },
                          "parameters": [
                            "rememberCard_animalCards",
                            "Tween",
                            "\"fly_in\"",
                            "rememberCard_palceholderPosition9.X()",
                            "rememberCard_palceholderPosition9.Y()",
                            "\"easeOutSine\"",
                            "1000",
                            ""
                          ]
                        }
                      ],
                      "events": [
                        {
                          "type": "BuiltinCommonInstructions::Standard",
                          "conditions": [
                            {
                              "type": {
                                "value": "AjoutHasard"
                              },
                              "parameters": [
                                "",
                                "rememberCard_animalCards"
                              ]
                            }
                          ],
                          "actions": [
                            {
                              "type": {
                                "value": "SetAnimationName"
                              },
                              "parameters": [
                                "rememberCard_animalCards",
                                "\"leak2\""
                              ]
                            },
                            {
                              "type": {
                                "value": "Delete"
                              },
                              "parameters": [
                                "rememberCard_palceholderPosition9",
                                ""
                              ]
                            }
                          ]
                        }
                      ]
                    }
                  ]
                },
                {
                  "type": "BuiltinCommonInstructions::Standard",
                  "conditions": [],
                  "actions": [
                    {
                      "type": {
                        "value": "Tween::AddObjectOpacityTween"
                      },
                      "parameters": [
                        "screen_fade",
                        "Tween",
                        "\"fade_in\"",
                        "0",
                        "\"linear\"",
                        "1000",
                        ""
                      ]
                    }
                  ]
                }
              ]
            },
            {
              "type": "BuiltinCommonInstructions::Standard",
              "conditions": [
                {
                  "type": {
                    "value": "CompareTimer"
                  },
                  "parameters": [
                    "",
                    "\"rememberCard\"",
                    ">=",
                    "1"
                  ]
                }
              ],
              "actions": [
                {
                  "type": {
                    "value": "ModVarScene"
                  },
                  "parameters": [
                    "timeRemember",
                    "-",
                    "1"
                  ]
                },
                {
                  "type": {
                    "value": "TextObject::String"
                  },
                  "parameters": [
                    "rememberCard_timeRemember",
                    "=",
                    "ToString(Variable(timeRemember))"
                  ]
                },
                {
                  "type": {
                    "value": "ResetTimer"
                  },
                  "parameters": [
                    "",
                    "\"rememberCard\""
                  ]
                }
              ]
            },
            {
              "type": "BuiltinCommonInstructions::Standard",
              "conditions": [
                {
                  "type": {
                    "value": "VarScene"
                  },
                  "parameters": [
                    "timeRemember",
                    "<",
                    "0"
                  ]
                }
              ],
              "actions": [
                {
                  "type": {
                    "value": "ModVarScene"
                  },
                  "parameters": [
                    "randomNumQuesttion",
                    "=",
                    "RandomInRange(1,8)"
                  ]
                },
                {
                  "type": {
                    "value": "RemoveTimer"
                  },
                  "parameters": [
                    "",
                    "\"rememberCard\""
                  ]
                },
                {
                  "type": {
                    "value": "ModVarScene"
                  },
                  "parameters": [
                    "timeRemember",
                    "=",
                    "1"
                  ]
                },
                {
                  "type": {
                    "value": "Delete"
                  },
                  "parameters": [
                    "rememberCard_timeRemember",
                    ""
                  ]
                },
                {
                  "type": {
                    "value": "Tween::AddObjectScaleXTween"
                  },
                  "parameters": [
                    "rememberCard_animalCards",
                    "Tween",
                    "\"begin1\"",
                    "0",
                    "\"linear\"",
                    "125",
                    "",
                    "yes"
                  ]
                },
                {
                  "type": {
                    "value": "Delete"
                  },
                  "parameters": [
                    "remmemberCard_boardName",
                    ""
                  ]
                },
                {
                  "type": {
                    "value": "Create"
                  },
                  "parameters": [
                    "",
                    "rememberCard_btnLv3",
                    "1393",
                    "379",
                    ""
                  ]
                },
                {
                  "type": {
                    "value": "ResizableCapability::ResizableBehavior::SetSize"
                  },
                  "parameters": [
                    "rememberCard_btnLv3",
                    "Resizable",
                    "342",
                    "342"
                  ]
                },
                {
                  "type": {
                    "value": "ChangePlan"
                  },
                  "parameters": [
                    "rememberCard_btnLv3",
                    "=",
                    "80"
                  ]
                },
                {
                  "type": {
                    "value": "ResetTimer"
                  },
                  "parameters": [
                    "",
                    "\"timePlay\""
                  ]
                }
              ],
              "events": [
                {
                  "type": "BuiltinCommonInstructions::Standard",
                  "conditions": [
                    {
                      "type": {
                        "value": "VarScene"
                      },
                      "parameters": [
                        "randomNumQuesttion",
                        "=",
                        "1"
                      ]
                    }
                  ],
                  "actions": [
                    {
                      "type": {
                        "value": "ModVarSceneTxt"
                      },
                      "parameters": [
                        "randomKeyQuest",
                        "=",
                        "\"Cat\""
                      ]
                    },
                    {
                      "type": {
                        "value": "TextContainerCapability::TextContainerBehavior::SetValue"
                      },
                      "parameters": [
                        "rememberCard_KeyQuest",
                        "Text",
                        "=",
                        "VariableString(randomKeyQuest)"
                      ]
                    },
                    {
                      "type": {
                        "value": "Montre"
                      },
                      "parameters": [
                        "rememberCard_KeyQuest",
                        ""
                      ]
                    }
                  ]
                },
                {
                  "type": "BuiltinCommonInstructions::Standard",
                  "conditions": [
                    {
                      "type": {
                        "value": "VarScene"
                      },
                      "parameters": [
                        "randomNumQuesttion",
                        "=",
                        "2"
                      ]
                    }
                  ],
                  "actions": [
                    {
                      "type": {
                        "value": "ModVarSceneTxt"
                      },
                      "parameters": [
                        "randomKeyQuest",
                        "=",
                        "\"Owl\""
                      ]
                    },
                    {
                      "type": {
                        "value": "TextContainerCapability::TextContainerBehavior::SetValue"
                      },
                      "parameters": [
                        "rememberCard_KeyQuest",
                        "Text",
                        "=",
                        "VariableString(randomKeyQuest)"
                      ]
                    },
                    {
                      "type": {
                        "value": "Montre"
                      },
                      "parameters": [
                        "rememberCard_KeyQuest",
                        ""
                      ]
                    }
                  ]
                },
                {
                  "type": "BuiltinCommonInstructions::Standard",
                  "conditions": [
                    {
                      "type": {
                        "value": "VarScene"
                      },
                      "parameters": [
                        "randomNumQuesttion",
                        "=",
                        "3"
                      ]
                    }
                  ],
                  "actions": [
                    {
                      "type": {
                        "value": "ModVarSceneTxt"
                      },
                      "parameters": [
                        "randomKeyQuest",
                        "=",
                        "\"Parrot\""
                      ]
                    },
                    {
                      "type": {
                        "value": "TextContainerCapability::TextContainerBehavior::SetValue"
                      },
                      "parameters": [
                        "rememberCard_KeyQuest",
                        "Text",
                        "=",
                        "VariableString(randomKeyQuest)"
                      ]
                    },
                    {
                      "type": {
                        "value": "Montre"
                      },
                      "parameters": [
                        "rememberCard_KeyQuest",
                        ""
                      ]
                    }
                  ]
                },
                {
                  "type": "BuiltinCommonInstructions::Standard",
                  "conditions": [
                    {
                      "type": {
                        "value": "VarScene"
                      },
                      "parameters": [
                        "randomNumQuesttion",
                        "=",
                        "4"
                      ]
                    }
                  ],
                  "actions": [
                    {
                      "type": {
                        "value": "ModVarSceneTxt"
                      },
                      "parameters": [
                        "randomKeyQuest",
                        "=",
                        "\"Duck\""
                      ]
                    },
                    {
                      "type": {
                        "value": "TextContainerCapability::TextContainerBehavior::SetValue"
                      },
                      "parameters": [
                        "rememberCard_KeyQuest",
                        "Text",
                        "=",
                        "VariableString(randomKeyQuest)"
                      ]
                    },
                    {
                      "type": {
                        "value": "Montre"
                      },
                      "parameters": [
                        "rememberCard_KeyQuest",
                        ""
                      ]
                    }
                  ]
                },
                {
                  "type": "BuiltinCommonInstructions::Standard",
                  "conditions": [
                    {
                      "type": {
                        "value": "VarScene"
                      },
                      "parameters": [
                        "randomNumQuesttion",
                        "=",
                        "5"
                      ]
                    }
                  ],
                  "actions": [
                    {
                      "type": {
                        "value": "ModVarSceneTxt"
                      },
                      "parameters": [
                        "randomKeyQuest",
                        "=",
                        "\"Cock\""
                      ]
                    },
                    {
                      "type": {
                        "value": "TextContainerCapability::TextContainerBehavior::SetValue"
                      },
                      "parameters": [
                        "rememberCard_KeyQuest",
                        "Text",
                        "=",
                        "VariableString(randomKeyQuest)"
                      ]
                    },
                    {
                      "type": {
                        "value": "Montre"
                      },
                      "parameters": [
                        "rememberCard_KeyQuest",
                        ""
                      ]
                    }
                  ]
                },
                {
                  "type": "BuiltinCommonInstructions::Standard",
                  "conditions": [
                    {
                      "type": {
                        "value": "VarScene"
                      },
                      "parameters": [
                        "randomNumQuesttion",
                        "=",
                        "6"
                      ]
                    }
                  ],
                  "actions": [
                    {
                      "type": {
                        "value": "ModVarSceneTxt"
                      },
                      "parameters": [
                        "randomKeyQuest",
                        "=",
                        "\"Giraffe\""
                      ]
                    },
                    {
                      "type": {
                        "value": "TextContainerCapability::TextContainerBehavior::SetValue"
                      },
                      "parameters": [
                        "rememberCard_KeyQuest",
                        "Text",
                        "=",
                        "VariableString(randomKeyQuest)"
                      ]
                    },
                    {
                      "type": {
                        "value": "Montre"
                      },
                      "parameters": [
                        "rememberCard_KeyQuest",
                        ""
                      ]
                    }
                  ]
                },
                {
                  "type": "BuiltinCommonInstructions::Standard",
                  "conditions": [
                    {
                      "type": {
                        "value": "VarScene"
                      },
                      "parameters": [
                        "randomNumQuesttion",
                        "=",
                        "7"
                      ]
                    }
                  ],
                  "actions": [
                    {
                      "type": {
                        "value": "ModVarSceneTxt"
                      },
                      "parameters": [
                        "randomKeyQuest",
                        "=",
                        "\"Elephant\""
                      ]
                    },
                    {
                      "type": {
                        "value": "TextContainerCapability::TextContainerBehavior::SetValue"
                      },
                      "parameters": [
                        "rememberCard_KeyQuest",
                        "Text",
                        "=",
                        "VariableString(randomKeyQuest)"
                      ]
                    },
                    {
                      "type": {
                        "value": "Montre"
                      },
                      "parameters": [
                        "rememberCard_KeyQuest",
                        ""
                      ]
                    }
                  ]
                },
                {
                  "type": "BuiltinCommonInstructions::Standard",
                  "conditions": [
                    {
                      "type": {
                        "value": "VarScene"
                      },
                      "parameters": [
                        "randomNumQuesttion",
                        "=",
                        "8"
                      ]
                    }
                  ],
                  "actions": [
                    {
                      "type": {
                        "value": "ModVarSceneTxt"
                      },
                      "parameters": [
                        "randomKeyQuest",
                        "=",
                        "\"Monkey\""
                      ]
                    },
                    {
                      "type": {
                        "value": "TextContainerCapability::TextContainerBehavior::SetValue"
                      },
                      "parameters": [
                        "rememberCard_KeyQuest",
                        "Text",
                        "=",
                        "VariableString(randomKeyQuest)"
                      ]
                    },
                    {
                      "type": {
                        "value": "Montre"
                      },
                      "parameters": [
                        "rememberCard_KeyQuest",
                        ""
                      ]
                    }
                  ]
                }
              ]
            },
            {
              "type": "BuiltinCommonInstructions::Standard",
              "conditions": [
                {
                  "type": {
                    "value": "CompareTimer"
                  },
                  "parameters": [
                    "",
                    "\"timePlay\"",
                    ">=",
                    "1"
                  ]
                }
              ],
              "actions": [
                {
                  "type": {
                    "value": "ModVarScene"
                  },
                  "parameters": [
                    "timePlayRememberCard",
                    "-",
                    "1"
                  ]
                },
                {
                  "type": {
                    "value": "TextContainerCapability::TextContainerBehavior::SetValue"
                  },
                  "parameters": [
                    "remembarCard_timePlayLv1",
                    "Text",
                    "=",
                    "ToString(Variable(timePlayRememberCard))"
                  ]
                },
                {
                  "type": {
                    "value": "ResetTimer"
                  },
                  "parameters": [
                    "",
                    "\"timePlay\""
                  ]
                }
              ]
            },
            {
              "type": "BuiltinCommonInstructions::Standard",
              "conditions": [],
              "actions": []
            }
          ],
          "parameters": []
        },
        {
          "colorB": 228,
          "colorG": 176,
          "colorR": 74,
          "creationTime": 0,
          "name": "Interaction",
          "source": "",
          "type": "BuiltinCommonInstructions::Group",
          "events": [
            {
              "type": "BuiltinCommonInstructions::Comment",
              "color": {
                "b": 109,
                "g": 230,
                "r": 255,
                "textB": 0,
                "textG": 0,
                "textR": 0
              },
              "comment": "Loa"
            },
            {
              "type": "BuiltinCommonInstructions::Standard",
              "conditions": [
                {
                  "type": {
                    "value": "PanelSpriteButton::PanelSpriteButton::IsClicked"
                  },
                  "parameters": [
                    "rememberCard_btnLv3",
                    ""
                  ]
                }
              ],
              "actions": [
                {
                  "type": {
                    "value": "PanelSpriteButton::PanelSpriteButton::Activate"
                  },
                  "parameters": [
                    "rememberCard_btnLv3",
                    "",
                    ""
                  ]
                }
              ],
              "events": [
                {
                  "type": "BuiltinCommonInstructions::Standard",
                  "conditions": [
                    {
                      "type": {
                        "value": "VarScene"
                      },
                      "parameters": [
                        "randomNumQuesttion",
                        "=",
                        "1"
                      ]
                    }
                  ],
                  "actions": [
                    {
                      "type": {
                        "value": "PlayMusicCanal"
                      },
                      "parameters": [
                        "",
                        "asset audio\\dolphin.mp3",
                        "10",
                        "50",
                        "80",
                        "1"
                      ]
                    }
                  ]
                },
                {
                  "type": "BuiltinCommonInstructions::Standard",
                  "conditions": [
                    {
                      "type": {
                        "value": "VarScene"
                      },
                      "parameters": [
                        "randomNumQuesttion",
                        "=",
                        "2"
                      ]
                    }
                  ],
                  "actions": [
                    {
                      "type": {
                        "value": "PlayMusicCanal"
                      },
                      "parameters": [
                        "",
                        "assets\\asset audio\\frog.mp3",
                        "10",
                        "50",
                        "80",
                        "1"
                      ]
                    }
                  ]
                },
                {
                  "type": "BuiltinCommonInstructions::Standard",
                  "conditions": [
                    {
                      "type": {
                        "value": "VarScene"
                      },
                      "parameters": [
                        "randomNumQuesttion",
                        "=",
                        "3"
                      ]
                    }
                  ],
                  "actions": [
                    {
                      "type": {
                        "value": "PlayMusicCanal"
                      },
                      "parameters": [
                        "",
                        "asset audio\\giraffe.mp3",
                        "10",
                        "50",
                        "80",
                        "1"
                      ]
                    }
                  ]
                },
                {
                  "type": "BuiltinCommonInstructions::Standard",
                  "conditions": [
                    {
                      "type": {
                        "value": "VarScene"
                      },
                      "parameters": [
                        "randomNumQuesttion",
                        "=",
                        "4"
                      ]
                    }
                  ],
                  "actions": [
                    {
                      "type": {
                        "value": "PlayMusicCanal"
                      },
                      "parameters": [
                        "",
                        "asset audio\\monkey.mp3",
                        "10",
                        "50",
                        "80",
                        "1"
                      ]
                    }
                  ]
                },
                {
                  "type": "BuiltinCommonInstructions::Standard",
                  "conditions": [
                    {
                      "type": {
                        "value": "VarScene"
                      },
                      "parameters": [
                        "randomNumQuesttion",
                        "=",
                        "5"
                      ]
                    }
                  ],
                  "actions": [
                    {
                      "type": {
                        "value": "PlayMusicCanal"
                      },
                      "parameters": [
                        "",
                        "assets\\asset audio\\rabbit.mp3",
                        "10",
                        "50",
                        "80",
                        "1"
                      ]
                    }
                  ]
                },
                {
                  "type": "BuiltinCommonInstructions::Standard",
                  "conditions": [
                    {
                      "type": {
                        "value": "VarScene"
                      },
                      "parameters": [
                        "randomNumQuesttion",
                        "=",
                        "6"
                      ]
                    }
                  ],
                  "actions": [
                    {
                      "type": {
                        "value": "PlayMusicCanal"
                      },
                      "parameters": [
                        "",
                        "asset audio\\owl.mp3",
                        "10",
                        "50",
                        "80",
                        "1"
                      ]
                    }
                  ]
                },
                {
                  "type": "BuiltinCommonInstructions::Standard",
                  "conditions": [
                    {
                      "type": {
                        "value": "VarScene"
                      },
                      "parameters": [
                        "randomNumQuesttion",
                        "=",
                        "7"
                      ]
                    }
                  ],
                  "actions": [
                    {
                      "type": {
                        "value": "PlayMusicCanal"
                      },
                      "parameters": [
                        "",
                        "asset audio\\penguin.mp3",
                        "10",
                        "50",
                        "80",
                        "1"
                      ]
                    }
                  ]
                },
                {
                  "type": "BuiltinCommonInstructions::Standard",
                  "conditions": [
                    {
                      "type": {
                        "value": "VarScene"
                      },
                      "parameters": [
                        "randomNumQuesttion",
                        "=",
                        "8"
                      ]
                    }
                  ],
                  "actions": [
                    {
                      "type": {
                        "value": "PlayMusicCanal"
                      },
                      "parameters": [
                        "",
                        "asset audio\\duck.mp3",
                        "10",
                        "50",
                        "80",
                        "1"
                      ]
                    }
                  ]
                }
              ]
            },
            {
              "type": "BuiltinCommonInstructions::Standard",
              "conditions": [
                {
                  "type": {
                    "value": "MusicStopped"
                  },
                  "parameters": [
                    "",
                    "10"
                  ]
                }
              ],
              "actions": [
                {
                  "type": {
                    "value": "PanelSpriteButton::PanelSpriteButton::Activate"
                  },
                  "parameters": [
                    "rememberCard_btnLv3",
                    "yes",
                    ""
                  ]
                }
              ]
            },
            {
              "type": "BuiltinCommonInstructions::Comment",
              "color": {
                "b": 109,
                "g": 230,
                "r": 255,
                "textB": 0,
                "textG": 0,
                "textR": 0
              },
              "comment": "Đúng"
            },
            {
              "type": "BuiltinCommonInstructions::Standard",
              "conditions": [
                {
                  "type": {
                    "value": "SceneVariableAsBoolean"
                  },
                  "parameters": [
                    "checkKeyQuest",
                    "False"
                  ]
                }
              ],
              "actions": [],
              "events": [
                {
                  "type": "BuiltinCommonInstructions::Standard",
                  "conditions": [
                    {
                      "type": {
                        "value": "VarScene"
                      },
                      "parameters": [
                        "randomNumQuesttion",
                        "=",
                        "1"
                      ]
                    },
                    {
                      "type": {
                        "value": "MouseButtonReleased"
                      },
                      "parameters": [
                        "",
                        "Left"
                      ]
                    },
                    {
                      "type": {
                        "value": "SourisSurObjet"
                      },
                      "parameters": [
                        "rememberCard_dolphinCard1",
                        "",
                        "",
                        ""
                      ]
                    }
                  ],
                  "actions": [
                    {
                      "type": {
                        "value": "ModVarScene"
                      },
                      "parameters": [
                        "timePlayRememberCard",
                        "+",
                        "5"
                      ]
                    },
                    {
                      "type": {
                        "value": "SetSceneVariableAsBoolean"
                      },
                      "parameters": [
                        "checkKeyQuest",
                        "True"
                      ]
                    },
                    {
                      "type": {
                        "value": "Wait"
                      },
                      "parameters": [
                        "1"
                      ]
                    }
                  ],
                  "events": [
                    {
                      "type": "BuiltinCommonInstructions::Standard",
                      "conditions": [
                        {
                          "type": {
                            "value": "AnimationName"
                          },
                          "parameters": [
                            "rememberCard_dolphinCard1",
                            "\"leak\""
                          ]
                        }
                      ],
                      "actions": [
                        {
                          "type": {
                            "value": "PlaySound"
                          },
                          "parameters": [
                            "",
                            "asset audio\\correct audio.mp3",
                            "",
                            "70",
                            ""
                          ]
                        },
                        {
                          "type": {
                            "value": "PauseTimer"
                          },
                          "parameters": [
                            "",
                            "\"timePlay\""
                          ]
                        }
                      ]
                    },
                    {
                      "type": "BuiltinCommonInstructions::Standard",
                      "conditions": [],
                      "actions": []
                    }
                  ]
                },
                {
                  "type": "BuiltinCommonInstructions::Standard",
                  "conditions": [
                    {
                      "type": {
                        "value": "VarScene"
                      },
                      "parameters": [
                        "randomNumQuesttion",
                        "=",
                        "2"
                      ]
                    },
                    {
                      "type": {
                        "value": "MouseButtonReleased"
                      },
                      "parameters": [
                        "",
                        "Left"
                      ]
                    },
                    {
                      "type": {
                        "value": "SourisSurObjet"
                      },
                      "parameters": [
                        "rememberCard_frogCard1",
                        "",
                        "",
                        ""
                      ]
                    }
                  ],
                  "actions": [
                    {
                      "type": {
                        "value": "ModVarScene"
                      },
                      "parameters": [
                        "timePlayRememberCard",
                        "+",
                        "5"
                      ]
                    },
                    {
                      "type": {
                        "value": "SetSceneVariableAsBoolean"
                      },
                      "parameters": [
                        "checkKeyQuest",
                        "True"
                      ]
                    },
                    {
                      "type": {
                        "value": "Wait"
                      },
                      "parameters": [
                        "1"
                      ]
                    }
                  ],
                  "events": [
                    {
                      "type": "BuiltinCommonInstructions::Standard",
                      "conditions": [
                        {
                          "type": {
                            "value": "AnimationName"
                          },
                          "parameters": [
                            "rememberCard_frogCard1",
                            "\"leak\""
                          ]
                        }
                      ],
                      "actions": [
                        {
                          "type": {
                            "value": "PlaySound"
                          },
                          "parameters": [
                            "",
                            "asset audio\\correct audio.mp3",
                            "",
                            "70",
                            ""
                          ]
                        },
                        {
                          "type": {
                            "value": "PauseTimer"
                          },
                          "parameters": [
                            "",
                            "\"timePlay\""
                          ]
                        }
                      ]
                    },
                    {
                      "type": "BuiltinCommonInstructions::Standard",
                      "conditions": [],
                      "actions": []
                    }
                  ]
                },
                {
                  "type": "BuiltinCommonInstructions::Standard",
                  "conditions": [
                    {
                      "type": {
                        "value": "VarScene"
                      },
                      "parameters": [
                        "randomNumQuesttion",
                        "=",
                        "3"
                      ]
                    },
                    {
                      "type": {
                        "value": "MouseButtonReleased"
                      },
                      "parameters": [
                        "",
                        "Left"
                      ]
                    },
                    {
                      "type": {
                        "value": "SourisSurObjet"
                      },
                      "parameters": [
                        "rememberCard_giraffeCard",
                        "",
                        "",
                        ""
                      ]
                    }
                  ],
                  "actions": [
                    {
                      "type": {
                        "value": "ModVarScene"
                      },
                      "parameters": [
                        "timePlayRememberCard",
                        "+",
                        "5"
                      ]
                    },
                    {
                      "type": {
                        "value": "SetSceneVariableAsBoolean"
                      },
                      "parameters": [
                        "checkKeyQuest",
                        "True"
                      ]
                    },
                    {
                      "type": {
                        "value": "Wait"
                      },
                      "parameters": [
                        "1"
                      ]
                    }
                  ],
                  "events": [
                    {
                      "type": "BuiltinCommonInstructions::Standard",
                      "conditions": [
                        {
                          "type": {
                            "value": "AnimationName"
                          },
                          "parameters": [
                            "rememberCard_giraffeCard",
                            "\"leak\""
                          ]
                        }
                      ],
                      "actions": [
                        {
                          "type": {
                            "value": "PlaySound"
                          },
                          "parameters": [
                            "",
                            "asset audio\\correct audio.mp3",
                            "",
                            "70",
                            ""
                          ]
                        },
                        {
                          "type": {
                            "value": "PauseTimer"
                          },
                          "parameters": [
                            "",
                            "\"timePlay\""
                          ]
                        }
                      ]
                    },
                    {
                      "type": "BuiltinCommonInstructions::Standard",
                      "conditions": [],
                      "actions": []
                    }
                  ]
                },
                {
                  "type": "BuiltinCommonInstructions::Standard",
                  "conditions": [
                    {
                      "type": {
                        "value": "VarScene"
                      },
                      "parameters": [
                        "randomNumQuesttion",
                        "=",
                        "4"
                      ]
                    },
                    {
                      "type": {
                        "value": "MouseButtonReleased"
                      },
                      "parameters": [
                        "",
                        "Left"
                      ]
                    },
                    {
                      "type": {
                        "value": "SourisSurObjet"
                      },
                      "parameters": [
                        "rememberCard_monkeyCard",
                        "",
                        "",
                        ""
                      ]
                    }
                  ],
                  "actions": [
                    {
                      "type": {
                        "value": "ModVarScene"
                      },
                      "parameters": [
                        "timePlayRememberCard",
                        "+",
                        "5"
                      ]
                    },
                    {
                      "type": {
                        "value": "SetSceneVariableAsBoolean"
                      },
                      "parameters": [
                        "checkKeyQuest",
                        "True"
                      ]
                    },
                    {
                      "type": {
                        "value": "Wait"
                      },
                      "parameters": [
                        "1"
                      ]
                    }
                  ],
                  "events": [
                    {
                      "type": "BuiltinCommonInstructions::Standard",
                      "conditions": [
                        {
                          "type": {
                            "value": "AnimationName"
                          },
                          "parameters": [
                            "rememberCard_monkeyCard",
                            "\"leak\""
                          ]
                        }
                      ],
                      "actions": [
                        {
                          "type": {
                            "value": "PlaySound"
                          },
                          "parameters": [
                            "",
                            "asset audio\\correct audio.mp3",
                            "",
                            "70",
                            ""
                          ]
                        },
                        {
                          "type": {
                            "value": "PauseTimer"
                          },
                          "parameters": [
                            "",
                            "\"timePlay\""
                          ]
                        }
                      ]
                    },
                    {
                      "type": "BuiltinCommonInstructions::Standard",
                      "conditions": [],
                      "actions": []
                    }
                  ]
                },
                {
                  "type": "BuiltinCommonInstructions::Standard",
                  "conditions": [
                    {
                      "type": {
                        "value": "VarScene"
                      },
                      "parameters": [
                        "randomNumQuesttion",
                        "=",
                        "5"
                      ]
                    },
                    {
                      "type": {
                        "value": "MouseButtonReleased"
                      },
                      "parameters": [
                        "",
                        "Left"
                      ]
                    },
                    {
                      "type": {
                        "value": "SourisSurObjet"
                      },
                      "parameters": [
                        "rememberCard_rabbitCard1",
                        "",
                        "",
                        ""
                      ]
                    }
                  ],
                  "actions": [
                    {
                      "type": {
                        "value": "ModVarScene"
                      },
                      "parameters": [
                        "timePlayRememberCard",
                        "+",
                        "5"
                      ]
                    },
                    {
                      "type": {
                        "value": "SetSceneVariableAsBoolean"
                      },
                      "parameters": [
                        "checkKeyQuest",
                        "True"
                      ]
                    },
                    {
                      "type": {
                        "value": "Wait"
                      },
                      "parameters": [
                        "1"
                      ]
                    }
                  ],
                  "events": [
                    {
                      "type": "BuiltinCommonInstructions::Standard",
                      "conditions": [
                        {
                          "type": {
                            "value": "AnimationName"
                          },
                          "parameters": [
                            "rememberCard_rabbitCard1",
                            "\"leak\""
                          ]
                        }
                      ],
                      "actions": [
                        {
                          "type": {
                            "value": "PlaySound"
                          },
                          "parameters": [
                            "",
                            "asset audio\\correct audio.mp3",
                            "",
                            "70",
                            ""
                          ]
                        },
                        {
                          "type": {
                            "value": "PauseTimer"
                          },
                          "parameters": [
                            "",
                            "\"timePlay\""
                          ]
                        }
                      ]
                    },
                    {
                      "type": "BuiltinCommonInstructions::Standard",
                      "conditions": [],
                      "actions": []
                    }
                  ]
                },
                {
                  "type": "BuiltinCommonInstructions::Standard",
                  "conditions": [
                    {
                      "type": {
                        "value": "VarScene"
                      },
                      "parameters": [
                        "randomNumQuesttion",
                        "=",
                        "6"
                      ]
                    },
                    {
                      "type": {
                        "value": "MouseButtonReleased"
                      },
                      "parameters": [
                        "",
                        "Left"
                      ]
                    },
                    {
                      "type": {
                        "value": "SourisSurObjet"
                      },
                      "parameters": [
                        "rememberCard_owlCard",
                        "",
                        "",
                        ""
                      ]
                    }
                  ],
                  "actions": [
                    {
                      "type": {
                        "value": "ModVarScene"
                      },
                      "parameters": [
                        "timePlayRememberCard",
                        "+",
                        "5"
                      ]
                    },
                    {
                      "type": {
                        "value": "SetSceneVariableAsBoolean"
                      },
                      "parameters": [
                        "checkKeyQuest",
                        "True"
                      ]
                    },
                    {
                      "type": {
                        "value": "Wait"
                      },
                      "parameters": [
                        "1"
                      ]
                    }
                  ],
                  "events": [
                    {
                      "type": "BuiltinCommonInstructions::Standard",
                      "conditions": [
                        {
                          "type": {
                            "value": "AnimationName"
                          },
                          "parameters": [
                            "rememberCard_owlCard",
                            "\"leak\""
                          ]
                        }
                      ],
                      "actions": [
                        {
                          "type": {
                            "value": "PlaySound"
                          },
                          "parameters": [
                            "",
                            "asset audio\\correct audio.mp3",
                            "",
                            "70",
                            ""
                          ]
                        },
                        {
                          "type": {
                            "value": "PauseTimer"
                          },
                          "parameters": [
                            "",
                            "\"timePlay\""
                          ]
                        }
                      ]
                    },
                    {
                      "type": "BuiltinCommonInstructions::Standard",
                      "conditions": [],
                      "actions": []
                    }
                  ]
                },
                {
                  "type": "BuiltinCommonInstructions::Standard",
                  "conditions": [
                    {
                      "type": {
                        "value": "VarScene"
                      },
                      "parameters": [
                        "randomNumQuesttion",
                        "=",
                        "7"
                      ]
                    },
                    {
                      "type": {
                        "value": "MouseButtonReleased"
                      },
                      "parameters": [
                        "",
                        "Left"
                      ]
                    },
                    {
                      "type": {
                        "value": "SourisSurObjet"
                      },
                      "parameters": [
                        "rememberCard_penguinCard",
                        "",
                        "",
                        ""
                      ]
                    }
                  ],
                  "actions": [
                    {
                      "type": {
                        "value": "ModVarScene"
                      },
                      "parameters": [
                        "timePlayRememberCard",
                        "+",
                        "5"
                      ]
                    },
                    {
                      "type": {
                        "value": "SetSceneVariableAsBoolean"
                      },
                      "parameters": [
                        "checkKeyQuest",
                        "True"
                      ]
                    },
                    {
                      "type": {
                        "value": "Wait"
                      },
                      "parameters": [
                        "1"
                      ]
                    }
                  ],
                  "events": [
                    {
                      "type": "BuiltinCommonInstructions::Standard",
                      "conditions": [
                        {
                          "type": {
                            "value": "AnimationName"
                          },
                          "parameters": [
                            "rememberCard_penguinCard",
                            "\"leak\""
                          ]
                        }
                      ],
                      "actions": [
                        {
                          "type": {
                            "value": "PlaySound"
                          },
                          "parameters": [
                            "",
                            "asset audio\\correct audio.mp3",
                            "",
                            "70",
                            ""
                          ]
                        },
                        {
                          "type": {
                            "value": "PauseTimer"
                          },
                          "parameters": [
                            "",
                            "\"timePlay\""
                          ]
                        }
                      ]
                    },
                    {
                      "type": "BuiltinCommonInstructions::Standard",
                      "conditions": [],
                      "actions": []
                    }
                  ]
                },
                {
                  "type": "BuiltinCommonInstructions::Standard",
                  "conditions": [
                    {
                      "type": {
                        "value": "VarScene"
                      },
                      "parameters": [
                        "randomNumQuesttion",
                        "=",
                        "8"
                      ]
                    },
                    {
                      "type": {
                        "value": "MouseButtonReleased"
                      },
                      "parameters": [
                        "",
                        "Left"
                      ]
                    },
                    {
                      "type": {
                        "value": "SourisSurObjet"
                      },
                      "parameters": [
                        "rememberCard_duckCard",
                        "",
                        "",
                        ""
                      ]
                    }
                  ],
                  "actions": [
                    {
                      "type": {
                        "value": "ModVarScene"
                      },
                      "parameters": [
                        "timePlayRememberCard",
                        "+",
                        "5"
                      ]
                    },
                    {
                      "type": {
                        "value": "SetSceneVariableAsBoolean"
                      },
                      "parameters": [
                        "checkKeyQuest",
                        "True"
                      ]
                    },
                    {
                      "type": {
                        "value": "Wait"
                      },
                      "parameters": [
                        "1"
                      ]
                    }
                  ],
                  "events": [
                    {
                      "type": "BuiltinCommonInstructions::Standard",
                      "conditions": [
                        {
                          "type": {
                            "value": "AnimationName"
                          },
                          "parameters": [
                            "rememberCard_duckCard",
                            "\"leak\""
                          ]
                        }
                      ],
                      "actions": [
                        {
                          "type": {
                            "value": "PlaySound"
                          },
                          "parameters": [
                            "",
                            "asset audio\\correct audio.mp3",
                            "",
                            "70",
                            ""
                          ]
                        },
                        {
                          "type": {
                            "value": "PauseTimer"
                          },
                          "parameters": [
                            "",
                            "\"timePlay\""
                          ]
                        }
                      ]
                    },
                    {
                      "type": "BuiltinCommonInstructions::Standard",
                      "conditions": [],
                      "actions": []
                    }
                  ]
                },
                {
                  "type": "BuiltinCommonInstructions::Standard",
                  "conditions": [],
                  "actions": []
                }
              ]
            },
            {
              "type": "BuiltinCommonInstructions::Standard",
              "conditions": [],
              "actions": []
            }
          ],
          "parameters": []
        },
        {
          "colorB": 228,
          "colorG": 176,
          "colorR": 74,
          "creationTime": 0,
          "name": "Check",
          "source": "",
          "type": "BuiltinCommonInstructions::Group",
          "events": [
            {
              "type": "BuiltinCommonInstructions::Standard",
              "conditions": [
                {
                  "type": {
                    "value": "SceneVariableAsBoolean"
                  },
                  "parameters": [
                    "checkKeyQuest",
                    "False"
                  ]
                },
                {
                  "type": {
                    "value": "VarScene"
                  },
                  "parameters": [
                    "timePlayRememberCard",
                    "<=",
                    "0"
                  ]
                }
              ],
              "actions": [
                {
                  "type": {
                    "value": "PauseTimer"
                  },
                  "parameters": [
                    "",
                    "\"timePlay\""
                  ]
                },
                {
                  "type": {
                    "value": "ModVarScene"
                  },
                  "parameters": [
                    "checkPassQuestion",
                    "=",
                    "50"
                  ]
                }
              ]
            },
            {
              "type": "BuiltinCommonInstructions::Standard",
              "conditions": [
                {
                  "type": {
                    "value": "SceneVariableAsBoolean"
                  },
                  "parameters": [
                    "checkKeyQuest",
                    "True"
                  ]
                }
              ],
              "actions": [
                {
                  "type": {
                    "value": "PauseTimer"
                  },
                  "parameters": [
                    "",
                    "\"timePlay\""
                  ]
                },
                {
                  "type": {
                    "value": "ModVarScene"
                  },
                  "parameters": [
                    "checkPassQuestion",
                    "=",
                    "100"
                  ]
                }
              ]
            },
            {
              "type": "BuiltinCommonInstructions::Standard",
              "conditions": [],
              "actions": []
            }
          ],
          "parameters": []
        }
      ],
      "parameters": []
    }
  ],
  "layers": [
    {
      "ambientLightColorB": 200,
      "ambientLightColorG": 200,
      "ambientLightColorR": 200,
      "camera3DFarPlaneDistance": 10000,
      "camera3DFieldOfView": 45,
      "camera3DNearPlaneDistance": 0.1,
      "followBaseLayerCamera": false,
      "isLightingLayer": false,
      "isLocked": false,
      "name": "Background",
      "renderingType": "",
      "visibility": true,
      "cameras": [],
      "effects": [
        {
          "effectType": "Scene3D::HemisphereLight",
          "name": "3D Light",
          "doubleParameters": {
            "elevation": 45,
            "intensity": 1,
            "rotation": 0
          },
          "stringParameters": {
            "groundColor": "64;64;64",
            "skyColor": "255;255;255",
            "top": "Y-"
          },
          "booleanParameters": {}
        }
      ]
    },
    {
      "ambientLightColorB": 0,
      "ambientLightColorG": 8042920,
      "ambientLightColorR": 16,
      "camera3DFarPlaneDistance": 10000,
      "camera3DFieldOfView": 45,
      "camera3DNearPlaneDistance": 0.1,
      "followBaseLayerCamera": false,
      "isLightingLayer": false,
      "isLocked": false,
      "name": "",
      "renderingType": "",
      "visibility": true,
      "cameras": [
        {
          "defaultSize": true,
          "defaultViewport": true,
          "height": 0,
          "viewportBottom": 1,
          "viewportLeft": 0,
          "viewportRight": 1,
          "viewportTop": 0,
          "width": 0
        }
      ],
      "effects": []
    },
    {
      "ambientLightColorB": 200,
      "ambientLightColorG": 200,
      "ambientLightColorR": 200,
      "camera3DFarPlaneDistance": 10000,
      "camera3DFieldOfView": 45,
      "camera3DNearPlaneDistance": 0.1,
      "followBaseLayerCamera": false,
      "isLightingLayer": false,
      "isLocked": false,
      "name": "Fade",
      "renderingType": "",
      "visibility": false,
      "cameras": [],
      "effects": [
        {
          "effectType": "Scene3D::HemisphereLight",
          "name": "3D Light",
          "doubleParameters": {
            "elevation": 45,
            "intensity": 1,
            "rotation": 0
          },
          "stringParameters": {
            "groundColor": "64;64;64",
            "skyColor": "255;255;255",
            "top": "Y-"
          },
          "booleanParameters": {}
        }
      ]
    }
  ],
  "behaviorsSharedData": [
    {
      "name": "Animation",
      "type": "AnimatableCapability::AnimatableBehavior"
    },
    {
      "name": "Effect",
      "type": "EffectCapability::EffectBehavior"
    },
    {
      "name": "FlashTransitionPainter",
      "type": "FlashTransitionPainter::FlashTransitionPainter"
    },
    {
      "name": "Flippable",
      "type": "FlippableCapability::FlippableBehavior"
    },
    {
      "name": "Health",
      "type": "Health::Health"
    },
    {
      "name": "Opacity",
      "type": "OpacityCapability::OpacityBehavior"
    },
    {
      "name": "RectangleMovement",
      "type": "RectangleMovement::RectangleMovement"
    },
    {
      "name": "Resizable",
      "type": "ResizableCapability::ResizableBehavior"
    },
    {
      "name": "Scale",
      "type": "ScalableCapability::ScalableBehavior"
    },
    {
      "name": "ShakeObject_PositionAngle",
      "type": "ShakeObject::ShakeObject_PositionAngle"
    },
    {
      "name": "ShakeObject_PositionAngleScale",
      "type": "ShakeObject::ShakeObject_PositionAngleScale"
    },
    {
      "name": "Text",
      "type": "TextContainerCapability::TextContainerBehavior"
    },
    {
      "name": "TopDownMovement",
      "type": "TopDownMovementBehavior::TopDownMovementBehavior"
    },
    {
      "name": "Tween",
      "type": "Tween::TweenBehavior"
    }
  ]
}