{
  "b": 209,
  "disableInputWhenNotFocused": true,
  "mangledName": "_52_95SummaryWords_451",
  "name": "4_SummaryWords-1",
  "r": 209,
  "standardSortMethod": true,
  "stopSoundsOnStartup": true,
  "title": "",
  "v": 209,
  "uiSettings": {
    "grid": false,
    "gridType": "rectangular",
    "gridWidth": 32,
    "gridHeight": 32,
    "gridOffsetX": 0,
    "gridOffsetY": 0,
    "gridColor": 10401023,
    "gridAlpha": 0.8,
    "snap": false,
    "zoomFactor": 0.475358508712693,
    "windowMask": false
  },
  "objectsGroups": [],
  "variables": [
    {
      "folded": true,
      "name": "speech",
      "type": "string",
      "value": ""
    }
  ],
  "instances": [
    {
      "angle": 0,
      "customSize": true,
      "depth": 2,
      "height": 1151,
      "layer": "",
      "name": "summary_background",
      "persistentUuid": "ebfff8d5-e968-4886-962f-d7a4ac2213cd",
      "width": 1919,
      "x": 1,
      "y": -40,
      "zOrder": 1,
      "numberProperties": [],
      "stringProperties": [],
      "initialVariables": []
    },
    {
      "angle": 0,
      "customSize": true,
      "depth": 17,
      "height": 110,
      "layer": "",
      "name": "summary_btnBack",
      "persistentUuid": "b143a83d-4332-47e1-9ccb-d0665a3db6f7",
      "width": 108,
      "x": 181,
      "y": 437,
      "zOrder": 2,
      "numberProperties": [],
      "stringProperties": [],
      "initialVariables": []
    },
    {
      "angle": 0,
      "customSize": true,
      "depth": 32,
      "height": 110,
      "layer": "",
      "name": "summary_btnNext",
      "persistentUuid": "2466dcbf-34b5-420d-b7b2-380e4fcf6980",
      "width": 108,
      "x": 1649,
      "y": 437,
      "zOrder": 3,
      "numberProperties": [],
      "stringProperties": [],
      "initialVariables": []
    },
    {
      "angle": 0,
      "customSize": false,
      "height": 0,
      "layer": "",
      "name": "picture_penguinText",
      "persistentUuid": "a9f7bfcc-c0c4-4331-ad02-e8086d88f9e7",
      "width": 0,
      "x": 492,
      "y": 400,
      "zOrder": 4,
      "numberProperties": [],
      "stringProperties": [],
      "initialVariables": []
    },
    {
      "angle": 0,
      "customSize": false,
      "height": 0,
      "layer": "",
      "name": "picture_lionText",
      "persistentUuid": "27391ef2-22c1-494d-9662-b52406ab7b81",
      "width": 0,
      "x": 930,
      "y": 390,
      "zOrder": 5,
      "numberProperties": [],
      "stringProperties": [],
      "initialVariables": []
    },
    {
      "angle": 0,
      "customSize": false,
      "height": 0,
      "layer": "",
      "name": "picture_catText",
      "persistentUuid": "98136a5c-9d9a-467e-86b1-a2a05be6caca",
      "width": 0,
      "x": 500,
      "y": 709,
      "zOrder": 6,
      "numberProperties": [],
      "stringProperties": [],
      "initialVariables": []
    },
    {
      "angle": 0,
      "customSize": false,
      "height": 0,
      "layer": "",
      "name": "picture_fishText",
      "persistentUuid": "d9fb22ab-6250-4085-9ce4-ac6ed31ac150",
      "width": 0,
      "x": 930,
      "y": 719,
      "zOrder": 7,
      "numberProperties": [],
      "stringProperties": [],
      "initialVariables": []
    },
    {
      "angle": 0,
      "customSize": false,
      "height": 0,
      "layer": "",
      "name": "picture_dogText",
      "persistentUuid": "70f21444-f09d-44d9-ba93-6160114a4c86",
      "width": 0,
      "x": 1300,
      "y": 709,
      "zOrder": 8,
      "numberProperties": [],
      "stringProperties": [],
      "initialVariables": []
    },
    {
      "angle": 0,
      "customSize": false,
      "height": 0,
      "layer": "",
      "name": "picture_duckText",
      "persistentUuid": "09b74f77-ea05-4cee-b065-06eff18ff02a",
      "width": 0,
      "x": 1289,
      "y": 400,
      "zOrder": 9,
      "numberProperties": [],
      "stringProperties": [],
      "initialVariables": []
    },
    {
      "angle": 0,
      "customSize": true,
      "depth": 32,
      "height": 160,
      "layer": "",
      "name": "score_btnPass",
      "persistentUuid": "73f25587-3261-4a82-8806-5d1652604bcc",
      "width": 160,
      "x": 890,
      "y": 890,
      "zOrder": 16,
      "numberProperties": [],
      "stringProperties": [],
      "initialVariables": []
    },
    {
      "angle": 0,
      "customSize": true,
      "depth": 2,
      "height": 152,
      "layer": "",
      "name": "picture_penguinPic",
      "persistentUuid": "e90adefc-8798-43eb-8da0-2b28eb34c876",
      "width": 107,
      "x": 527,
      "y": 226,
      "zOrder": 17,
      "numberProperties": [],
      "stringProperties": [],
      "initialVariables": []
    },
    {
      "angle": 0,
      "customSize": true,
      "depth": 1,
      "height": 153,
      "layer": "",
      "name": "picture_lionPic",
      "persistentUuid": "07bd8960-96fe-458a-bd2d-f957f222f9df",
      "width": 102,
      "x": 932,
      "y": 220,
      "zOrder": 18,
      "numberProperties": [],
      "stringProperties": [],
      "initialVariables": []
    },
    {
      "angle": 0,
      "customSize": true,
      "depth": 2,
      "height": 168,
      "layer": "",
      "name": "picture_duckPic",
      "persistentUuid": "9eeae5e1-3fd6-4976-aaa5-0e22d620144b",
      "width": 134,
      "x": 1283,
      "y": 216,
      "zOrder": 19,
      "numberProperties": [],
      "stringProperties": [],
      "initialVariables": []
    },
    {
      "angle": 0,
      "customSize": true,
      "depth": 1,
      "height": 161,
      "layer": "",
      "name": "picture_catPic",
      "persistentUuid": "ff681f29-a574-44a1-8cee-9af89fdc761f",
      "width": 121,
      "x": 481,
      "y": 539,
      "zOrder": 20,
      "numberProperties": [],
      "stringProperties": [],
      "initialVariables": []
    },
    {
      "angle": 0,
      "customSize": true,
      "depth": 2,
      "height": 135,
      "layer": "",
      "name": "picture_fishPic",
      "persistentUuid": "101b5eef-c960-4c24-93ff-a46c6dada9e5",
      "width": 189,
      "x": 881,
      "y": 556,
      "zOrder": 21,
      "numberProperties": [],
      "stringProperties": [],
      "initialVariables": []
    },
    {
      "angle": 0,
      "customSize": false,
      "height": 0,
      "layer": "",
      "name": "picture_dogPic",
      "persistentUuid": "c7134fab-fb0a-428d-82b0-83e4f6b484f6",
      "width": 0,
      "x": 1247,
      "y": 521,
      "zOrder": 22,
      "numberProperties": [],
      "stringProperties": [],
      "initialVariables": []
    }
  ],
  "objects": [],
  "objectsFolderStructure": {
    "folderName": "__ROOT"
  },
  "events": [
    {
      "colorB": 228,
      "colorG": 176,
      "colorR": 74,
      "creationTime": 0,
      "name": "Group",
      "source": "",
      "type": "BuiltinCommonInstructions::Group",
      "events": [
        {
          "type": "BuiltinCommonInstructions::Standard",
          "conditions": [
            {
              "type": {
                "value": "DepartScene"
              },
              "parameters": [
                ""
              ]
            }
          ],
          "actions": [
            {
              "type": {
                "value": "PlayMusicCanal"
              },
              "parameters": [
                "",
                "assets\\asset audio\\outro music.mp3",
                "15",
                "yes",
                "40",
                "1"
              ]
            },
            {
              "type": {
                "value": "TextObject::ChangeColor"
              },
              "parameters": [
                "picture_animalText",
                "\"47;131;228\""
              ]
            }
          ]
        },
        {
          "type": "BuiltinCommonInstructions::Link",
          "include": {
            "includeConfig": 0
          },
          "target": "02_ListOfWords"
        },
        {
          "type": "BuiltinCommonInstructions::Standard",
          "conditions": [
            {
              "type": {
                "value": "PanelSpriteButton::PanelSpriteButton::IsClicked"
              },
              "parameters": [
                "summary_btnBack",
                ""
              ]
            }
          ],
          "actions": []
        },
        {
          "type": "BuiltinCommonInstructions::Standard",
          "conditions": [
            {
              "type": {
                "value": "PanelSpriteButton::PanelSpriteButton::IsClicked"
              },
              "parameters": [
                "summary_btnNext",
                ""
              ]
            }
          ],
          "actions": [
            {
              "type": {
                "value": "Scene"
              },
              "parameters": [
                "",
                "\"4_SummaryWords-2\"",
                ""
              ]
            }
          ]
        },
        {
          "type": "BuiltinCommonInstructions::Standard",
          "conditions": [
            {
              "type": {
                "value": "PanelSpriteButton::PanelSpriteButton::IsClicked"
              },
              "parameters": [
                "score_btnPass",
                ""
              ]
            }
          ],
          "actions": [
            {
              "type": {
                "value": "Scene"
              },
              "parameters": [
                "",
                "\"0_GameOver\"",
                ""
              ]
            }
          ]
        }
      ],
      "parameters": []
    }
  ],
  "layers": [
    {
      "ambientLightColorB": 200,
      "ambientLightColorG": 200,
      "ambientLightColorR": 200,
      "camera3DFarPlaneDistance": 10000,
      "camera3DFieldOfView": 45,
      "camera3DNearPlaneDistance": 3,
      "followBaseLayerCamera": false,
      "isLightingLayer": false,
      "isLocked": false,
      "name": "",
      "renderingType": "",
      "visibility": true,
      "cameras": [
        {
          "defaultSize": true,
          "defaultViewport": true,
          "height": 0,
          "viewportBottom": 1,
          "viewportLeft": 0,
          "viewportRight": 1,
          "viewportTop": 0,
          "width": 0
        }
      ],
      "effects": [
        {
          "effectType": "Scene3D::HemisphereLight",
          "name": "3D Light",
          "doubleParameters": {
            "elevation": 45,
            "intensity": 1,
            "rotation": 0
          },
          "stringParameters": {
            "groundColor": "64;64;64",
            "skyColor": "255;255;255",
            "top": "Y-"
          },
          "booleanParameters": {}
        }
      ]
    }
  ],
  "behaviorsSharedData": [
    {
      "name": "Animation",
      "type": "AnimatableCapability::AnimatableBehavior"
    },
    {
      "name": "Effect",
      "type": "EffectCapability::EffectBehavior"
    },
    {
      "name": "FlashTransitionPainter",
      "type": "FlashTransitionPainter::FlashTransitionPainter"
    },
    {
      "name": "Flippable",
      "type": "FlippableCapability::FlippableBehavior"
    },
    {
      "name": "Health",
      "type": "Health::Health"
    },
    {
      "name": "Opacity",
      "type": "OpacityCapability::OpacityBehavior"
    },
    {
      "name": "RectangleMovement",
      "type": "RectangleMovement::RectangleMovement"
    },
    {
      "name": "Resizable",
      "type": "ResizableCapability::ResizableBehavior"
    },
    {
      "name": "Scale",
      "type": "ScalableCapability::ScalableBehavior"
    },
    {
      "name": "ShakeObject_PositionAngle",
      "type": "ShakeObject::ShakeObject_PositionAngle"
    },
    {
      "name": "ShakeObject_PositionAngleScale",
      "type": "ShakeObject::ShakeObject_PositionAngleScale"
    },
    {
      "name": "Text",
      "type": "TextContainerCapability::TextContainerBehavior"
    },
    {
      "name": "TopDownMovement",
      "type": "TopDownMovementBehavior::TopDownMovementBehavior"
    },
    {
      "name": "Tween",
      "type": "Tween::TweenBehavior"
    }
  ]
}