{
  "b": 209,
  "disableInputWhenNotFocused": true,
  "mangledName": "listening_95lv1_95p1",
  "name": "listening_lv1_p1",
  "r": 209,
  "standardSortMethod": true,
  "stopSoundsOnStartup": true,
  "title": "",
  "v": 209,
  "uiSettings": {
    "grid": false,
    "gridType": "rectangular",
    "gridWidth": 32,
    "gridHeight": 32,
    "gridOffsetX": 0,
    "gridOffsetY": 0,
    "gridColor": 10401023,
    "gridAlpha": 0.8,
    "snap": false,
    "zoomFactor": 0.4448515998886655,
    "windowMask": false
  },
  "objectsGroups": [
    {
      "name": "listening_btn",
      "objects": [
        {
          "name": "listening_btnDeer"
        },
        {
          "name": "listening_btnPenguin"
        },
        {
          "name": "listening_btnElephant"
        },
        {
          "name": "listening_btnCat"
        },
        {
          "name": "listening_btnDuck"
        },
        {
          "name": "listening_btnOwl"
        },
        {
          "name": "listening_btnGiraffe"
        },
        {
          "name": "listening_btnLion"
        },
        {
          "name": "listening_btnMonkey"
        },
        {
          "name": "listening_btnParrot"
        },
        {
          "name": "listening_btnCock"
        },
        {
          "name": "listening_btnFox"
        },
        {
          "name": "listening_btnFrog"
        },
        {
          "name": "listening_btnSnake"
        },
        {
          "name": "listening_btnSnail"
        },
        {
          "name": "listening_btnTiger"
        },
        {
          "name": "listening_btnFish"
        },
        {
          "name": "listening_btnBear"
        }
      ]
    }
  ],
  "variables": [
    {
      "folded": true,
      "name": "timePlayListen",
      "type": "number",
      "value": 30
    },
    {
      "folded": true,
      "name": "pass",
      "type": "number",
      "value": 0
    }
  ],
  "instances": [
    {
      "angle": 0,
      "customSize": true,
      "depth": 32,
      "height": 110,
      "layer": "Quest",
      "name": "listening_btnDeer",
      "persistentUuid": "acbd340c-1837-4452-80d4-e61a191aa006",
      "width": 309,
      "x": 304,
      "y": 261,
      "zOrder": 1,
      "numberProperties": [],
      "stringProperties": [],
      "initialVariables": []
    },
    {
      "angle": 0,
      "customSize": true,
      "depth": 32,
      "height": 110,
      "layer": "Quest",
      "name": "listening_btnPenguin",
      "persistentUuid": "3d354d5b-e7aa-4c88-a329-d818c355e4ce",
      "width": 309,
      "x": 833,
      "y": 501,
      "zOrder": 2,
      "numberProperties": [],
      "stringProperties": [],
      "initialVariables": []
    },
    {
      "angle": 0,
      "customSize": true,
      "depth": 32,
      "height": 110,
      "layer": "Quest",
      "name": "listening_btnDuck",
      "persistentUuid": "1d9c9583-dffb-436f-8131-5f34e58243bd",
      "width": 309,
      "x": 301,
      "y": 750,
      "zOrder": 3,
      "numberProperties": [],
      "stringProperties": [],
      "initialVariables": []
    },
    {
      "angle": 0,
      "customSize": true,
      "depth": 32,
      "height": 110,
      "layer": "Quest",
      "name": "listening_btnFox",
      "persistentUuid": "1a4396d6-0441-4bd8-83e0-fac2102ff346",
      "width": 309,
      "x": 832,
      "y": 267,
      "zOrder": 4,
      "numberProperties": [],
      "stringProperties": [],
      "initialVariables": []
    },
    {
      "angle": 0,
      "customSize": true,
      "depth": 32,
      "height": 110,
      "layer": "Quest",
      "name": "listening_btnMonkey",
      "persistentUuid": "17700479-7c98-4145-8d61-e2c27ee56a89",
      "width": 309,
      "x": 300,
      "y": 499,
      "zOrder": 5,
      "numberProperties": [],
      "stringProperties": [],
      "initialVariables": []
    },
    {
      "angle": 0,
      "customSize": true,
      "depth": 32,
      "height": 110,
      "layer": "Quest",
      "name": "listening_btnLion",
      "persistentUuid": "8a129c85-95a7-4414-a43a-7ee5481be9d5",
      "width": 309,
      "x": 833,
      "y": 756,
      "zOrder": 6,
      "numberProperties": [],
      "stringProperties": [],
      "initialVariables": []
    },
    {
      "angle": 0,
      "customSize": true,
      "depth": 216,
      "height": 338,
      "layer": "Quest",
      "name": "listening_speakerQuest",
      "persistentUuid": "5ded33a0-82ed-4dfb-ba7a-d3119b2ccdfb",
      "width": 345,
      "x": 1454,
      "y": 388,
      "zOrder": 7,
      "numberProperties": [],
      "stringProperties": [],
      "initialVariables": []
    },
    {
      "angle": 0,
      "customSize": true,
      "depth": 1,
      "height": 100,
      "layer": "Quest",
      "name": "listening_lightDeer",
      "persistentUuid": "0b2d052b-6053-458c-bbcf-f005c39fb8fb",
      "width": 100,
      "x": 415,
      "y": 155,
      "zOrder": 8,
      "numberProperties": [],
      "stringProperties": [],
      "initialVariables": []
    },
    {
      "angle": 0,
      "customSize": true,
      "depth": 0,
      "height": 100,
      "layer": "Quest",
      "name": "listening_lightMonkey",
      "persistentUuid": "f1f0ae05-32c0-4b8d-a244-e0ea9345cb72",
      "width": 100,
      "x": 415,
      "y": 388,
      "zOrder": 9,
      "numberProperties": [],
      "stringProperties": [],
      "initialVariables": []
    },
    {
      "angle": 0,
      "customSize": true,
      "depth": 0,
      "height": 100,
      "layer": "Quest",
      "name": "listening_lightDuck",
      "persistentUuid": "def469d5-1435-4ec9-a1a3-6bcb2c91265a",
      "width": 100,
      "x": 415,
      "y": 643,
      "zOrder": 10,
      "numberProperties": [],
      "stringProperties": [],
      "initialVariables": []
    },
    {
      "angle": 0,
      "customSize": true,
      "depth": 0,
      "height": 100,
      "layer": "Quest",
      "name": "listening_lightFox",
      "persistentUuid": "dd1597fa-ae13-4b83-b4ce-0af76c355a72",
      "width": 100,
      "x": 940,
      "y": 155,
      "zOrder": 11,
      "numberProperties": [],
      "stringProperties": [],
      "initialVariables": []
    },
    {
      "angle": 0,
      "customSize": true,
      "depth": 0,
      "height": 100,
      "layer": "Quest",
      "name": "listening_lightPenguin",
      "persistentUuid": "cca76f16-4b19-4adf-93a0-14bfcf483566",
      "width": 100,
      "x": 939,
      "y": 388,
      "zOrder": 12,
      "numberProperties": [],
      "stringProperties": [],
      "initialVariables": []
    },
    {
      "angle": 0,
      "customSize": true,
      "depth": 0,
      "height": 100,
      "layer": "Quest",
      "name": "listening_lightLion",
      "persistentUuid": "0c46b71d-c9eb-4d45-84db-9cf9f5d71bc3",
      "width": 100,
      "x": 939,
      "y": 643,
      "zOrder": 13,
      "numberProperties": [],
      "stringProperties": [],
      "initialVariables": []
    },
    {
      "angle": 0,
      "customSize": true,
      "depth": 0,
      "height": 115,
      "layer": "Quest",
      "name": "listening_timePlay",
      "persistentUuid": "460302f0-c070-4717-8f29-e1918c77c9cf",
      "width": 112,
      "x": 1679,
      "y": 42,
      "zOrder": 14,
      "numberProperties": [],
      "stringProperties": [],
      "initialVariables": []
    }
  ],
  "objects": [
    {
      "adaptCollisionMaskAutomatically": true,
      "assetStoreId": "",
      "name": "listening_background",
      "type": "Sprite",
      "updateIfNotVisible": false,
      "variables": [],
      "effects": [],
      "behaviors": [],
      "animations": [
        {
          "name": "",
          "useMultipleDirections": false,
          "directions": [
            {
              "looping": false,
              "timeBetweenFrames": 0.08,
              "sprites": [
                {
                  "hasCustomCollisionMask": true,
                  "image": "Background.png",
                  "points": [],
                  "originPoint": {
                    "name": "origine",
                    "x": 0,
                    "y": 0
                  },
                  "centerPoint": {
                    "automatic": true,
                    "name": "centre",
                    "x": 0,
                    "y": 0
                  },
                  "customCollisionMask": [
                    [
                      {
                        "x": 1,
                        "y": 0
                      },
                      {
                        "x": 11056,
                        "y": 0
                      },
                      {
                        "x": 11056,
                        "y": 7897
                      },
                      {
                        "x": 1,
                        "y": 7897
                      }
                    ]
                  ]
                }
              ]
            }
          ]
        }
      ]
    },
    {
      "assetStoreId": "b44dba91245ff1ac84a7b450e078194f19321d135fd8a67cd19bc9cb3403fba5",
      "name": "listening_speakerQuest",
      "type": "PanelSpriteButton::PanelSpriteButton",
      "variables": [],
      "effects": [],
      "behaviors": [],
      "content": {
        "LeftPadding": 11,
        "RightPadding": 16,
        "PressedLabelOffsetY": 10,
        "BottomPadding": 32,
        "TopPadding": 16,
        "HoveredFadeOutDuration": 0.25
      },
      "childrenContent": {
        "Hovered": {
          "bottomMargin": 32,
          "height": 50,
          "leftMargin": 16,
          "rightMargin": 16,
          "texture": "buttonlistening2@3x.png",
          "tiled": true,
          "topMargin": 16,
          "width": 200
        },
        "Idle": {
          "bottomMargin": 32,
          "height": 50,
          "leftMargin": 16,
          "rightMargin": 16,
          "texture": "buttonlistening1@3x.png",
          "tiled": true,
          "topMargin": 16,
          "width": 200
        },
        "Label": {
          "bold": false,
          "italic": false,
          "smoothed": true,
          "underlined": false,
          "string": "",
          "font": "",
          "textAlignment": "center",
          "characterSize": 58,
          "color": {
            "b": 29,
            "g": 99,
            "r": 62
          }
        },
        "Pressed": {
          "bottomMargin": 16,
          "height": 50,
          "leftMargin": 16,
          "rightMargin": 16,
          "texture": "buttonlistening3@3x.png",
          "tiled": true,
          "topMargin": 32,
          "width": 200
        }
      }
    },
    {
      "adaptCollisionMaskAutomatically": true,
      "assetStoreId": "",
      "name": "listening_board",
      "type": "Sprite",
      "updateIfNotVisible": false,
      "variables": [],
      "effects": [],
      "behaviors": [],
      "animations": [
        {
          "name": "",
          "useMultipleDirections": false,
          "directions": [
            {
              "looping": false,
              "timeBetweenFrames": 0.08,
              "sprites": [
                {
                  "hasCustomCollisionMask": true,
                  "image": "board.png",
                  "points": [],
                  "originPoint": {
                    "name": "origine",
                    "x": 0,
                    "y": 0
                  },
                  "centerPoint": {
                    "automatic": true,
                    "name": "centre",
                    "x": 0,
                    "y": 0
                  },
                  "customCollisionMask": [
                    [
                      {
                        "x": 0,
                        "y": 0
                      },
                      {
                        "x": 2780,
                        "y": 0
                      },
                      {
                        "x": 2780,
                        "y": 2046
                      },
                      {
                        "x": 0,
                        "y": 2046
                      }
                    ]
                  ]
                }
              ]
            }
          ]
        }
      ]
    },
    {
      "assetStoreId": "",
      "bold": true,
      "italic": false,
      "name": "listening_timePlay",
      "smoothed": true,
      "type": "TextObject::Text",
      "underlined": false,
      "variables": [],
      "effects": [],
      "behaviors": [],
      "string": "30",
      "font": "",
      "textAlignment": "left",
      "characterSize": 100,
      "color": {
        "b": 255,
        "g": 255,
        "r": 255
      }
    },
    {
      "adaptCollisionMaskAutomatically": true,
      "assetStoreId": "",
      "name": "listening_titleGame",
      "type": "Sprite",
      "updateIfNotVisible": false,
      "variables": [],
      "effects": [],
      "behaviors": [],
      "animations": [
        {
          "name": "",
          "useMultipleDirections": false,
          "directions": [
            {
              "looping": false,
              "timeBetweenFrames": 0.08,
              "sprites": [
                {
                  "hasCustomCollisionMask": true,
                  "image": "LISTENING@10x.png",
                  "points": [],
                  "originPoint": {
                    "name": "origine",
                    "x": 0,
                    "y": 0
                  },
                  "centerPoint": {
                    "automatic": true,
                    "name": "centre",
                    "x": 0,
                    "y": 0
                  },
                  "customCollisionMask": [
                    [
                      {
                        "x": 370,
                        "y": 367
                      },
                      {
                        "x": 12933,
                        "y": 367
                      },
                      {
                        "x": 12933,
                        "y": 5760
                      },
                      {
                        "x": 370,
                        "y": 5760
                      }
                    ]
                  ]
                }
              ]
            }
          ]
        }
      ]
    }
  ],
  "objectsFolderStructure": {
    "folderName": "__ROOT",
    "children": [
      {
        "objectName": "listening_background"
      },
      {
        "objectName": "listening_speakerQuest"
      },
      {
        "objectName": "listening_board"
      },
      {
        "objectName": "listening_timePlay"
      },
      {
        "objectName": "listening_titleGame"
      }
    ]
  },
  "events": [
    {
      "type": "BuiltinCommonInstructions::Link",
      "include": {
        "includeConfig": 0
      },
      "target": "audio_button"
    },
    {
      "type": "BuiltinCommonInstructions::Standard",
      "conditions": [
        {
          "type": {
            "value": "DepartScene"
          },
          "parameters": [
            ""
          ]
        }
      ],
      "actions": [
        {
          "type": {
            "value": "BuiltinExternalLayouts::CreateObjectsFromExternalLayout"
          },
          "parameters": [
            "",
            "\"Listening\"",
            "0",
            "0",
            "0"
          ]
        },
        {
          "type": {
            "value": "PlayMusic"
          },
          "parameters": [
            "",
            "lv1_music bg.mp3",
            "yes",
            "10",
            ""
          ]
        },
        {
          "type": {
            "value": "ResetTimer"
          },
          "parameters": [
            "",
            "\"timePlay\""
          ]
        }
      ]
    },
    {
      "type": "BuiltinCommonInstructions::Standard",
      "conditions": [
        {
          "type": {
            "value": "CompareTimer"
          },
          "parameters": [
            "",
            "\"timePlay\"",
            ">=",
            "1"
          ]
        }
      ],
      "actions": [
        {
          "type": {
            "value": "ModVarScene"
          },
          "parameters": [
            "timePlayListen",
            "-",
            "1"
          ]
        },
        {
          "type": {
            "value": "TextContainerCapability::TextContainerBehavior::SetValue"
          },
          "parameters": [
            "listening_timePlay",
            "Text",
            "=",
            "ToString(Variable(timePlayListen))"
          ]
        },
        {
          "type": {
            "value": "ResetTimer"
          },
          "parameters": [
            "",
            "\"timePlay\""
          ]
        }
      ]
    },
    {
      "type": "BuiltinCommonInstructions::Standard",
      "conditions": [
        {
          "type": {
            "value": "PanelSpriteButton::PanelSpriteButton::IsClicked"
          },
          "parameters": [
            "listening_speakerQuest",
            ""
          ]
        }
      ],
      "actions": [
        {
          "type": {
            "value": "PlayMusic"
          },
          "parameters": [
            "",
            "lv1_p1.mp3",
            "",
            "50",
            "1"
          ]
        }
      ]
    },
    {
      "type": "BuiltinCommonInstructions::Standard",
      "conditions": [
        {
          "type": {
            "value": "SourisSurObjet"
          },
          "parameters": [
            "listening_btn",
            "",
            "",
            ""
          ]
        },
        {
          "type": {
            "value": "MouseButtonPressed"
          },
          "parameters": [
            "",
            "Left"
          ]
        },
        {
          "type": {
            "value": "BuiltinCommonInstructions::Once"
          },
          "parameters": []
        }
      ],
      "actions": [
        {
          "type": {
            "value": "ModVarScene"
          },
          "parameters": [
            "timePlayListen",
            "-",
            "5"
          ]
        }
      ]
    },
    {
      "type": "BuiltinCommonInstructions::Standard",
      "conditions": [
        {
          "type": {
            "value": "PanelSpriteButton::PanelSpriteButton::IsClicked"
          },
          "parameters": [
            "listening_btnDeer",
            ""
          ]
        }
      ],
      "actions": [
        {
          "type": {
            "value": "ModVarScene"
          },
          "parameters": [
            "timePlayListen",
            "+",
            "5"
          ]
        },
        {
          "type": {
            "value": "AnimatableCapability::AnimatableBehavior::SetName"
          },
          "parameters": [
            "listening_lightDeer",
            "Animation",
            "=",
            "\"on\""
          ]
        },
        {
          "type": {
            "value": "ModVarScene"
          },
          "parameters": [
            "pass",
            "+",
            "1"
          ]
        },
        {
          "type": {
            "value": "PanelSpriteButton::PanelSpriteButton::Activate"
          },
          "parameters": [
            "listening_btnDeer",
            "",
            ""
          ]
        }
      ]
    },
    {
      "type": "BuiltinCommonInstructions::Standard",
      "conditions": [
        {
          "type": {
            "value": "PanelSpriteButton::PanelSpriteButton::IsClicked"
          },
          "parameters": [
            "listening_btnDuck",
            ""
          ]
        }
      ],
      "actions": [
        {
          "type": {
            "value": "ModVarScene"
          },
          "parameters": [
            "timePlayListen",
            "+",
            "5"
          ]
        },
        {
          "type": {
            "value": "AnimatableCapability::AnimatableBehavior::SetName"
          },
          "parameters": [
            "listening_lightDuck",
            "Animation",
            "=",
            "\"on\""
          ]
        },
        {
          "type": {
            "value": "ModVarScene"
          },
          "parameters": [
            "pass",
            "+",
            "1"
          ]
        },
        {
          "type": {
            "value": "PanelSpriteButton::PanelSpriteButton::Activate"
          },
          "parameters": [
            "listening_btnDuck",
            "",
            ""
          ]
        }
      ]
    },
    {
      "type": "BuiltinCommonInstructions::Standard",
      "conditions": [
        {
          "type": {
            "value": "PanelSpriteButton::PanelSpriteButton::IsClicked"
          },
          "parameters": [
            "listening_btnMonkey",
            ""
          ]
        }
      ],
      "actions": [
        {
          "type": {
            "value": "ModVarScene"
          },
          "parameters": [
            "timePlayListen",
            "+",
            "5"
          ]
        },
        {
          "type": {
            "value": "AnimatableCapability::AnimatableBehavior::SetName"
          },
          "parameters": [
            "listening_lightMonkey",
            "Animation",
            "=",
            "\"on\""
          ]
        },
        {
          "type": {
            "value": "ModVarScene"
          },
          "parameters": [
            "pass",
            "+",
            "1"
          ]
        },
        {
          "type": {
            "value": "PanelSpriteButton::PanelSpriteButton::Activate"
          },
          "parameters": [
            "listening_btnMonkey",
            "",
            ""
          ]
        }
      ]
    },
    {
      "type": "BuiltinCommonInstructions::Standard",
      "conditions": [
        {
          "type": {
            "value": "VarScene"
          },
          "parameters": [
            "timePlayListen",
            "<=",
            "0"
          ]
        },
        {
          "type": {
            "value": "VarScene"
          },
          "parameters": [
            "pass",
            "<",
            "3"
          ]
        }
      ],
      "actions": [
        {
          "type": {
            "value": "PauseTimer"
          },
          "parameters": [
            "",
            "\"timePlay\""
          ]
        },
        {
          "type": {
            "value": "Scene"
          },
          "parameters": [
            "",
            "\"test\"",
            ""
          ]
        }
      ]
    },
    {
      "type": "BuiltinCommonInstructions::Standard",
      "conditions": [
        {
          "type": {
            "value": "VarScene"
          },
          "parameters": [
            "pass",
            "=",
            "3"
          ]
        },
        {
          "type": {
            "value": "VarScene"
          },
          "parameters": [
            "timePlayListen",
            ">",
            "0"
          ]
        }
      ],
      "actions": [
        {
          "type": {
            "value": "PauseTimer"
          },
          "parameters": [
            "",
            "\"timePlay\""
          ]
        },
        {
          "type": {
            "value": "Scene"
          },
          "parameters": [
            "",
            "\"test\"",
            ""
          ]
        }
      ]
    },
    {
      "type": "BuiltinCommonInstructions::Standard",
      "conditions": [],
      "actions": []
    }
  ],
  "layers": [
    {
      "ambientLightColorB": 200,
      "ambientLightColorG": 200,
      "ambientLightColorR": 200,
      "camera3DFarPlaneDistance": 10000,
      "camera3DFieldOfView": 45,
      "camera3DNearPlaneDistance": 3,
      "followBaseLayerCamera": false,
      "isLightingLayer": false,
      "isLocked": false,
      "name": "Background",
      "renderingType": "",
      "visibility": true,
      "cameras": [],
      "effects": [
        {
          "effectType": "Scene3D::HemisphereLight",
          "name": "3D Light",
          "doubleParameters": {
            "elevation": 45,
            "intensity": 1,
            "rotation": 0
          },
          "stringParameters": {
            "groundColor": "64;64;64",
            "skyColor": "255;255;255",
            "top": "Y-"
          },
          "booleanParameters": {}
        }
      ]
    },
    {
      "ambientLightColorB": 200,
      "ambientLightColorG": 200,
      "ambientLightColorR": 200,
      "camera3DFarPlaneDistance": 10000,
      "camera3DFieldOfView": 45,
      "camera3DNearPlaneDistance": 3,
      "followBaseLayerCamera": false,
      "isLightingLayer": false,
      "isLocked": false,
      "name": "",
      "renderingType": "",
      "visibility": true,
      "cameras": [
        {
          "defaultSize": true,
          "defaultViewport": true,
          "height": 0,
          "viewportBottom": 1,
          "viewportLeft": 0,
          "viewportRight": 1,
          "viewportTop": 0,
          "width": 0
        }
      ],
      "effects": [
        {
          "effectType": "Scene3D::HemisphereLight",
          "name": "3D Light",
          "doubleParameters": {
            "elevation": 45,
            "intensity": 1,
            "rotation": 0
          },
          "stringParameters": {
            "groundColor": "64;64;64",
            "skyColor": "255;255;255",
            "top": "Y-"
          },
          "booleanParameters": {}
        }
      ]
    },
    {
      "ambientLightColorB": 200,
      "ambientLightColorG": 200,
      "ambientLightColorR": 200,
      "camera3DFarPlaneDistance": 10000,
      "camera3DFieldOfView": 45,
      "camera3DNearPlaneDistance": 3,
      "followBaseLayerCamera": false,
      "isLightingLayer": false,
      "isLocked": false,
      "name": "Quest",
      "renderingType": "",
      "visibility": true,
      "cameras": [],
      "effects": [
        {
          "effectType": "Scene3D::HemisphereLight",
          "name": "3D Light",
          "doubleParameters": {
            "elevation": 45,
            "intensity": 1,
            "rotation": 0
          },
          "stringParameters": {
            "groundColor": "64;64;64",
            "skyColor": "255;255;255",
            "top": "Y-"
          },
          "booleanParameters": {}
        }
      ]
    }
  ],
  "behaviorsSharedData": [
    {
      "name": "Animation",
      "type": "AnimatableCapability::AnimatableBehavior"
    },
    {
      "name": "Effect",
      "type": "EffectCapability::EffectBehavior"
    },
    {
      "name": "Flippable",
      "type": "FlippableCapability::FlippableBehavior"
    },
    {
      "name": "Opacity",
      "type": "OpacityCapability::OpacityBehavior"
    },
    {
      "name": "RectangleMovement",
      "type": "RectangleMovement::RectangleMovement"
    },
    {
      "name": "Resizable",
      "type": "ResizableCapability::ResizableBehavior"
    },
    {
      "name": "Scale",
      "type": "ScalableCapability::ScalableBehavior"
    },
    {
      "name": "ShakeObject_PositionAngle",
      "type": "ShakeObject::ShakeObject_PositionAngle"
    },
    {
      "name": "ShakeObject_PositionAngleScale",
      "type": "ShakeObject::ShakeObject_PositionAngleScale"
    },
    {
      "name": "Text",
      "type": "TextContainerCapability::TextContainerBehavior"
    },
    {
      "name": "Tween",
      "type": "Tween::TweenBehavior"
    }
  ]
}