{
  "b": 209,
  "disableInputWhenNotFocused": true,
  "mangledName": "listening_95lv3_95p1",
  "name": "listening_lv3_p1",
  "r": 209,
  "standardSortMethod": true,
  "stopSoundsOnStartup": true,
  "title": "",
  "v": 209,
  "uiSettings": {
    "grid": false,
    "gridType": "rectangular",
    "gridWidth": 32,
    "gridHeight": 32,
    "gridOffsetX": 0,
    "gridOffsetY": 0,
    "gridColor": 10401023,
    "gridAlpha": 0.8,
    "snap": false,
    "zoomFactor": 0.44485159988866574,
    "windowMask": false
  },
  "objectsGroups": [],
  "variables": [
    {
      "folded": true,
      "name": "timePlayListen",
      "type": "number",
      "value": 30
    },
    {
      "folded": true,
      "name": "pass",
      "type": "number",
      "value": 0
    }
  ],
  "instances": [
    {
      "angle": 0,
      "customSize": true,
      "depth": 216,
      "height": 338,
      "layer": "Quest",
      "name": "listening_speakerQuest",
      "persistentUuid": "5ded33a0-82ed-4dfb-ba7a-d3119b2ccdfb",
      "width": 345,
      "x": 1454,
      "y": 388,
      "zOrder": 7,
      "numberProperties": [],
      "stringProperties": [],
      "initialVariables": []
    },
    {
      "angle": 0,
      "customSize": true,
      "depth": 0,
      "height": 115,
      "layer": "Quest",
      "name": "listening_timePlay",
      "persistentUuid": "460302f0-c070-4717-8f29-e1918c77c9cf",
      "width": 112,
      "x": 1679,
      "y": 42,
      "zOrder": 14,
      "numberProperties": [],
      "stringProperties": [],
      "initialVariables": []
    },
    {
      "angle": 0,
      "customSize": false,
      "height": 0,
      "layer": "",
      "name": "listening_btnMonkey",
      "persistentUuid": "daf0033f-ebdf-4869-9f66-8ea4d77df814",
      "width": 0,
      "x": 128,
      "y": -229,
      "zOrder": 42,
      "numberProperties": [],
      "stringProperties": [],
      "initialVariables": []
    },
    {
      "angle": 0,
      "customSize": false,
      "height": 0,
      "layer": "",
      "name": "listening_btnCat",
      "persistentUuid": "0a70cd75-ef04-46a0-aad6-9dfafa4dc695",
      "width": 0,
      "x": 817,
      "y": -278,
      "zOrder": 45,
      "numberProperties": [],
      "stringProperties": [],
      "initialVariables": []
    },
    {
      "angle": 0,
      "customSize": true,
      "depth": 32,
      "height": 174,
      "layer": "",
      "name": "listening_btnA",
      "persistentUuid": "3bc8c661-126b-420a-a31c-ac557e40e7f1",
      "width": 311,
      "x": 311,
      "y": 327,
      "zOrder": 50,
      "numberProperties": [],
      "stringProperties": [],
      "initialVariables": []
    },
    {
      "angle": 0,
      "customSize": true,
      "depth": 32,
      "height": 174,
      "layer": "",
      "name": "listening_btnB",
      "persistentUuid": "d6271a61-339e-49c9-ac02-3f076a006060",
      "width": 311,
      "x": 845,
      "y": 327,
      "zOrder": 51,
      "numberProperties": [],
      "stringProperties": [],
      "initialVariables": []
    },
    {
      "angle": 0,
      "customSize": true,
      "depth": 32,
      "height": 174,
      "layer": "",
      "name": "listening_btnC",
      "persistentUuid": "36505eb0-0a23-4c32-a287-ba0cb08eb061",
      "width": 311,
      "x": 311,
      "y": 604,
      "zOrder": 52,
      "numberProperties": [],
      "stringProperties": [],
      "initialVariables": []
    },
    {
      "angle": 0,
      "customSize": true,
      "depth": 32,
      "height": 174,
      "layer": "",
      "name": "listening_btnD",
      "persistentUuid": "c930e23c-dfd5-4025-9013-0546b33fef46",
      "width": 311,
      "x": 845,
      "y": 604,
      "zOrder": 53,
      "numberProperties": [],
      "stringProperties": [],
      "initialVariables": []
    },
    {
      "angle": 0,
      "customSize": true,
      "depth": 0,
      "height": 100,
      "layer": "",
      "name": "listening_lightA",
      "persistentUuid": "d8a1a9e3-071f-4bca-b4fd-1ae8d258ef0c",
      "width": 100,
      "x": 420,
      "y": 221,
      "zOrder": 54,
      "numberProperties": [],
      "stringProperties": [],
      "initialVariables": []
    },
    {
      "angle": 0,
      "customSize": true,
      "depth": 0,
      "height": 100,
      "layer": "",
      "name": "listening_lightB",
      "persistentUuid": "21ae63e0-3b73-42a1-96cc-8c08b18ac407",
      "width": 100,
      "x": 947,
      "y": 221,
      "zOrder": 55,
      "numberProperties": [],
      "stringProperties": [],
      "initialVariables": []
    },
    {
      "angle": 0,
      "customSize": true,
      "depth": 0,
      "height": 100,
      "layer": "",
      "name": "listening_lightC",
      "persistentUuid": "63d9c346-cc88-416a-a56a-e2af3e4dfe27",
      "width": 100,
      "x": 420,
      "y": 504,
      "zOrder": 56,
      "numberProperties": [
        {
          "name": "animation",
          "value": 0
        }
      ],
      "stringProperties": [],
      "initialVariables": []
    },
    {
      "angle": 0,
      "customSize": true,
      "depth": 0,
      "height": 100,
      "layer": "",
      "name": "listening_lightD",
      "persistentUuid": "e2f23c53-f55c-449c-b696-91b6bf5a5a8f",
      "width": 100,
      "x": 947,
      "y": 504,
      "zOrder": 57,
      "numberProperties": [],
      "stringProperties": [],
      "initialVariables": []
    }
  ],
  "objects": [
    {
      "adaptCollisionMaskAutomatically": true,
      "assetStoreId": "",
      "name": "listening_background",
      "type": "Sprite",
      "updateIfNotVisible": false,
      "variables": [],
      "effects": [],
      "behaviors": [],
      "animations": [
        {
          "name": "",
          "useMultipleDirections": false,
          "directions": [
            {
              "looping": false,
              "timeBetweenFrames": 0.08,
              "sprites": [
                {
                  "hasCustomCollisionMask": true,
                  "image": "Background.png",
                  "points": [],
                  "originPoint": {
                    "name": "origine",
                    "x": 0,
                    "y": 0
                  },
                  "centerPoint": {
                    "automatic": true,
                    "name": "centre",
                    "x": 0,
                    "y": 0
                  },
                  "customCollisionMask": [
                    [
                      {
                        "x": 1,
                        "y": 0
                      },
                      {
                        "x": 11056,
                        "y": 0
                      },
                      {
                        "x": 11056,
                        "y": 7897
                      },
                      {
                        "x": 1,
                        "y": 7897
                      }
                    ]
                  ]
                }
              ]
            }
          ]
        }
      ]
    },
    {
      "assetStoreId": "b44dba91245ff1ac84a7b450e078194f19321d135fd8a67cd19bc9cb3403fba5",
      "name": "listening_speakerQuest",
      "type": "PanelSpriteButton::PanelSpriteButton",
      "variables": [],
      "effects": [],
      "behaviors": [],
      "content": {
        "LeftPadding": 11,
        "RightPadding": 16,
        "PressedLabelOffsetY": 10,
        "BottomPadding": 32,
        "TopPadding": 16,
        "HoveredFadeOutDuration": 0.25
      },
      "childrenContent": {
        "Hovered": {
          "bottomMargin": 32,
          "height": 50,
          "leftMargin": 16,
          "rightMargin": 16,
          "texture": "buttonlistening2@3x.png",
          "tiled": true,
          "topMargin": 16,
          "width": 200
        },
        "Idle": {
          "bottomMargin": 32,
          "height": 50,
          "leftMargin": 16,
          "rightMargin": 16,
          "texture": "buttonlistening1@3x.png",
          "tiled": true,
          "topMargin": 16,
          "width": 200
        },
        "Label": {
          "bold": false,
          "italic": false,
          "smoothed": true,
          "underlined": false,
          "string": "",
          "font": "",
          "textAlignment": "center",
          "characterSize": 58,
          "color": {
            "b": 29,
            "g": 99,
            "r": 62
          }
        },
        "Pressed": {
          "bottomMargin": 16,
          "height": 50,
          "leftMargin": 16,
          "rightMargin": 16,
          "texture": "buttonlistening3@3x.png",
          "tiled": true,
          "topMargin": 32,
          "width": 200
        }
      }
    },
    {
      "adaptCollisionMaskAutomatically": true,
      "assetStoreId": "",
      "name": "listening_cloud1",
      "type": "Sprite",
      "updateIfNotVisible": false,
      "variables": [],
      "effects": [],
      "behaviors": [],
      "animations": [
        {
          "name": "",
          "useMultipleDirections": false,
          "directions": [
            {
              "looping": false,
              "timeBetweenFrames": 0.08,
              "sprites": [
                {
                  "hasCustomCollisionMask": true,
                  "image": "cloud1@3x.png",
                  "points": [],
                  "originPoint": {
                    "name": "origine",
                    "x": 0,
                    "y": 0
                  },
                  "centerPoint": {
                    "automatic": true,
                    "name": "centre",
                    "x": 0,
                    "y": 0
                  },
                  "customCollisionMask": [
                    [
                      {
                        "x": 0,
                        "y": 0
                      },
                      {
                        "x": 1737,
                        "y": 0
                      },
                      {
                        "x": 1737,
                        "y": 878
                      },
                      {
                        "x": 0,
                        "y": 878
                      }
                    ]
                  ]
                }
              ]
            }
          ]
        }
      ]
    },
    {
      "adaptCollisionMaskAutomatically": true,
      "assetStoreId": "",
      "name": "listening_cloud2",
      "type": "Sprite",
      "updateIfNotVisible": false,
      "variables": [],
      "effects": [],
      "behaviors": [],
      "animations": [
        {
          "name": "",
          "useMultipleDirections": false,
          "directions": [
            {
              "looping": false,
              "timeBetweenFrames": 0.08,
              "sprites": [
                {
                  "hasCustomCollisionMask": true,
                  "image": "cloud2@3x.png",
                  "points": [],
                  "originPoint": {
                    "name": "origine",
                    "x": 0,
                    "y": 0
                  },
                  "centerPoint": {
                    "automatic": true,
                    "name": "centre",
                    "x": 0,
                    "y": 0
                  },
                  "customCollisionMask": [
                    [
                      {
                        "x": 0,
                        "y": 0
                      },
                      {
                        "x": 2118,
                        "y": 0
                      },
                      {
                        "x": 2118,
                        "y": 1266
                      },
                      {
                        "x": 0,
                        "y": 1266
                      }
                    ]
                  ]
                }
              ]
            }
          ]
        }
      ]
    },
    {
      "adaptCollisionMaskAutomatically": true,
      "assetStoreId": "",
      "name": "listening_board",
      "type": "Sprite",
      "updateIfNotVisible": false,
      "variables": [],
      "effects": [],
      "behaviors": [],
      "animations": [
        {
          "name": "",
          "useMultipleDirections": false,
          "directions": [
            {
              "looping": false,
              "timeBetweenFrames": 0.08,
              "sprites": [
                {
                  "hasCustomCollisionMask": true,
                  "image": "board.png",
                  "points": [],
                  "originPoint": {
                    "name": "origine",
                    "x": 0,
                    "y": 0
                  },
                  "centerPoint": {
                    "automatic": true,
                    "name": "centre",
                    "x": 0,
                    "y": 0
                  },
                  "customCollisionMask": [
                    [
                      {
                        "x": 0,
                        "y": 0
                      },
                      {
                        "x": 2780,
                        "y": 0
                      },
                      {
                        "x": 2780,
                        "y": 2046
                      },
                      {
                        "x": 0,
                        "y": 2046
                      }
                    ]
                  ]
                }
              ]
            }
          ]
        }
      ]
    },
    {
      "assetStoreId": "",
      "bold": true,
      "italic": false,
      "name": "listening_timePlay",
      "smoothed": true,
      "type": "TextObject::Text",
      "underlined": false,
      "variables": [],
      "effects": [],
      "behaviors": [],
      "string": "30",
      "font": "",
      "textAlignment": "left",
      "characterSize": 100,
      "color": {
        "b": 255,
        "g": 255,
        "r": 255
      }
    }
  ],
  "objectsFolderStructure": {
    "folderName": "__ROOT",
    "children": [
      {
        "objectName": "listening_background"
      },
      {
        "objectName": "listening_speakerQuest"
      },
      {
        "objectName": "listening_cloud1"
      },
      {
        "objectName": "listening_cloud2"
      },
      {
        "objectName": "listening_board"
      },
      {
        "objectName": "listening_timePlay"
      }
    ]
  },
  "events": [
    {
      "type": "BuiltinCommonInstructions::Link",
      "include": {
        "includeConfig": 0
      },
      "target": "audio_button"
    },
    {
      "type": "BuiltinCommonInstructions::Standard",
      "conditions": [
        {
          "type": {
            "value": "DepartScene"
          },
          "parameters": [
            ""
          ]
        }
      ],
      "actions": [
        {
          "type": {
            "value": "BuiltinExternalLayouts::CreateObjectsFromExternalLayout"
          },
          "parameters": [
            "",
            "\"Listening\"",
            "0",
            "0",
            "0"
          ]
        },
        {
          "type": {
            "value": "PlayMusic"
          },
          "parameters": [
            "",
            "lv3_musicbg.mp3",
            "yes",
            "10",
            ""
          ]
        },
        {
          "type": {
            "value": "ResetTimer"
          },
          "parameters": [
            "",
            "\"timePlay\""
          ]
        },
        {
          "type": {
            "value": "ResizableCapability::ResizableBehavior::SetSize"
          },
          "parameters": [
            "listening_btn",
            "Resizable",
            "311",
            "174"
          ]
        },
        {
          "type": {
            "value": "ResizableCapability::ResizableBehavior::SetSize"
          },
          "parameters": [
            "listening_light",
            "Resizable",
            "100",
            "100"
          ]
        }
      ]
    },
    {
      "type": "BuiltinCommonInstructions::Standard",
      "conditions": [
        {
          "type": {
            "value": "CompareTimer"
          },
          "parameters": [
            "",
            "\"timePlay\"",
            ">=",
            "1"
          ]
        }
      ],
      "actions": [
        {
          "type": {
            "value": "ModVarScene"
          },
          "parameters": [
            "timePlayListen",
            "-",
            "1"
          ]
        },
        {
          "type": {
            "value": "TextContainerCapability::TextContainerBehavior::SetValue"
          },
          "parameters": [
            "listening_timePlay",
            "Text",
            "=",
            "ToString(Variable(timePlayListen))"
          ]
        },
        {
          "type": {
            "value": "ResetTimer"
          },
          "parameters": [
            "",
            "\"timePlay\""
          ]
        }
      ]
    },
    {
      "type": "BuiltinCommonInstructions::Standard",
      "conditions": [
        {
          "type": {
            "value": "PanelSpriteButton::PanelSpriteButton::IsClicked"
          },
          "parameters": [
            "listening_speakerQuest",
            ""
          ]
        }
      ],
      "actions": [
        {
          "type": {
            "value": "PlayMusic"
          },
          "parameters": [
            "",
            "quest.mp3",
            "",
            "50",
            "0.8"
          ]
        }
      ]
    },
    {
      "type": "BuiltinCommonInstructions::Standard",
      "conditions": [
        {
          "type": {
            "value": "SourisSurObjet"
          },
          "parameters": [
            "listening_btn",
            "",
            "",
            ""
          ]
        },
        {
          "type": {
            "value": "MouseButtonPressed"
          },
          "parameters": [
            "",
            "Left"
          ]
        },
        {
          "type": {
            "value": "BuiltinCommonInstructions::Once"
          },
          "parameters": []
        }
      ],
      "actions": [
        {
          "type": {
            "value": "ModVarScene"
          },
          "parameters": [
            "timePlayListen",
            "-",
            "5"
          ]
        }
      ]
    },
    {
      "type": "BuiltinCommonInstructions::Standard",
      "conditions": [
        {
          "type": {
            "value": "PanelSpriteButton::PanelSpriteButton::IsClicked"
          },
          "parameters": [
            "listening_btnD",
            ""
          ]
        },
        {
          "type": {
            "value": "VarScene"
          },
          "parameters": [
            "timePlayListen",
            ">",
            "0"
          ]
        }
      ],
      "actions": [
        {
          "type": {
            "value": "ModVarScene"
          },
          "parameters": [
            "timePlayListen",
            "+",
            "5"
          ]
        },
        {
          "type": {
            "value": "AnimatableCapability::AnimatableBehavior::SetName"
          },
          "parameters": [
            "listening_lightD",
            "Animation",
            "=",
            "\"on\""
          ]
        },
        {
          "type": {
            "value": "ModVarScene"
          },
          "parameters": [
            "pass",
            "+",
            "1"
          ]
        },
        {
          "type": {
            "value": "PanelSpriteButton::PanelSpriteButton::Activate"
          },
          "parameters": [
            "listening_btnD",
            "",
            ""
          ]
        },
        {
          "type": {
            "value": "PauseTimer"
          },
          "parameters": [
            "",
            "\"timePlay\""
          ]
        },
        {
          "type": {
            "value": "Wait"
          },
          "parameters": [
            "1"
          ]
        },
        {
          "type": {
            "value": "Scene"
          },
          "parameters": [
            "",
            "\"test\"",
            ""
          ]
        }
      ]
    },
    {
      "type": "BuiltinCommonInstructions::Standard",
      "conditions": [
        {
          "type": {
            "value": "VarScene"
          },
          "parameters": [
            "timePlayListen",
            "<=",
            "0"
          ]
        }
      ],
      "actions": [
        {
          "type": {
            "value": "PauseTimer"
          },
          "parameters": [
            "",
            "\"timePlay\""
          ]
        },
        {
          "type": {
            "value": "Scene"
          },
          "parameters": [
            "",
            "\"test\"",
            ""
          ]
        }
      ]
    },
    {
      "type": "BuiltinCommonInstructions::Standard",
      "conditions": [],
      "actions": []
    }
  ],
  "layers": [
    {
      "ambientLightColorB": 200,
      "ambientLightColorG": 200,
      "ambientLightColorR": 200,
      "camera3DFarPlaneDistance": 10000,
      "camera3DFieldOfView": 45,
      "camera3DNearPlaneDistance": 3,
      "followBaseLayerCamera": false,
      "isLightingLayer": false,
      "isLocked": false,
      "name": "Background",
      "renderingType": "",
      "visibility": true,
      "cameras": [],
      "effects": [
        {
          "effectType": "Scene3D::HemisphereLight",
          "name": "3D Light",
          "doubleParameters": {
            "elevation": 45,
            "intensity": 1,
            "rotation": 0
          },
          "stringParameters": {
            "groundColor": "64;64;64",
            "skyColor": "255;255;255",
            "top": "Y-"
          },
          "booleanParameters": {}
        }
      ]
    },
    {
      "ambientLightColorB": 200,
      "ambientLightColorG": 200,
      "ambientLightColorR": 200,
      "camera3DFarPlaneDistance": 10000,
      "camera3DFieldOfView": 45,
      "camera3DNearPlaneDistance": 3,
      "followBaseLayerCamera": false,
      "isLightingLayer": false,
      "isLocked": false,
      "name": "",
      "renderingType": "",
      "visibility": true,
      "cameras": [
        {
          "defaultSize": true,
          "defaultViewport": true,
          "height": 0,
          "viewportBottom": 1,
          "viewportLeft": 0,
          "viewportRight": 1,
          "viewportTop": 0,
          "width": 0
        }
      ],
      "effects": [
        {
          "effectType": "Scene3D::HemisphereLight",
          "name": "3D Light",
          "doubleParameters": {
            "elevation": 45,
            "intensity": 1,
            "rotation": 0
          },
          "stringParameters": {
            "groundColor": "64;64;64",
            "skyColor": "255;255;255",
            "top": "Y-"
          },
          "booleanParameters": {}
        }
      ]
    },
    {
      "ambientLightColorB": 200,
      "ambientLightColorG": 200,
      "ambientLightColorR": 200,
      "camera3DFarPlaneDistance": 10000,
      "camera3DFieldOfView": 45,
      "camera3DNearPlaneDistance": 3,
      "followBaseLayerCamera": false,
      "isLightingLayer": false,
      "isLocked": false,
      "name": "Quest",
      "renderingType": "",
      "visibility": true,
      "cameras": [],
      "effects": [
        {
          "effectType": "Scene3D::HemisphereLight",
          "name": "3D Light",
          "doubleParameters": {
            "elevation": 45,
            "intensity": 1,
            "rotation": 0
          },
          "stringParameters": {
            "groundColor": "64;64;64",
            "skyColor": "255;255;255",
            "top": "Y-"
          },
          "booleanParameters": {}
        }
      ]
    }
  ],
  "behaviorsSharedData": [
    {
      "name": "Animation",
      "type": "AnimatableCapability::AnimatableBehavior"
    },
    {
      "name": "Effect",
      "type": "EffectCapability::EffectBehavior"
    },
    {
      "name": "Flippable",
      "type": "FlippableCapability::FlippableBehavior"
    },
    {
      "name": "Opacity",
      "type": "OpacityCapability::OpacityBehavior"
    },
    {
      "name": "RectangleMovement",
      "type": "RectangleMovement::RectangleMovement"
    },
    {
      "name": "Resizable",
      "type": "ResizableCapability::ResizableBehavior"
    },
    {
      "name": "Scale",
      "type": "ScalableCapability::ScalableBehavior"
    },
    {
      "name": "ShakeObject_PositionAngle",
      "type": "ShakeObject::ShakeObject_PositionAngle"
    },
    {
      "name": "ShakeObject_PositionAngleScale",
      "type": "ShakeObject::ShakeObject_PositionAngleScale"
    },
    {
      "name": "Text",
      "type": "TextContainerCapability::TextContainerBehavior"
    },
    {
      "name": "Tween",
      "type": "Tween::TweenBehavior"
    }
  ]
}