{
  "b": 209,
  "disableInputWhenNotFocused": true,
  "mangledName": "picture_95lv2_95p3",
  "name": "picture_lv2_p3",
  "r": 209,
  "standardSortMethod": true,
  "stopSoundsOnStartup": true,
  "title": "",
  "v": 209,
  "uiSettings": {
    "grid": false,
    "gridType": "rectangular",
    "gridWidth": 32,
    "gridHeight": 32,
    "gridOffsetX": 0,
    "gridOffsetY": 0,
    "gridColor": 10401023,
    "gridAlpha": 0.8,
    "snap": false,
    "zoomFactor": 0.36458333333333337,
    "windowMask": false
  },
  "objectsGroups": [],
  "variables": [
    {
      "folded": true,
      "name": "pass",
      "type": "number",
      "value": 0
    },
    {
      "folded": true,
      "name": "timePlayPicture",
      "type": "number",
      "value": 20
    }
  ],
  "instances": [
    {
      "angle": 0,
      "customSize": true,
      "depth": 1,
      "height": 111,
      "layer": "",
      "name": "picture_rhinoPic",
      "persistentUuid": "2b87303e-3fb8-4145-9ca7-793ecce68076",
      "width": 121,
      "x": 705,
      "y": 218,
      "zOrder": 35,
      "numberProperties": [],
      "stringProperties": [],
      "initialVariables": []
    },
    {
      "angle": 0,
      "customSize": true,
      "depth": 1,
      "height": 133,
      "layer": "",
      "name": "picture_tigerPic",
      "persistentUuid": "858d5812-c85a-45ff-a209-17fd1b125ac7",
      "width": 107,
      "x": 920,
      "y": 343,
      "zOrder": 36,
      "numberProperties": [],
      "stringProperties": [],
      "initialVariables": []
    },
    {
      "angle": 0,
      "customSize": true,
      "depth": 1,
      "height": 163,
      "layer": "",
      "name": "picture_catPic",
      "persistentUuid": "02bb16cb-d74c-41d3-9959-13ceab07fd3c",
      "width": 123,
      "x": 970,
      "y": 552,
      "zOrder": 37,
      "numberProperties": [],
      "stringProperties": [],
      "initialVariables": []
    },
    {
      "angle": 0,
      "customSize": true,
      "depth": 1,
      "height": 113,
      "layer": "",
      "name": "picture_turtlePic",
      "persistentUuid": "56d77f4c-0797-459d-8e77-acaf74140b2b",
      "width": 137,
      "x": 764,
      "y": 776,
      "zOrder": 38,
      "numberProperties": [],
      "stringProperties": [],
      "initialVariables": []
    },
    {
      "angle": 0,
      "customSize": true,
      "depth": 1,
      "height": 151,
      "layer": "",
      "name": "picture_monkeyPic",
      "persistentUuid": "1c83e11d-bc6c-4852-bfb3-3d323449e5c3",
      "width": 141,
      "x": 448,
      "y": 687,
      "zOrder": 39,
      "numberProperties": [],
      "stringProperties": [],
      "initialVariables": []
    },
    {
      "angle": 0,
      "customSize": true,
      "depth": 1,
      "height": 142,
      "layer": "",
      "name": "picture_foxPic",
      "persistentUuid": "f96b3e05-468d-4833-a874-bd3096528457",
      "width": 133,
      "x": 361,
      "y": 448,
      "zOrder": 40,
      "numberProperties": [],
      "stringProperties": [],
      "initialVariables": []
    },
    {
      "angle": 0,
      "customSize": true,
      "depth": 1,
      "height": 148,
      "layer": "",
      "name": "picture_duckPic",
      "persistentUuid": "27d4838d-b7c2-48a5-9303-2f25eccd4528",
      "width": 118,
      "x": 668,
      "y": 461,
      "zOrder": 41,
      "numberProperties": [],
      "stringProperties": [],
      "initialVariables": []
    },
    {
      "angle": 0,
      "customSize": true,
      "depth": 1,
      "height": 99,
      "layer": "",
      "name": "picture_fishPic",
      "persistentUuid": "96dc3b64-ae4b-4c72-b49b-4a58717eac66",
      "width": 139,
      "x": 461,
      "y": 292,
      "zOrder": 42,
      "numberProperties": [],
      "stringProperties": [],
      "initialVariables": []
    },
    {
      "angle": 0,
      "customSize": false,
      "height": 0,
      "layer": "",
      "name": "picture_duckText",
      "persistentUuid": "4855d261-2fa2-4cc2-a723-e4a0a2ae1b1a",
      "width": 0,
      "x": 1334,
      "y": 418,
      "zOrder": 43,
      "numberProperties": [],
      "stringProperties": [],
      "initialVariables": []
    },
    {
      "angle": 0,
      "customSize": false,
      "height": 0,
      "layer": "",
      "name": "picture_rhinoText",
      "persistentUuid": "a179919e-3547-4ae9-9869-7b4f646a148b",
      "width": 0,
      "x": 1337,
      "y": 668,
      "zOrder": 44,
      "numberProperties": [],
      "stringProperties": [],
      "initialVariables": []
    },
    {
      "angle": 0,
      "customSize": false,
      "height": 0,
      "layer": "",
      "name": "picture_catText",
      "persistentUuid": "2e847029-3238-4e61-9d1f-b978325eded8",
      "width": 0,
      "x": 1337,
      "y": 566,
      "zOrder": 45,
      "numberProperties": [],
      "stringProperties": [],
      "initialVariables": []
    },
    {
      "angle": 0,
      "customSize": false,
      "height": 0,
      "layer": "",
      "name": "picture_turtleText",
      "persistentUuid": "b3060232-f2e4-4037-a394-76f5e6e806ad",
      "width": 0,
      "x": 1337,
      "y": 489,
      "zOrder": 46,
      "numberProperties": [],
      "stringProperties": [],
      "initialVariables": []
    },
    {
      "angle": 0,
      "customSize": false,
      "height": 0,
      "layer": "",
      "name": "picture_timePlay",
      "persistentUuid": "b5b7c18d-aed9-485f-9d4f-885ebe297986",
      "width": 0,
      "x": 1679,
      "y": 42,
      "zOrder": 47,
      "numberProperties": [],
      "stringProperties": [],
      "initialVariables": []
    }
  ],
  "objects": [],
  "objectsFolderStructure": {
    "folderName": "__ROOT"
  },
  "events": [
    {
      "type": "BuiltinCommonInstructions::Standard",
      "conditions": [
        {
          "type": {
            "value": "DepartScene"
          },
          "parameters": [
            ""
          ]
        }
      ],
      "actions": [
        {
          "type": {
            "value": "BuiltinExternalLayouts::CreateObjectsFromExternalLayout"
          },
          "parameters": [
            "",
            "\"Picture\"",
            "0",
            "0",
            "0"
          ]
        },
        {
          "type": {
            "value": "OpacityCapability::OpacityBehavior::SetValue"
          },
          "parameters": [
            "picture_animalPic",
            "Opacity",
            "=",
            "0"
          ]
        },
        {
          "type": {
            "value": "PlayMusic"
          },
          "parameters": [
            "",
            "lv2_bgmusic.mp3",
            "yes",
            "15",
            ""
          ]
        },
        {
          "type": {
            "value": "ResetTimer"
          },
          "parameters": [
            "",
            "\"timePlay\""
          ]
        }
      ],
      "events": [
        {
          "type": "BuiltinCommonInstructions::Standard",
          "conditions": [],
          "actions": [
            {
              "type": {
                "value": "Tween::TweenBehavior::AddObjectOpacityTween2"
              },
              "parameters": [
                "picture_animalPic",
                "Tween",
                "\"Opacity\"",
                "255",
                "\"easeInCubic\"",
                "1",
                ""
              ]
            }
          ]
        }
      ]
    },
    {
      "type": "BuiltinCommonInstructions::Standard",
      "conditions": [
        {
          "type": {
            "value": "CompareTimer"
          },
          "parameters": [
            "",
            "\"timePlay\"",
            ">=",
            "1"
          ]
        }
      ],
      "actions": [
        {
          "type": {
            "value": "ModVarScene"
          },
          "parameters": [
            "timePlayPicture",
            "-",
            "1"
          ]
        },
        {
          "type": {
            "value": "TextContainerCapability::TextContainerBehavior::SetValue"
          },
          "parameters": [
            "picture_timePlay",
            "Text",
            "=",
            "ToString(Variable(timePlayPicture))"
          ]
        },
        {
          "type": {
            "value": "ResetTimer"
          },
          "parameters": [
            "",
            "\"timePlay\""
          ]
        }
      ]
    },
    {
      "type": "BuiltinCommonInstructions::Standard",
      "conditions": [
        {
          "type": {
            "value": "BuiltinCommonInstructions::Or"
          },
          "parameters": [],
          "subInstructions": [
            {
              "type": {
                "inverted": true,
                "value": "SourisSurObjet"
              },
              "parameters": [
                "picture_rhinoPic",
                "",
                "",
                ""
              ]
            },
            {
              "type": {
                "inverted": true,
                "value": "SourisSurObjet"
              },
              "parameters": [
                "picture_catPic",
                "",
                "",
                ""
              ]
            },
            {
              "type": {
                "inverted": true,
                "value": "SourisSurObjet"
              },
              "parameters": [
                "picture_turtlePic",
                "",
                "",
                ""
              ]
            },
            {
              "type": {
                "inverted": true,
                "value": "SourisSurObjet"
              },
              "parameters": [
                "picture_duckPic",
                "",
                "",
                ""
              ]
            }
          ]
        }
      ],
      "actions": [],
      "events": [
        {
          "type": "BuiltinCommonInstructions::Standard",
          "conditions": [
            {
              "type": {
                "value": "MouseButtonReleased"
              },
              "parameters": [
                "",
                "Left"
              ]
            },
            {
              "type": {
                "value": "SourisSurObjet"
              },
              "parameters": [
                "picture_animalPic",
                "",
                "",
                ""
              ]
            }
          ],
          "actions": [
            {
              "type": {
                "value": "ShakeObject::ShakeObject_PositionAngleScale::ShakeObject_PositionAngleScale"
              },
              "parameters": [
                "picture_animalPic",
                "ShakeObject_PositionAngleScale",
                "0.5",
                "50",
                "50",
                "0",
                "5",
                "0.08",
                "",
                ""
              ]
            },
            {
              "type": {
                "value": "ModVarScene"
              },
              "parameters": [
                "timePlayPicture",
                "-",
                "5"
              ]
            },
            {
              "type": {
                "value": "PlaySound"
              },
              "parameters": [
                "",
                "asset audio\\wrong_choice.mp3",
                "",
                "50",
                ""
              ]
            },
            {
              "type": {
                "value": "Create"
              },
              "parameters": [
                "",
                "subtractTime",
                "1679",
                "190",
                ""
              ]
            },
            {
              "type": {
                "value": "Wait"
              },
              "parameters": [
                "0.3"
              ]
            },
            {
              "type": {
                "value": "Delete"
              },
              "parameters": [
                "subtractTime",
                ""
              ]
            }
          ]
        }
      ]
    },
    {
      "type": "BuiltinCommonInstructions::Standard",
      "conditions": [
        {
          "type": {
            "value": "SourisSurObjet"
          },
          "parameters": [
            "picture_rhinoPic",
            "",
            "",
            ""
          ]
        },
        {
          "type": {
            "value": "MouseButtonReleased"
          },
          "parameters": [
            "",
            "Left"
          ]
        }
      ],
      "actions": [
        {
          "type": {
            "value": "PlaySound"
          },
          "parameters": [
            "",
            "asset audio\\correct audio.mp3",
            "",
            "50",
            "1.5"
          ]
        },
        {
          "type": {
            "value": "ShakeObject::ShakeObject_PositionAngleScale::StopShaking"
          },
          "parameters": [
            "picture_rhinoPic",
            "ShakeObject_PositionAngleScale",
            ""
          ]
        },
        {
          "type": {
            "value": "Tween::TweenBehavior::AddObjectOpacityTween2"
          },
          "parameters": [
            "picture_rhinoPic",
            "Tween",
            "\"Opacity\"",
            "0",
            "\"easeInQuad\"",
            "1",
            ""
          ]
        },
        {
          "type": {
            "value": "Wait"
          },
          "parameters": [
            "1"
          ]
        },
        {
          "type": {
            "value": "Delete"
          },
          "parameters": [
            "picture_rhinoPic",
            ""
          ]
        },
        {
          "type": {
            "value": "Tween::TweenBehavior::AddObjectOpacityTween2"
          },
          "parameters": [
            "picture_rhinoText",
            "Tween",
            "\"Opacity\"",
            "0",
            "\"easeInQuad\"",
            "1",
            ""
          ]
        },
        {
          "type": {
            "value": "ModVarScene"
          },
          "parameters": [
            "pass",
            "+",
            "1"
          ]
        }
      ]
    },
    {
      "type": "BuiltinCommonInstructions::Standard",
      "conditions": [
        {
          "type": {
            "value": "SourisSurObjet"
          },
          "parameters": [
            "picture_catPic",
            "",
            "",
            ""
          ]
        },
        {
          "type": {
            "value": "MouseButtonReleased"
          },
          "parameters": [
            "",
            "Left"
          ]
        }
      ],
      "actions": [
        {
          "type": {
            "value": "PlaySound"
          },
          "parameters": [
            "",
            "asset audio\\correct audio.mp3",
            "",
            "50",
            "1.5"
          ]
        },
        {
          "type": {
            "value": "ShakeObject::ShakeObject_PositionAngleScale::StopShaking"
          },
          "parameters": [
            "picture_catPic",
            "ShakeObject_PositionAngleScale",
            ""
          ]
        },
        {
          "type": {
            "value": "Tween::TweenBehavior::AddObjectOpacityTween2"
          },
          "parameters": [
            "picture_catPic",
            "Tween",
            "\"Opacity\"",
            "0",
            "\"easeInQuad\"",
            "1",
            ""
          ]
        },
        {
          "type": {
            "value": "Wait"
          },
          "parameters": [
            "1"
          ]
        },
        {
          "type": {
            "value": "Delete"
          },
          "parameters": [
            "picture_catPic",
            ""
          ]
        },
        {
          "type": {
            "value": "Tween::TweenBehavior::AddObjectOpacityTween2"
          },
          "parameters": [
            "picture_catText",
            "Tween",
            "\"Opacity\"",
            "0",
            "\"easeInQuad\"",
            "1",
            ""
          ]
        },
        {
          "type": {
            "value": "ModVarScene"
          },
          "parameters": [
            "pass",
            "+",
            "1"
          ]
        }
      ]
    },
    {
      "type": "BuiltinCommonInstructions::Standard",
      "conditions": [
        {
          "type": {
            "value": "SourisSurObjet"
          },
          "parameters": [
            "picture_turtlePic",
            "",
            "",
            ""
          ]
        },
        {
          "type": {
            "value": "MouseButtonReleased"
          },
          "parameters": [
            "",
            "Left"
          ]
        }
      ],
      "actions": [
        {
          "type": {
            "value": "PlaySound"
          },
          "parameters": [
            "",
            "asset audio\\correct audio.mp3",
            "",
            "50",
            "1.5"
          ]
        },
        {
          "type": {
            "value": "ShakeObject::ShakeObject_PositionAngleScale::StopShaking"
          },
          "parameters": [
            "picture_turtlePic",
            "ShakeObject_PositionAngleScale",
            ""
          ]
        },
        {
          "type": {
            "value": "Tween::TweenBehavior::AddObjectOpacityTween2"
          },
          "parameters": [
            "picture_turtlePic",
            "Tween",
            "\"Opacity\"",
            "0",
            "\"easeInQuad\"",
            "1",
            ""
          ]
        },
        {
          "type": {
            "value": "Wait"
          },
          "parameters": [
            "1"
          ]
        },
        {
          "type": {
            "value": "Delete"
          },
          "parameters": [
            "picture_turtlePic",
            ""
          ]
        },
        {
          "type": {
            "value": "Tween::TweenBehavior::AddObjectOpacityTween2"
          },
          "parameters": [
            "picture_turtleText",
            "Tween",
            "\"Opacity\"",
            "0",
            "\"easeInQuad\"",
            "1",
            ""
          ]
        },
        {
          "type": {
            "value": "ModVarScene"
          },
          "parameters": [
            "pass",
            "+",
            "1"
          ]
        }
      ]
    },
    {
      "type": "BuiltinCommonInstructions::Standard",
      "conditions": [
        {
          "type": {
            "value": "SourisSurObjet"
          },
          "parameters": [
            "picture_duckPic",
            "",
            "",
            ""
          ]
        },
        {
          "type": {
            "value": "MouseButtonReleased"
          },
          "parameters": [
            "",
            "Left"
          ]
        }
      ],
      "actions": [
        {
          "type": {
            "value": "PlaySound"
          },
          "parameters": [
            "",
            "asset audio\\correct audio.mp3",
            "",
            "50",
            "1.5"
          ]
        },
        {
          "type": {
            "value": "ShakeObject::ShakeObject_PositionAngleScale::StopShaking"
          },
          "parameters": [
            "picture_duckPic",
            "ShakeObject_PositionAngleScale",
            ""
          ]
        },
        {
          "type": {
            "value": "Tween::TweenBehavior::AddObjectOpacityTween2"
          },
          "parameters": [
            "picture_duckPic",
            "Tween",
            "\"Opacity\"",
            "0",
            "\"easeInQuad\"",
            "1",
            ""
          ]
        },
        {
          "type": {
            "value": "Wait"
          },
          "parameters": [
            "1"
          ]
        },
        {
          "type": {
            "value": "Delete"
          },
          "parameters": [
            "picture_duckPic",
            ""
          ]
        },
        {
          "type": {
            "value": "Tween::TweenBehavior::AddObjectOpacityTween2"
          },
          "parameters": [
            "picture_duckText",
            "Tween",
            "\"Opacity\"",
            "0",
            "\"easeInQuad\"",
            "1",
            ""
          ]
        },
        {
          "type": {
            "value": "ModVarScene"
          },
          "parameters": [
            "pass",
            "+",
            "1"
          ]
        }
      ]
    },
    {
      "type": "BuiltinCommonInstructions::Standard",
      "conditions": [
        {
          "type": {
            "value": "VarScene"
          },
          "parameters": [
            "pass",
            "=",
            "4"
          ]
        },
        {
          "type": {
            "value": "VarScene"
          },
          "parameters": [
            "timePlayPicture",
            ">",
            "0"
          ]
        }
      ],
      "actions": [
        {
          "type": {
            "value": "PauseTimer"
          },
          "parameters": [
            "",
            "\"timePlay\""
          ]
        },
        {
          "type": {
            "value": "Scene"
          },
          "parameters": [
            "",
            "\"test\"",
            ""
          ]
        }
      ]
    },
    {
      "type": "BuiltinCommonInstructions::Standard",
      "conditions": [
        {
          "type": {
            "value": "VarScene"
          },
          "parameters": [
            "timePlayPicture",
            "<=",
            "0"
          ]
        },
        {
          "type": {
            "value": "VarScene"
          },
          "parameters": [
            "pass",
            "<",
            "4"
          ]
        }
      ],
      "actions": [
        {
          "type": {
            "value": "PauseTimer"
          },
          "parameters": [
            "",
            "\"timePlay\""
          ]
        },
        {
          "type": {
            "value": "Scene"
          },
          "parameters": [
            "",
            "\"test\"",
            ""
          ]
        }
      ]
    },
    {
      "type": "BuiltinCommonInstructions::Standard",
      "conditions": [],
      "actions": []
    }
  ],
  "layers": [
    {
      "ambientLightColorB": 200,
      "ambientLightColorG": 200,
      "ambientLightColorR": 200,
      "camera3DFarPlaneDistance": 10000,
      "camera3DFieldOfView": 45,
      "camera3DNearPlaneDistance": 3,
      "followBaseLayerCamera": false,
      "isLightingLayer": false,
      "isLocked": false,
      "name": "Background",
      "renderingType": "",
      "visibility": true,
      "cameras": [],
      "effects": [
        {
          "effectType": "Scene3D::HemisphereLight",
          "name": "3D Light",
          "doubleParameters": {
            "elevation": 45,
            "intensity": 1,
            "rotation": 0
          },
          "stringParameters": {
            "groundColor": "64;64;64",
            "skyColor": "255;255;255",
            "top": "Y-"
          },
          "booleanParameters": {}
        }
      ]
    },
    {
      "ambientLightColorB": 200,
      "ambientLightColorG": 200,
      "ambientLightColorR": 200,
      "camera3DFarPlaneDistance": 10000,
      "camera3DFieldOfView": 45,
      "camera3DNearPlaneDistance": 3,
      "followBaseLayerCamera": false,
      "isLightingLayer": false,
      "isLocked": false,
      "name": "",
      "renderingType": "",
      "visibility": true,
      "cameras": [
        {
          "defaultSize": true,
          "defaultViewport": true,
          "height": 0,
          "viewportBottom": 1,
          "viewportLeft": 0,
          "viewportRight": 1,
          "viewportTop": 0,
          "width": 0
        }
      ],
      "effects": [
        {
          "effectType": "Scene3D::HemisphereLight",
          "name": "3D Light",
          "doubleParameters": {
            "elevation": 45,
            "intensity": 1,
            "rotation": 0
          },
          "stringParameters": {
            "groundColor": "64;64;64",
            "skyColor": "255;255;255",
            "top": "Y-"
          },
          "booleanParameters": {}
        }
      ]
    }
  ],
  "behaviorsSharedData": [
    {
      "name": "Animation",
      "type": "AnimatableCapability::AnimatableBehavior"
    },
    {
      "name": "Effect",
      "type": "EffectCapability::EffectBehavior"
    },
    {
      "name": "Flippable",
      "type": "FlippableCapability::FlippableBehavior"
    },
    {
      "name": "Opacity",
      "type": "OpacityCapability::OpacityBehavior"
    },
    {
      "name": "RectangleMovement",
      "type": "RectangleMovement::RectangleMovement"
    },
    {
      "name": "Resizable",
      "type": "ResizableCapability::ResizableBehavior"
    },
    {
      "name": "Scale",
      "type": "ScalableCapability::ScalableBehavior"
    },
    {
      "name": "ShakeObject_PositionAngle",
      "type": "ShakeObject::ShakeObject_PositionAngle"
    },
    {
      "name": "ShakeObject_PositionAngleScale",
      "type": "ShakeObject::ShakeObject_PositionAngleScale"
    },
    {
      "name": "Text",
      "type": "TextContainerCapability::TextContainerBehavior"
    },
    {
      "name": "Tween",
      "type": "Tween::TweenBehavior"
    }
  ]
}