{
  "b": 209,
  "disableInputWhenNotFocused": true,
  "mangledName": "picture_95lv2_95p2",
  "name": "picture_lv2_p2",
  "r": 209,
  "standardSortMethod": true,
  "stopSoundsOnStartup": true,
  "title": "",
  "v": 209,
  "uiSettings": {
    "grid": false,
    "gridType": "rectangular",
    "gridWidth": 32,
    "gridHeight": 32,
    "gridOffsetX": 0,
    "gridOffsetY": 0,
    "gridColor": 10401023,
    "gridAlpha": 0.8,
    "snap": false,
    "zoomFactor": 0.37687720367508715,
    "windowMask": false
  },
  "objectsGroups": [],
  "variables": [
    {
      "folded": true,
      "name": "pass",
      "type": "number",
      "value": 0
    },
    {
      "folded": true,
      "name": "timePlayPicture",
      "type": "number",
      "value": 20
    }
  ],
  "instances": [
    {
      "angle": 0,
      "customSize": true,
      "depth": 2,
      "height": 119,
      "layer": "",
      "name": "picture_frogPic",
      "persistentUuid": "cc4c7a6d-04a3-46a6-956d-6f7cb0f49434",
      "width": 159,
      "x": 317,
      "y": 451,
      "zOrder": 23,
      "numberProperties": [],
      "stringProperties": [],
      "initialVariables": []
    },
    {
      "angle": 0,
      "customSize": true,
      "depth": 1,
      "height": 116,
      "layer": "",
      "name": "picture_owlPic",
      "persistentUuid": "3a08dab9-63c7-4115-804c-32892d0d904e",
      "width": 79,
      "x": 526,
      "y": 248,
      "zOrder": 24,
      "numberProperties": [],
      "stringProperties": [],
      "initialVariables": []
    },
    {
      "angle": 0,
      "customSize": true,
      "depth": 1,
      "height": 113,
      "layer": "",
      "name": "picture_rhinoPic",
      "persistentUuid": "7d18d40f-1eae-4993-9bb5-467acae51e79",
      "width": 123,
      "x": 793,
      "y": 260,
      "zOrder": 25,
      "numberProperties": [],
      "stringProperties": [],
      "initialVariables": []
    },
    {
      "angle": 0,
      "customSize": true,
      "depth": 1,
      "height": 126,
      "layer": "",
      "name": "picture_batPic",
      "persistentUuid": "323ad849-682b-42ba-8169-2fb120de4c8e",
      "width": 152,
      "x": 938,
      "y": 444,
      "zOrder": 26,
      "numberProperties": [],
      "stringProperties": [],
      "initialVariables": []
    },
    {
      "angle": 0,
      "customSize": true,
      "depth": 1,
      "height": 134,
      "layer": "",
      "name": "picture_dogPic",
      "persistentUuid": "b3a8e7be-fc6c-4815-9d0e-553f3b4c55e3",
      "width": 164,
      "x": 454,
      "y": 727,
      "zOrder": 27,
      "numberProperties": [],
      "stringProperties": [],
      "initialVariables": []
    },
    {
      "angle": 0,
      "customSize": true,
      "depth": 1,
      "height": 126,
      "layer": "",
      "name": "picture_sheepPic",
      "persistentUuid": "c0bb8a20-8466-43fb-86fb-be8c41e3db94",
      "width": 89,
      "x": 808,
      "y": 798,
      "zOrder": 28,
      "numberProperties": [],
      "stringProperties": [],
      "initialVariables": []
    },
    {
      "angle": 65,
      "customSize": false,
      "height": 0,
      "layer": "",
      "name": "picture_snakePic",
      "persistentUuid": "55dd2bf0-a6b9-4fc3-9875-69d6b5c7a536",
      "width": 0,
      "x": 978,
      "y": 661,
      "zOrder": 29,
      "numberProperties": [],
      "stringProperties": [],
      "initialVariables": []
    },
    {
      "angle": 0,
      "customSize": true,
      "depth": 1,
      "height": 179,
      "layer": "",
      "name": "picture_parrotPic",
      "persistentUuid": "8949b11e-4020-4839-9ded-f7d178ea9bff",
      "width": 99,
      "x": 688,
      "y": 498,
      "zOrder": 30,
      "numberProperties": [],
      "stringProperties": [],
      "initialVariables": []
    },
    {
      "angle": 0,
      "customSize": false,
      "height": 0,
      "layer": "",
      "name": "picture_snakeText",
      "persistentUuid": "b41af51c-1a06-442b-bf5c-839361445f11",
      "width": 0,
      "x": 1337,
      "y": 618,
      "zOrder": 31,
      "numberProperties": [],
      "stringProperties": [],
      "initialVariables": []
    },
    {
      "angle": 0,
      "customSize": false,
      "height": 0,
      "layer": "",
      "name": "picture_sheepText",
      "persistentUuid": "ee632891-a197-4927-b44b-47f007b50823",
      "width": 0,
      "x": 1337,
      "y": 525,
      "zOrder": 32,
      "numberProperties": [],
      "stringProperties": [],
      "initialVariables": []
    },
    {
      "angle": 0,
      "customSize": false,
      "height": 0,
      "layer": "",
      "name": "picture_owlText",
      "persistentUuid": "8a3d073e-d658-4535-b111-b29707ac1832",
      "width": 0,
      "x": 1334,
      "y": 432,
      "zOrder": 33,
      "numberProperties": [],
      "stringProperties": [],
      "initialVariables": []
    },
    {
      "angle": 0,
      "customSize": false,
      "height": 0,
      "layer": "",
      "name": "picture_parrotText",
      "persistentUuid": "7dbd55f1-dd43-47e9-8682-fdfbf4d005dc",
      "width": 0,
      "x": 1343,
      "y": 714,
      "zOrder": 34,
      "numberProperties": [],
      "stringProperties": [],
      "initialVariables": []
    },
    {
      "angle": 0,
      "customSize": false,
      "height": 0,
      "layer": "",
      "name": "picture_timePlay",
      "persistentUuid": "dbb4a373-04bf-4634-b4f8-3f9ad5d581f7",
      "width": 0,
      "x": 1679,
      "y": 42,
      "zOrder": 35,
      "numberProperties": [],
      "stringProperties": [],
      "initialVariables": []
    }
  ],
  "objects": [],
  "objectsFolderStructure": {
    "folderName": "__ROOT"
  },
  "events": [
    {
      "type": "BuiltinCommonInstructions::Standard",
      "conditions": [
        {
          "type": {
            "value": "DepartScene"
          },
          "parameters": [
            ""
          ]
        }
      ],
      "actions": [
        {
          "type": {
            "value": "BuiltinExternalLayouts::CreateObjectsFromExternalLayout"
          },
          "parameters": [
            "",
            "\"Picture\"",
            "0",
            "0",
            "0"
          ]
        },
        {
          "type": {
            "value": "OpacityCapability::OpacityBehavior::SetValue"
          },
          "parameters": [
            "picture_animalPic",
            "Opacity",
            "=",
            "0"
          ]
        },
        {
          "type": {
            "value": "PlayMusic"
          },
          "parameters": [
            "",
            "lv2_bgmusic.mp3",
            "yes",
            "15",
            ""
          ]
        },
        {
          "type": {
            "value": "ResetTimer"
          },
          "parameters": [
            "",
            "\"timePlay\""
          ]
        }
      ],
      "events": [
        {
          "type": "BuiltinCommonInstructions::Standard",
          "conditions": [],
          "actions": [
            {
              "type": {
                "value": "Tween::TweenBehavior::AddObjectOpacityTween2"
              },
              "parameters": [
                "picture_animalPic",
                "Tween",
                "\"Opacity\"",
                "255",
                "\"easeInCubic\"",
                "1",
                ""
              ]
            }
          ]
        }
      ]
    },
    {
      "type": "BuiltinCommonInstructions::Standard",
      "conditions": [
        {
          "type": {
            "value": "CompareTimer"
          },
          "parameters": [
            "",
            "\"timePlay\"",
            ">=",
            "1"
          ]
        }
      ],
      "actions": [
        {
          "type": {
            "value": "ModVarScene"
          },
          "parameters": [
            "timePlayPicture",
            "-",
            "1"
          ]
        },
        {
          "type": {
            "value": "TextContainerCapability::TextContainerBehavior::SetValue"
          },
          "parameters": [
            "picture_timePlay",
            "Text",
            "=",
            "ToString(Variable(timePlayPicture))"
          ]
        },
        {
          "type": {
            "value": "ResetTimer"
          },
          "parameters": [
            "",
            "\"timePlay\""
          ]
        }
      ]
    },
    {
      "type": "BuiltinCommonInstructions::Standard",
      "conditions": [
        {
          "type": {
            "value": "BuiltinCommonInstructions::Or"
          },
          "parameters": [],
          "subInstructions": [
            {
              "type": {
                "inverted": true,
                "value": "SourisSurObjet"
              },
              "parameters": [
                "picture_parrotPic",
                "",
                "",
                ""
              ]
            },
            {
              "type": {
                "inverted": true,
                "value": "SourisSurObjet"
              },
              "parameters": [
                "picture_snakePic",
                "",
                "",
                ""
              ]
            },
            {
              "type": {
                "inverted": true,
                "value": "SourisSurObjet"
              },
              "parameters": [
                "picture_sheepPic",
                "",
                "",
                ""
              ]
            },
            {
              "type": {
                "inverted": true,
                "value": "SourisSurObjet"
              },
              "parameters": [
                "picture_owlPic",
                "",
                "",
                ""
              ]
            }
          ]
        }
      ],
      "actions": [],
      "events": [
        {
          "type": "BuiltinCommonInstructions::Standard",
          "conditions": [
            {
              "type": {
                "value": "MouseButtonReleased"
              },
              "parameters": [
                "",
                "Left"
              ]
            },
            {
              "type": {
                "value": "SourisSurObjet"
              },
              "parameters": [
                "picture_animalPic",
                "",
                "",
                ""
              ]
            }
          ],
          "actions": [
            {
              "type": {
                "value": "ShakeObject::ShakeObject_PositionAngleScale::ShakeObject_PositionAngleScale"
              },
              "parameters": [
                "picture_animalPic",
                "ShakeObject_PositionAngleScale",
                "0.5",
                "50",
                "50",
                "0",
                "5",
                "0.08",
                "",
                ""
              ]
            },
            {
              "type": {
                "value": "ModVarScene"
              },
              "parameters": [
                "timePlayPicture",
                "-",
                "5"
              ]
            },
            {
              "type": {
                "value": "PlaySound"
              },
              "parameters": [
                "",
                "asset audio\\wrong_choice.mp3",
                "",
                "50",
                ""
              ]
            },
            {
              "type": {
                "value": "Create"
              },
              "parameters": [
                "",
                "subtractTime",
                "1679",
                "190",
                ""
              ]
            },
            {
              "type": {
                "value": "Wait"
              },
              "parameters": [
                "0.3"
              ]
            },
            {
              "type": {
                "value": "Delete"
              },
              "parameters": [
                "subtractTime",
                ""
              ]
            }
          ]
        }
      ]
    },
    {
      "type": "BuiltinCommonInstructions::Standard",
      "conditions": [
        {
          "type": {
            "value": "SourisSurObjet"
          },
          "parameters": [
            "picture_parrotPic",
            "",
            "",
            ""
          ]
        },
        {
          "type": {
            "value": "MouseButtonReleased"
          },
          "parameters": [
            "",
            "Left"
          ]
        }
      ],
      "actions": [
        {
          "type": {
            "value": "PlaySound"
          },
          "parameters": [
            "",
            "asset audio\\correct audio.mp3",
            "",
            "50",
            "1.5"
          ]
        },
        {
          "type": {
            "value": "ShakeObject::ShakeObject_PositionAngleScale::StopShaking"
          },
          "parameters": [
            "picture_parrotPic",
            "ShakeObject_PositionAngleScale",
            ""
          ]
        },
        {
          "type": {
            "value": "Tween::TweenBehavior::AddObjectOpacityTween2"
          },
          "parameters": [
            "picture_parrotPic",
            "Tween",
            "\"Opacity\"",
            "0",
            "\"easeInQuad\"",
            "1",
            ""
          ]
        },
        {
          "type": {
            "value": "Wait"
          },
          "parameters": [
            "1"
          ]
        },
        {
          "type": {
            "value": "Delete"
          },
          "parameters": [
            "picture_parrotPic",
            ""
          ]
        },
        {
          "type": {
            "value": "Tween::TweenBehavior::AddObjectOpacityTween2"
          },
          "parameters": [
            "picture_parrotText",
            "Tween",
            "\"Opacity\"",
            "0",
            "\"easeInQuad\"",
            "1",
            ""
          ]
        },
        {
          "type": {
            "value": "ModVarScene"
          },
          "parameters": [
            "pass",
            "+",
            "1"
          ]
        }
      ]
    },
    {
      "type": "BuiltinCommonInstructions::Standard",
      "conditions": [
        {
          "type": {
            "value": "SourisSurObjet"
          },
          "parameters": [
            "picture_snakePic",
            "",
            "",
            ""
          ]
        },
        {
          "type": {
            "value": "MouseButtonReleased"
          },
          "parameters": [
            "",
            "Left"
          ]
        }
      ],
      "actions": [
        {
          "type": {
            "value": "PlaySound"
          },
          "parameters": [
            "",
            "asset audio\\correct audio.mp3",
            "",
            "50",
            "1.5"
          ]
        },
        {
          "type": {
            "value": "ShakeObject::ShakeObject_PositionAngleScale::StopShaking"
          },
          "parameters": [
            "picture_snakePic",
            "ShakeObject_PositionAngleScale",
            ""
          ]
        },
        {
          "type": {
            "value": "Tween::TweenBehavior::AddObjectOpacityTween2"
          },
          "parameters": [
            "picture_snakePic",
            "Tween",
            "\"Opacity\"",
            "0",
            "\"easeInQuad\"",
            "1",
            ""
          ]
        },
        {
          "type": {
            "value": "Wait"
          },
          "parameters": [
            "1"
          ]
        },
        {
          "type": {
            "value": "Delete"
          },
          "parameters": [
            "picture_snakePic",
            ""
          ]
        },
        {
          "type": {
            "value": "Tween::TweenBehavior::AddObjectOpacityTween2"
          },
          "parameters": [
            "picture_snakeText",
            "Tween",
            "\"Opacity\"",
            "0",
            "\"easeInQuad\"",
            "1",
            ""
          ]
        },
        {
          "type": {
            "value": "ModVarScene"
          },
          "parameters": [
            "pass",
            "+",
            "1"
          ]
        }
      ]
    },
    {
      "type": "BuiltinCommonInstructions::Standard",
      "conditions": [
        {
          "type": {
            "value": "SourisSurObjet"
          },
          "parameters": [
            "picture_sheepPic",
            "",
            "",
            ""
          ]
        },
        {
          "type": {
            "value": "MouseButtonReleased"
          },
          "parameters": [
            "",
            "Left"
          ]
        }
      ],
      "actions": [
        {
          "type": {
            "value": "PlaySound"
          },
          "parameters": [
            "",
            "asset audio\\correct audio.mp3",
            "",
            "50",
            "1.5"
          ]
        },
        {
          "type": {
            "value": "ShakeObject::ShakeObject_PositionAngleScale::StopShaking"
          },
          "parameters": [
            "picture_sheepPic",
            "ShakeObject_PositionAngleScale",
            ""
          ]
        },
        {
          "type": {
            "value": "Tween::TweenBehavior::AddObjectOpacityTween2"
          },
          "parameters": [
            "picture_sheepPic",
            "Tween",
            "\"Opacity\"",
            "0",
            "\"easeInQuad\"",
            "1",
            ""
          ]
        },
        {
          "type": {
            "value": "Wait"
          },
          "parameters": [
            "1"
          ]
        },
        {
          "type": {
            "value": "Delete"
          },
          "parameters": [
            "picture_sheepPic",
            ""
          ]
        },
        {
          "type": {
            "value": "Tween::TweenBehavior::AddObjectOpacityTween2"
          },
          "parameters": [
            "picture_sheepText",
            "Tween",
            "\"Opacity\"",
            "0",
            "\"easeInQuad\"",
            "1",
            ""
          ]
        },
        {
          "type": {
            "value": "ModVarScene"
          },
          "parameters": [
            "pass",
            "+",
            "1"
          ]
        }
      ]
    },
    {
      "type": "BuiltinCommonInstructions::Standard",
      "conditions": [
        {
          "type": {
            "value": "SourisSurObjet"
          },
          "parameters": [
            "picture_owlPic",
            "",
            "",
            ""
          ]
        },
        {
          "type": {
            "value": "MouseButtonReleased"
          },
          "parameters": [
            "",
            "Left"
          ]
        }
      ],
      "actions": [
        {
          "type": {
            "value": "PlaySound"
          },
          "parameters": [
            "",
            "asset audio\\correct audio.mp3",
            "",
            "50",
            "1.5"
          ]
        },
        {
          "type": {
            "value": "ShakeObject::ShakeObject_PositionAngleScale::StopShaking"
          },
          "parameters": [
            "picture_owlPic",
            "ShakeObject_PositionAngleScale",
            ""
          ]
        },
        {
          "type": {
            "value": "Tween::TweenBehavior::AddObjectOpacityTween2"
          },
          "parameters": [
            "picture_owlPic",
            "Tween",
            "\"Opacity\"",
            "0",
            "\"easeInQuad\"",
            "1",
            ""
          ]
        },
        {
          "type": {
            "value": "Wait"
          },
          "parameters": [
            "1"
          ]
        },
        {
          "type": {
            "value": "Delete"
          },
          "parameters": [
            "picture_owlPic",
            ""
          ]
        },
        {
          "type": {
            "value": "Tween::TweenBehavior::AddObjectOpacityTween2"
          },
          "parameters": [
            "picture_owlText",
            "Tween",
            "\"Opacity\"",
            "0",
            "\"easeInQuad\"",
            "1",
            ""
          ]
        },
        {
          "type": {
            "value": "ModVarScene"
          },
          "parameters": [
            "pass",
            "+",
            "1"
          ]
        }
      ]
    },
    {
      "type": "BuiltinCommonInstructions::Standard",
      "conditions": [
        {
          "type": {
            "value": "VarScene"
          },
          "parameters": [
            "pass",
            "=",
            "4"
          ]
        },
        {
          "type": {
            "value": "VarScene"
          },
          "parameters": [
            "timePlayPicture",
            ">",
            "0"
          ]
        }
      ],
      "actions": [
        {
          "type": {
            "value": "PauseTimer"
          },
          "parameters": [
            "",
            "\"timePlay\""
          ]
        },
        {
          "type": {
            "value": "Scene"
          },
          "parameters": [
            "",
            "\"test\"",
            ""
          ]
        }
      ]
    },
    {
      "type": "BuiltinCommonInstructions::Standard",
      "conditions": [
        {
          "type": {
            "value": "VarScene"
          },
          "parameters": [
            "timePlayPicture",
            "<=",
            "0"
          ]
        },
        {
          "type": {
            "value": "VarScene"
          },
          "parameters": [
            "pass",
            "<",
            "4"
          ]
        }
      ],
      "actions": [
        {
          "type": {
            "value": "PauseTimer"
          },
          "parameters": [
            "",
            "\"timePlay\""
          ]
        },
        {
          "type": {
            "value": "Scene"
          },
          "parameters": [
            "",
            "\"test\"",
            ""
          ]
        }
      ]
    },
    {
      "type": "BuiltinCommonInstructions::Standard",
      "conditions": [],
      "actions": []
    }
  ],
  "layers": [
    {
      "ambientLightColorB": 200,
      "ambientLightColorG": 200,
      "ambientLightColorR": 200,
      "camera3DFarPlaneDistance": 10000,
      "camera3DFieldOfView": 45,
      "camera3DNearPlaneDistance": 3,
      "followBaseLayerCamera": false,
      "isLightingLayer": false,
      "isLocked": false,
      "name": "Background",
      "renderingType": "",
      "visibility": true,
      "cameras": [],
      "effects": [
        {
          "effectType": "Scene3D::HemisphereLight",
          "name": "3D Light",
          "doubleParameters": {
            "elevation": 45,
            "intensity": 1,
            "rotation": 0
          },
          "stringParameters": {
            "groundColor": "64;64;64",
            "skyColor": "255;255;255",
            "top": "Y-"
          },
          "booleanParameters": {}
        }
      ]
    },
    {
      "ambientLightColorB": 200,
      "ambientLightColorG": 200,
      "ambientLightColorR": 200,
      "camera3DFarPlaneDistance": 10000,
      "camera3DFieldOfView": 45,
      "camera3DNearPlaneDistance": 3,
      "followBaseLayerCamera": false,
      "isLightingLayer": false,
      "isLocked": false,
      "name": "",
      "renderingType": "",
      "visibility": true,
      "cameras": [
        {
          "defaultSize": true,
          "defaultViewport": true,
          "height": 0,
          "viewportBottom": 1,
          "viewportLeft": 0,
          "viewportRight": 1,
          "viewportTop": 0,
          "width": 0
        }
      ],
      "effects": [
        {
          "effectType": "Scene3D::HemisphereLight",
          "name": "3D Light",
          "doubleParameters": {
            "elevation": 45,
            "intensity": 1,
            "rotation": 0
          },
          "stringParameters": {
            "groundColor": "64;64;64",
            "skyColor": "255;255;255",
            "top": "Y-"
          },
          "booleanParameters": {}
        }
      ]
    }
  ],
  "behaviorsSharedData": [
    {
      "name": "Animation",
      "type": "AnimatableCapability::AnimatableBehavior"
    },
    {
      "name": "Effect",
      "type": "EffectCapability::EffectBehavior"
    },
    {
      "name": "Flippable",
      "type": "FlippableCapability::FlippableBehavior"
    },
    {
      "name": "Opacity",
      "type": "OpacityCapability::OpacityBehavior"
    },
    {
      "name": "RectangleMovement",
      "type": "RectangleMovement::RectangleMovement"
    },
    {
      "name": "Resizable",
      "type": "ResizableCapability::ResizableBehavior"
    },
    {
      "name": "Scale",
      "type": "ScalableCapability::ScalableBehavior"
    },
    {
      "name": "ShakeObject_PositionAngle",
      "type": "ShakeObject::ShakeObject_PositionAngle"
    },
    {
      "name": "ShakeObject_PositionAngleScale",
      "type": "ShakeObject::ShakeObject_PositionAngleScale"
    },
    {
      "name": "Text",
      "type": "TextContainerCapability::TextContainerBehavior"
    },
    {
      "name": "Tween",
      "type": "Tween::TweenBehavior"
    }
  ]
}