{
  "b": 209,
  "disableInputWhenNotFocused": true,
  "mangledName": "picture_95lv3_95p1",
  "name": "picture_lv3_p1",
  "r": 209,
  "standardSortMethod": true,
  "stopSoundsOnStartup": true,
  "title": "",
  "v": 209,
  "uiSettings": {
    "grid": false,
    "gridType": "rectangular",
    "gridWidth": 32,
    "gridHeight": 32,
    "gridOffsetX": 0,
    "gridOffsetY": 0,
    "gridColor": 10401023,
    "gridAlpha": 0.8,
    "snap": false,
    "zoomFactor": 0.4753585087126931,
    "windowMask": false
  },
  "objectsGroups": [],
  "variables": [
    {
      "folded": true,
      "name": "pass",
      "type": "number",
      "value": 0
    },
    {
      "folded": true,
      "name": "timePlayPicture",
      "type": "number",
      "value": 20
    }
  ],
  "instances": [
    {
      "angle": 0,
      "customSize": true,
      "depth": 1,
      "height": 111,
      "layer": "",
      "name": "picture_rhinoPic",
      "persistentUuid": "2b87303e-3fb8-4145-9ca7-793ecce68076",
      "width": 121,
      "x": 353,
      "y": 666,
      "zOrder": 35,
      "numberProperties": [],
      "stringProperties": [],
      "initialVariables": []
    },
    {
      "angle": 0,
      "customSize": true,
      "depth": 1,
      "height": 163,
      "layer": "",
      "name": "picture_catPic",
      "persistentUuid": "02bb16cb-d74c-41d3-9959-13ceab07fd3c",
      "width": 123,
      "x": 978,
      "y": 550,
      "zOrder": 37,
      "numberProperties": [],
      "stringProperties": [],
      "initialVariables": []
    },
    {
      "angle": 0,
      "customSize": true,
      "depth": 1,
      "height": 113,
      "layer": "",
      "name": "picture_turtlePic",
      "persistentUuid": "56d77f4c-0797-459d-8e77-acaf74140b2b",
      "width": 137,
      "x": 833,
      "y": 797,
      "zOrder": 38,
      "numberProperties": [],
      "stringProperties": [],
      "initialVariables": []
    },
    {
      "angle": 0,
      "customSize": true,
      "depth": 1,
      "height": 151,
      "layer": "",
      "name": "picture_monkeyPic",
      "persistentUuid": "1c83e11d-bc6c-4852-bfb3-3d323449e5c3",
      "width": 141,
      "x": 460,
      "y": 277,
      "zOrder": 39,
      "numberProperties": [],
      "stringProperties": [],
      "initialVariables": []
    },
    {
      "angle": 0,
      "customSize": true,
      "depth": 1,
      "height": 119,
      "layer": "",
      "name": "picture_duckPic",
      "persistentUuid": "27d4838d-b7c2-48a5-9303-2f25eccd4528",
      "width": 95,
      "x": 703,
      "y": 373,
      "zOrder": 41,
      "numberProperties": [],
      "stringProperties": [],
      "initialVariables": []
    },
    {
      "angle": 0,
      "customSize": false,
      "height": 0,
      "layer": "",
      "name": "picture_rhinoText",
      "persistentUuid": "a179919e-3547-4ae9-9869-7b4f646a148b",
      "width": 0,
      "x": 1337,
      "y": 668,
      "zOrder": 44,
      "numberProperties": [],
      "stringProperties": [],
      "initialVariables": []
    },
    {
      "angle": 0,
      "customSize": false,
      "height": 0,
      "layer": "",
      "name": "picture_timePlay",
      "persistentUuid": "b5b7c18d-aed9-485f-9d4f-885ebe297986",
      "width": 0,
      "x": 1679,
      "y": 42,
      "zOrder": 47,
      "numberProperties": [],
      "stringProperties": [],
      "initialVariables": []
    },
    {
      "angle": 0,
      "customSize": true,
      "depth": 2,
      "height": 128,
      "layer": "",
      "name": "picture_owlPic",
      "persistentUuid": "6dea057b-d507-43d8-8eff-746da54dc21b",
      "width": 87,
      "x": 595,
      "y": 770,
      "zOrder": 48,
      "numberProperties": [],
      "stringProperties": [],
      "initialVariables": []
    },
    {
      "angle": 0,
      "customSize": true,
      "depth": 2,
      "height": 150,
      "layer": "",
      "name": "picture_bearPic",
      "persistentUuid": "d3238c26-9ff6-4d5e-abba-f6191b13e925",
      "width": 86,
      "x": 586,
      "y": 534,
      "zOrder": 49,
      "numberProperties": [],
      "stringProperties": [],
      "initialVariables": []
    },
    {
      "angle": 0,
      "customSize": true,
      "depth": 1,
      "height": 135,
      "layer": "",
      "name": "picture_batPic",
      "persistentUuid": "488f466b-beaf-4faa-9db7-50c4f480febe",
      "width": 162,
      "x": 767,
      "y": 553,
      "zOrder": 50,
      "numberProperties": [],
      "stringProperties": [],
      "initialVariables": []
    },
    {
      "angle": 0,
      "customSize": true,
      "depth": 2,
      "height": 99,
      "layer": "",
      "name": "picture_frogPic",
      "persistentUuid": "ff83f188-b7df-4655-864c-8a444b59983f",
      "width": 132,
      "x": 901,
      "y": 313,
      "zOrder": 51,
      "numberProperties": [],
      "stringProperties": [],
      "initialVariables": []
    },
    {
      "angle": 0,
      "customSize": true,
      "depth": 1,
      "height": 90,
      "layer": "",
      "name": "picture_mousePic",
      "persistentUuid": "e1186b78-2f48-4b39-b00d-23fc2f1ac799",
      "width": 146,
      "x": 672,
      "y": 213,
      "zOrder": 52,
      "numberProperties": [],
      "stringProperties": [],
      "initialVariables": []
    },
    {
      "angle": 0,
      "customSize": false,
      "height": 0,
      "layer": "",
      "name": "picture_snakePic",
      "persistentUuid": "6169e536-5b4f-4294-8b35-5aadd44c6a28",
      "width": 0,
      "x": 340,
      "y": 470,
      "zOrder": 53,
      "numberProperties": [],
      "stringProperties": [],
      "initialVariables": []
    },
    {
      "angle": 0,
      "customSize": false,
      "height": 0,
      "layer": "",
      "name": "picture_frogText",
      "persistentUuid": "4cd4074d-6b50-4bfd-b6bf-3fc669e4bfe4",
      "width": 0,
      "x": 1341,
      "y": 360,
      "zOrder": 54,
      "numberProperties": [],
      "stringProperties": [],
      "initialVariables": []
    },
    {
      "angle": 0,
      "customSize": false,
      "height": 0,
      "layer": "",
      "name": "picture_bearText",
      "persistentUuid": "4920cb42-8203-450a-b751-8bd9a36903ad",
      "width": 0,
      "x": 1339,
      "y": 461,
      "zOrder": 55,
      "numberProperties": [],
      "stringProperties": [],
      "initialVariables": []
    },
    {
      "angle": 0,
      "customSize": false,
      "height": 0,
      "layer": "",
      "name": "picture_mouseText",
      "persistentUuid": "cfd5ef85-867b-45d2-8636-b06b77e6efbe",
      "width": 0,
      "x": 1335,
      "y": 560,
      "zOrder": 56,
      "numberProperties": [],
      "stringProperties": [],
      "initialVariables": []
    }
  ],
  "objects": [],
  "objectsFolderStructure": {
    "folderName": "__ROOT"
  },
  "events": [
    {
      "type": "BuiltinCommonInstructions::Standard",
      "conditions": [
        {
          "type": {
            "value": "DepartScene"
          },
          "parameters": [
            ""
          ]
        }
      ],
      "actions": [
        {
          "type": {
            "value": "BuiltinExternalLayouts::CreateObjectsFromExternalLayout"
          },
          "parameters": [
            "",
            "\"Picture\"",
            "0",
            "0",
            "0"
          ]
        },
        {
          "type": {
            "value": "PlayMusic"
          },
          "parameters": [
            "",
            "lv3_musicbg.mp3",
            "yes",
            "15",
            ""
          ]
        },
        {
          "type": {
            "value": "OpacityCapability::OpacityBehavior::SetValue"
          },
          "parameters": [
            "picture_animalPic",
            "Opacity",
            "=",
            "0"
          ]
        },
        {
          "type": {
            "value": "ResetTimer"
          },
          "parameters": [
            "",
            "\"timePlay\""
          ]
        }
      ],
      "events": [
        {
          "type": "BuiltinCommonInstructions::Standard",
          "conditions": [],
          "actions": [
            {
              "type": {
                "value": "Tween::TweenBehavior::AddObjectOpacityTween2"
              },
              "parameters": [
                "picture_animalPic",
                "Tween",
                "\"Opacity\"",
                "255",
                "\"easeInCubic\"",
                "1",
                ""
              ]
            }
          ]
        }
      ]
    },
    {
      "type": "BuiltinCommonInstructions::Standard",
      "conditions": [
        {
          "type": {
            "value": "CompareTimer"
          },
          "parameters": [
            "",
            "\"timePlay\"",
            ">=",
            "1"
          ]
        }
      ],
      "actions": [
        {
          "type": {
            "value": "ModVarScene"
          },
          "parameters": [
            "timePlayPicture",
            "-",
            "1"
          ]
        },
        {
          "type": {
            "value": "TextContainerCapability::TextContainerBehavior::SetValue"
          },
          "parameters": [
            "picture_timePlay",
            "Text",
            "=",
            "ToString(Variable(timePlayPicture))"
          ]
        },
        {
          "type": {
            "value": "ResetTimer"
          },
          "parameters": [
            "",
            "\"timePlay\""
          ]
        }
      ]
    },
    {
      "type": "BuiltinCommonInstructions::Standard",
      "conditions": [
        {
          "type": {
            "value": "BuiltinCommonInstructions::Or"
          },
          "parameters": [],
          "subInstructions": [
            {
              "type": {
                "inverted": true,
                "value": "SourisSurObjet"
              },
              "parameters": [
                "picture_frogPic",
                "",
                "",
                ""
              ]
            },
            {
              "type": {
                "inverted": true,
                "value": "SourisSurObjet"
              },
              "parameters": [
                "picture_bearPic",
                "",
                "",
                ""
              ]
            },
            {
              "type": {
                "inverted": true,
                "value": "SourisSurObjet"
              },
              "parameters": [
                "picture_mousePic",
                "",
                "",
                ""
              ]
            },
            {
              "type": {
                "inverted": true,
                "value": "SourisSurObjet"
              },
              "parameters": [
                "picture_rhinoPic",
                "",
                "",
                ""
              ]
            }
          ]
        }
      ],
      "actions": [],
      "events": [
        {
          "type": "BuiltinCommonInstructions::Standard",
          "conditions": [
            {
              "type": {
                "value": "MouseButtonReleased"
              },
              "parameters": [
                "",
                "Left"
              ]
            },
            {
              "type": {
                "value": "SourisSurObjet"
              },
              "parameters": [
                "picture_animalPic",
                "",
                "",
                ""
              ]
            }
          ],
          "actions": [
            {
              "type": {
                "value": "ShakeObject::ShakeObject_PositionAngleScale::ShakeObject_PositionAngleScale"
              },
              "parameters": [
                "picture_animalPic",
                "ShakeObject_PositionAngleScale",
                "0.5",
                "50",
                "50",
                "0",
                "5",
                "0.08",
                "",
                ""
              ]
            },
            {
              "type": {
                "value": "ModVarScene"
              },
              "parameters": [
                "timePlayPicture",
                "-",
                "5"
              ]
            },
            {
              "type": {
                "value": "PlaySound"
              },
              "parameters": [
                "",
                "asset audio\\wrong_choice.mp3",
                "",
                "50",
                ""
              ]
            },
            {
              "type": {
                "value": "Create"
              },
              "parameters": [
                "",
                "subtractTime",
                "1679",
                "190",
                ""
              ]
            },
            {
              "type": {
                "value": "Wait"
              },
              "parameters": [
                "0.3"
              ]
            },
            {
              "type": {
                "value": "Delete"
              },
              "parameters": [
                "subtractTime",
                ""
              ]
            }
          ]
        }
      ]
    },
    {
      "type": "BuiltinCommonInstructions::Standard",
      "conditions": [
        {
          "type": {
            "value": "SourisSurObjet"
          },
          "parameters": [
            "picture_frogPic",
            "",
            "",
            ""
          ]
        },
        {
          "type": {
            "value": "MouseButtonReleased"
          },
          "parameters": [
            "",
            "Left"
          ]
        }
      ],
      "actions": [
        {
          "type": {
            "value": "PlaySound"
          },
          "parameters": [
            "",
            "asset audio\\correct audio.mp3",
            "",
            "50",
            "1.5"
          ]
        },
        {
          "type": {
            "value": "ShakeObject::ShakeObject_PositionAngleScale::StopShaking"
          },
          "parameters": [
            "picture_frogPic",
            "ShakeObject_PositionAngleScale",
            ""
          ]
        },
        {
          "type": {
            "value": "Tween::TweenBehavior::AddObjectOpacityTween2"
          },
          "parameters": [
            "picture_frogPic",
            "Tween",
            "\"Opacity\"",
            "0",
            "\"easeInQuad\"",
            "1",
            ""
          ]
        },
        {
          "type": {
            "value": "Wait"
          },
          "parameters": [
            "1"
          ]
        },
        {
          "type": {
            "value": "Delete"
          },
          "parameters": [
            "picture_frogPic",
            ""
          ]
        },
        {
          "type": {
            "value": "Tween::TweenBehavior::AddObjectOpacityTween2"
          },
          "parameters": [
            "picture_frogText",
            "Tween",
            "\"Opacity\"",
            "0",
            "\"easeInQuad\"",
            "1",
            ""
          ]
        },
        {
          "type": {
            "value": "ModVarScene"
          },
          "parameters": [
            "pass",
            "+",
            "1"
          ]
        }
      ]
    },
    {
      "type": "BuiltinCommonInstructions::Standard",
      "conditions": [
        {
          "type": {
            "value": "SourisSurObjet"
          },
          "parameters": [
            "picture_bearPic",
            "",
            "",
            ""
          ]
        },
        {
          "type": {
            "value": "MouseButtonReleased"
          },
          "parameters": [
            "",
            "Left"
          ]
        }
      ],
      "actions": [
        {
          "type": {
            "value": "PlaySound"
          },
          "parameters": [
            "",
            "asset audio\\correct audio.mp3",
            "",
            "50",
            "1.5"
          ]
        },
        {
          "type": {
            "value": "ShakeObject::ShakeObject_PositionAngleScale::StopShaking"
          },
          "parameters": [
            "picture_bearPic",
            "ShakeObject_PositionAngleScale",
            ""
          ]
        },
        {
          "type": {
            "value": "Tween::TweenBehavior::AddObjectOpacityTween2"
          },
          "parameters": [
            "picture_bearPic",
            "Tween",
            "\"Opacity\"",
            "0",
            "\"easeInQuad\"",
            "1",
            ""
          ]
        },
        {
          "type": {
            "value": "Wait"
          },
          "parameters": [
            "1"
          ]
        },
        {
          "type": {
            "value": "Delete"
          },
          "parameters": [
            "picture_bearPic",
            ""
          ]
        },
        {
          "type": {
            "value": "Tween::TweenBehavior::AddObjectOpacityTween2"
          },
          "parameters": [
            "picture_bearText",
            "Tween",
            "\"Opacity\"",
            "0",
            "\"easeInQuad\"",
            "1",
            ""
          ]
        },
        {
          "type": {
            "value": "ModVarScene"
          },
          "parameters": [
            "pass",
            "+",
            "1"
          ]
        }
      ]
    },
    {
      "type": "BuiltinCommonInstructions::Standard",
      "conditions": [
        {
          "type": {
            "value": "SourisSurObjet"
          },
          "parameters": [
            "picture_mousePic",
            "",
            "",
            ""
          ]
        },
        {
          "type": {
            "value": "MouseButtonReleased"
          },
          "parameters": [
            "",
            "Left"
          ]
        }
      ],
      "actions": [
        {
          "type": {
            "value": "PlaySound"
          },
          "parameters": [
            "",
            "asset audio\\correct audio.mp3",
            "",
            "50",
            "1.5"
          ]
        },
        {
          "type": {
            "value": "ShakeObject::ShakeObject_PositionAngleScale::StopShaking"
          },
          "parameters": [
            "picture_mousePic",
            "ShakeObject_PositionAngleScale",
            ""
          ]
        },
        {
          "type": {
            "value": "Tween::TweenBehavior::AddObjectOpacityTween2"
          },
          "parameters": [
            "picture_mousePic",
            "Tween",
            "\"Opacity\"",
            "0",
            "\"easeInQuad\"",
            "1",
            ""
          ]
        },
        {
          "type": {
            "value": "Wait"
          },
          "parameters": [
            "1"
          ]
        },
        {
          "type": {
            "value": "Delete"
          },
          "parameters": [
            "picture_mousePic",
            ""
          ]
        },
        {
          "type": {
            "value": "Tween::TweenBehavior::AddObjectOpacityTween2"
          },
          "parameters": [
            "picture_mouseText",
            "Tween",
            "\"Opacity\"",
            "0",
            "\"easeInQuad\"",
            "1",
            ""
          ]
        },
        {
          "type": {
            "value": "ModVarScene"
          },
          "parameters": [
            "pass",
            "+",
            "1"
          ]
        }
      ]
    },
    {
      "type": "BuiltinCommonInstructions::Standard",
      "conditions": [
        {
          "type": {
            "value": "SourisSurObjet"
          },
          "parameters": [
            "picture_rhinoPic",
            "",
            "",
            ""
          ]
        },
        {
          "type": {
            "value": "MouseButtonReleased"
          },
          "parameters": [
            "",
            "Left"
          ]
        }
      ],
      "actions": [
        {
          "type": {
            "value": "PlaySound"
          },
          "parameters": [
            "",
            "asset audio\\correct audio.mp3",
            "",
            "50",
            "1.5"
          ]
        },
        {
          "type": {
            "value": "ShakeObject::ShakeObject_PositionAngleScale::StopShaking"
          },
          "parameters": [
            "picture_rhinoPic",
            "ShakeObject_PositionAngleScale",
            ""
          ]
        },
        {
          "type": {
            "value": "Tween::TweenBehavior::AddObjectOpacityTween2"
          },
          "parameters": [
            "picture_rhinoPic",
            "Tween",
            "\"Opacity\"",
            "0",
            "\"easeInQuad\"",
            "1",
            ""
          ]
        },
        {
          "type": {
            "value": "Wait"
          },
          "parameters": [
            "1"
          ]
        },
        {
          "type": {
            "value": "Delete"
          },
          "parameters": [
            "picture_rhinoPic",
            ""
          ]
        },
        {
          "type": {
            "value": "Tween::TweenBehavior::AddObjectOpacityTween2"
          },
          "parameters": [
            "picture_rhinoText",
            "Tween",
            "\"Opacity\"",
            "0",
            "\"easeInQuad\"",
            "1",
            ""
          ]
        },
        {
          "type": {
            "value": "ModVarScene"
          },
          "parameters": [
            "pass",
            "+",
            "1"
          ]
        }
      ]
    },
    {
      "type": "BuiltinCommonInstructions::Standard",
      "conditions": [
        {
          "type": {
            "value": "VarScene"
          },
          "parameters": [
            "pass",
            "=",
            "4"
          ]
        },
        {
          "type": {
            "value": "VarScene"
          },
          "parameters": [
            "timePlayPicture",
            ">",
            "0"
          ]
        }
      ],
      "actions": [
        {
          "type": {
            "value": "PauseTimer"
          },
          "parameters": [
            "",
            "\"timePlay\""
          ]
        },
        {
          "type": {
            "value": "Scene"
          },
          "parameters": [
            "",
            "\"test\"",
            ""
          ]
        }
      ]
    },
    {
      "type": "BuiltinCommonInstructions::Standard",
      "conditions": [
        {
          "type": {
            "value": "VarScene"
          },
          "parameters": [
            "timePlayPicture",
            "<=",
            "0"
          ]
        },
        {
          "type": {
            "value": "VarScene"
          },
          "parameters": [
            "pass",
            "<",
            "4"
          ]
        }
      ],
      "actions": [
        {
          "type": {
            "value": "PauseTimer"
          },
          "parameters": [
            "",
            "\"timePlay\""
          ]
        },
        {
          "type": {
            "value": "Scene"
          },
          "parameters": [
            "",
            "\"test\"",
            ""
          ]
        }
      ]
    },
    {
      "type": "BuiltinCommonInstructions::Standard",
      "conditions": [],
      "actions": []
    }
  ],
  "layers": [
    {
      "ambientLightColorB": 200,
      "ambientLightColorG": 200,
      "ambientLightColorR": 200,
      "camera3DFarPlaneDistance": 10000,
      "camera3DFieldOfView": 45,
      "camera3DNearPlaneDistance": 3,
      "followBaseLayerCamera": false,
      "isLightingLayer": false,
      "isLocked": false,
      "name": "Background",
      "renderingType": "",
      "visibility": true,
      "cameras": [],
      "effects": [
        {
          "effectType": "Scene3D::HemisphereLight",
          "name": "3D Light",
          "doubleParameters": {
            "elevation": 45,
            "intensity": 1,
            "rotation": 0
          },
          "stringParameters": {
            "groundColor": "64;64;64",
            "skyColor": "255;255;255",
            "top": "Y-"
          },
          "booleanParameters": {}
        }
      ]
    },
    {
      "ambientLightColorB": 200,
      "ambientLightColorG": 200,
      "ambientLightColorR": 200,
      "camera3DFarPlaneDistance": 10000,
      "camera3DFieldOfView": 45,
      "camera3DNearPlaneDistance": 3,
      "followBaseLayerCamera": false,
      "isLightingLayer": false,
      "isLocked": false,
      "name": "",
      "renderingType": "",
      "visibility": true,
      "cameras": [
        {
          "defaultSize": true,
          "defaultViewport": true,
          "height": 0,
          "viewportBottom": 1,
          "viewportLeft": 0,
          "viewportRight": 1,
          "viewportTop": 0,
          "width": 0
        }
      ],
      "effects": [
        {
          "effectType": "Scene3D::HemisphereLight",
          "name": "3D Light",
          "doubleParameters": {
            "elevation": 45,
            "intensity": 1,
            "rotation": 0
          },
          "stringParameters": {
            "groundColor": "64;64;64",
            "skyColor": "255;255;255",
            "top": "Y-"
          },
          "booleanParameters": {}
        }
      ]
    }
  ],
  "behaviorsSharedData": [
    {
      "name": "Animation",
      "type": "AnimatableCapability::AnimatableBehavior"
    },
    {
      "name": "Effect",
      "type": "EffectCapability::EffectBehavior"
    },
    {
      "name": "Flippable",
      "type": "FlippableCapability::FlippableBehavior"
    },
    {
      "name": "Opacity",
      "type": "OpacityCapability::OpacityBehavior"
    },
    {
      "name": "RectangleMovement",
      "type": "RectangleMovement::RectangleMovement"
    },
    {
      "name": "Resizable",
      "type": "ResizableCapability::ResizableBehavior"
    },
    {
      "name": "Scale",
      "type": "ScalableCapability::ScalableBehavior"
    },
    {
      "name": "ShakeObject_PositionAngle",
      "type": "ShakeObject::ShakeObject_PositionAngle"
    },
    {
      "name": "ShakeObject_PositionAngleScale",
      "type": "ShakeObject::ShakeObject_PositionAngleScale"
    },
    {
      "name": "Text",
      "type": "TextContainerCapability::TextContainerBehavior"
    },
    {
      "name": "Tween",
      "type": "Tween::TweenBehavior"
    }
  ]
}