{
  "b": 209,
  "disableInputWhenNotFocused": true,
  "mangledName": "rememberCard_95lv1_95p5",
  "name": "rememberCard_lv1_p5",
  "r": 209,
  "standardSortMethod": true,
  "stopSoundsOnStartup": true,
  "title": "",
  "v": 209,
  "uiSettings": {
    "grid": false,
    "gridType": "rectangular",
    "gridWidth": 32,
    "gridHeight": 32,
    "gridOffsetX": 0,
    "gridOffsetY": 0,
    "gridColor": 10401023,
    "gridAlpha": 0.8,
    "snap": false,
    "zoomFactor": 0.26905646861907534,
    "windowMask": false
  },
  "objectsGroups": [
    {
      "name": "rememberCard_cards",
      "objects": [
        {
          "name": "rememberCard_monkeyCard"
        },
        {
          "name": "rememberCard_duckCard"
        },
        {
          "name": "rememberCard_cockCard"
        },
        {
          "name": "rememberCard_penguinCard"
        },
        {
          "name": "rememberCard_parrotCard"
        },
        {
          "name": "rememberCard_owlCard"
        },
        {
          "name": "rememberCard_deerCard"
        }
      ]
    }
  ],
  "variables": [
    {
      "folded": true,
      "name": "timeRemember",
      "type": "number",
      "value": 10
    },
    {
      "folded": true,
      "name": "reallyStartRememberCardGame",
      "type": "boolean",
      "value": false
    },
    {
      "folded": true,
      "name": "randomNumQuesttion",
      "type": "number",
      "value": 0
    },
    {
      "folded": true,
      "name": "randomKeyQuest",
      "type": "string",
      "value": ""
    },
    {
      "folded": true,
      "name": "timePlayRememberCard",
      "type": "number",
      "value": 20
    }
  ],
  "instances": [
    {
      "angle": 0,
      "customSize": true,
      "height": 1111,
      "layer": "Fade",
      "name": "screen_fade",
      "persistentUuid": "535a5a93-ba08-419e-a3e4-d6f7462d1bfc",
      "width": 1958,
      "x": -19,
      "y": -12,
      "zOrder": 1,
      "numberProperties": [],
      "stringProperties": [],
      "initialVariables": []
    },
    {
      "angle": 0,
      "customSize": false,
      "height": 0,
      "layer": "",
      "name": "rememberCard_palceholderPosition",
      "persistentUuid": "031ecf19-8c46-4f15-88c2-39784edc78e7",
      "width": 0,
      "x": 190,
      "y": 270,
      "zOrder": 15,
      "numberProperties": [],
      "stringProperties": [],
      "initialVariables": []
    },
    {
      "angle": 0,
      "customSize": false,
      "height": 0,
      "layer": "",
      "name": "rememberCard_palceholderPosition",
      "persistentUuid": "ff35a4b1-3411-4df6-8ddb-29de5806cdd2",
      "width": 0,
      "x": 490,
      "y": 270,
      "zOrder": 15,
      "numberProperties": [],
      "stringProperties": [],
      "initialVariables": []
    },
    {
      "angle": 0,
      "customSize": false,
      "height": 0,
      "layer": "",
      "name": "rememberCard_palceholderPosition",
      "persistentUuid": "bd50a121-45d1-4842-85f4-7b2af27df868",
      "width": 0,
      "x": 790,
      "y": 270,
      "zOrder": 15,
      "numberProperties": [],
      "stringProperties": [],
      "initialVariables": []
    },
    {
      "angle": 0,
      "customSize": false,
      "height": 0,
      "layer": "",
      "name": "rememberCard_palceholderPosition",
      "persistentUuid": "551199ed-d346-429b-9dcc-37621cef36ba",
      "width": 0,
      "x": 190,
      "y": 570,
      "zOrder": 10,
      "numberProperties": [],
      "stringProperties": [],
      "initialVariables": []
    },
    {
      "angle": 0,
      "customSize": false,
      "height": 0,
      "layer": "",
      "name": "rememberCard_palceholderPosition",
      "persistentUuid": "36e444db-5792-48a6-b557-9af71b1464c4",
      "width": 0,
      "x": 490,
      "y": 570,
      "zOrder": 17,
      "numberProperties": [],
      "stringProperties": [],
      "initialVariables": []
    },
    {
      "angle": 0,
      "customSize": false,
      "height": 0,
      "layer": "",
      "name": "rememberCard_palceholderPosition",
      "persistentUuid": "1909edcc-d8b0-493c-9b11-4b59f84bc3db",
      "width": 0,
      "x": 790,
      "y": 570,
      "zOrder": 17,
      "numberProperties": [],
      "stringProperties": [],
      "initialVariables": []
    },
    {
      "angle": 0,
      "customSize": false,
      "height": 0,
      "layer": "",
      "name": "rememberCard_timeRemember",
      "persistentUuid": "65aac937-48a9-41e4-b777-0d60ac098251",
      "width": 0,
      "x": 1461,
      "y": 443,
      "zOrder": 18,
      "numberProperties": [],
      "stringProperties": [],
      "initialVariables": []
    },
    {
      "angle": 0,
      "customSize": false,
      "height": 0,
      "layer": "",
      "name": "rememberCard_KeyQuest",
      "persistentUuid": "34255b8c-a203-40a4-b770-68f5e890f39f",
      "width": 0,
      "x": 1406,
      "y": 478,
      "zOrder": 26,
      "numberProperties": [],
      "stringProperties": [],
      "initialVariables": []
    },
    {
      "angle": 0,
      "customSize": false,
      "height": 0,
      "layer": "",
      "name": "rememberCard_catCard",
      "persistentUuid": "469bb8bf-9ecf-4ce1-aab1-ccb1b8e88a2e",
      "width": 0,
      "x": -506,
      "y": 2,
      "zOrder": 27,
      "numberProperties": [],
      "stringProperties": [],
      "initialVariables": []
    },
    {
      "angle": 0,
      "customSize": false,
      "height": 0,
      "layer": "",
      "name": "rememberCard_elephantCard",
      "persistentUuid": "449233dc-9016-41eb-80e1-c0ee37aac498",
      "width": 0,
      "x": -225,
      "y": 5,
      "zOrder": 28,
      "numberProperties": [],
      "stringProperties": [],
      "initialVariables": []
    },
    {
      "angle": 0,
      "customSize": false,
      "height": 0,
      "layer": "",
      "name": "rememberCard_cockCard",
      "persistentUuid": "493e462e-d147-4e24-ae89-d808210f85ca",
      "width": 0,
      "x": -536,
      "y": 321,
      "zOrder": 29,
      "numberProperties": [],
      "stringProperties": [],
      "initialVariables": []
    },
    {
      "angle": 0,
      "customSize": false,
      "height": 0,
      "layer": "",
      "name": "rememberCard_penguinCard",
      "persistentUuid": "b65f16ec-c93b-41d8-8b1b-9b6f389c8f0b",
      "width": 0,
      "x": -252,
      "y": 355,
      "zOrder": 30,
      "numberProperties": [],
      "stringProperties": [],
      "initialVariables": []
    },
    {
      "angle": 0,
      "customSize": false,
      "height": 0,
      "layer": "",
      "name": "rememberCard_lionCard",
      "persistentUuid": "502c8c0e-1cb4-483c-811f-73cbe351f4ce",
      "width": 0,
      "x": -529,
      "y": 697,
      "zOrder": 31,
      "numberProperties": [],
      "stringProperties": [],
      "initialVariables": []
    },
    {
      "angle": 0,
      "customSize": false,
      "height": 0,
      "layer": "",
      "name": "rememberCard_giraffeCard",
      "persistentUuid": "e090a41c-d66e-4da3-8347-12363e884198",
      "width": 0,
      "x": -244,
      "y": 689,
      "zOrder": 33,
      "numberProperties": [],
      "stringProperties": [],
      "initialVariables": []
    },
    {
      "angle": 0,
      "customSize": false,
      "height": 0,
      "layer": "",
      "name": "remembarCard_timePlayLv1",
      "persistentUuid": "bede25a7-1027-4e11-949f-2102dcdb7c9d",
      "width": 0,
      "x": 1679,
      "y": 43,
      "zOrder": 34,
      "numberProperties": [],
      "stringProperties": [],
      "initialVariables": []
    }
  ],
  "objects": [
    {
      "adaptCollisionMaskAutomatically": false,
      "assetStoreId": "",
      "name": "rememberCard_palceholderPosition",
      "type": "Sprite",
      "updateIfNotVisible": false,
      "variables": [],
      "effects": [],
      "behaviors": [],
      "animations": [
        {
          "name": "NewSprite",
          "useMultipleDirections": false,
          "directions": [
            {
              "looping": false,
              "metadata": "{\"pskl\":{}}",
              "timeBetweenFrames": 0.08,
              "sprites": [
                {
                  "hasCustomCollisionMask": true,
                  "image": "NewSprite2",
                  "points": [],
                  "originPoint": {
                    "name": "origine",
                    "x": 0,
                    "y": 0
                  },
                  "centerPoint": {
                    "automatic": true,
                    "name": "centre",
                    "x": 0,
                    "y": 0
                  },
                  "customCollisionMask": [
                    [
                      {
                        "x": 0,
                        "y": 0
                      },
                      {
                        "x": 64,
                        "y": 0
                      },
                      {
                        "x": 64,
                        "y": 64
                      },
                      {
                        "x": 0,
                        "y": 64
                      }
                    ]
                  ]
                }
              ]
            }
          ]
        }
      ]
    }
  ],
  "objectsFolderStructure": {
    "folderName": "__ROOT",
    "children": [
      {
        "objectName": "rememberCard_palceholderPosition"
      }
    ]
  },
  "events": [
    {
      "type": "BuiltinCommonInstructions::Comment",
      "color": {
        "b": 109,
        "g": 230,
        "r": 255,
        "textB": 0,
        "textG": 0,
        "textR": 0
      },
      "comment": "Begin"
    },
    {
      "type": "BuiltinCommonInstructions::Standard",
      "conditions": [
        {
          "type": {
            "value": "DepartScene"
          },
          "parameters": [
            ""
          ]
        }
      ],
      "actions": [
        {
          "type": {
            "value": "Cache"
          },
          "parameters": [
            "rememberCard_KeyQuest"
          ]
        },
        {
          "type": {
            "value": "BuiltinExternalLayouts::CreateObjectsFromExternalLayout"
          },
          "parameters": [
            "",
            "\"RememberCard\"",
            "0",
            "0",
            "0"
          ]
        },
        {
          "type": {
            "value": "PlayMusic"
          },
          "parameters": [
            "",
            "lv1_music bg.mp3",
            "yes",
            "15",
            ""
          ]
        },
        {
          "type": {
            "value": "ShowLayer"
          },
          "parameters": [
            "",
            "\"Fade\""
          ]
        },
        {
          "type": {
            "value": "ResetTimer"
          },
          "parameters": [
            "",
            "\"rememberCard\""
          ]
        },
        {
          "type": {
            "value": "ModVarScene"
          },
          "parameters": [
            "randomNumQuesttion",
            "=",
            "RandomInRange(1,6)"
          ]
        },
        {
          "type": {
            "value": "ResizableCapability::ResizableBehavior::SetSize"
          },
          "parameters": [
            "rememberCard_animalCards",
            "Resizable",
            "195",
            "290"
          ]
        }
      ],
      "events": [
        {
          "type": "BuiltinCommonInstructions::ForEach",
          "object": "rememberCard_palceholderPosition",
          "conditions": [],
          "actions": [],
          "events": [
            {
              "type": "BuiltinCommonInstructions::Standard",
              "conditions": [
                {
                  "type": {
                    "value": "AnimationName"
                  },
                  "parameters": [
                    "rememberCard_animalCards",
                    "\"leak\""
                  ]
                }
              ],
              "actions": [
                {
                  "type": {
                    "value": "Tween::AddObjectPositionTween"
                  },
                  "parameters": [
                    "rememberCard_animalCards",
                    "Tween",
                    "\"fly_in\"",
                    "rememberCard_palceholderPosition.X()",
                    "rememberCard_palceholderPosition.Y()",
                    "\"easeOutSine\"",
                    "1000",
                    ""
                  ]
                }
              ],
              "events": [
                {
                  "type": "BuiltinCommonInstructions::Standard",
                  "conditions": [
                    {
                      "type": {
                        "value": "AjoutHasard"
                      },
                      "parameters": [
                        "",
                        "rememberCard_animalCards"
                      ]
                    }
                  ],
                  "actions": [
                    {
                      "type": {
                        "value": "SetAnimationName"
                      },
                      "parameters": [
                        "rememberCard_animalCards",
                        "\"leak2\""
                      ]
                    },
                    {
                      "type": {
                        "value": "Delete"
                      },
                      "parameters": [
                        "rememberCard_palceholderPosition",
                        ""
                      ]
                    }
                  ]
                }
              ]
            }
          ]
        },
        {
          "type": "BuiltinCommonInstructions::Standard",
          "conditions": [],
          "actions": [
            {
              "type": {
                "value": "Tween::AddObjectOpacityTween"
              },
              "parameters": [
                "screen_fade",
                "Tween",
                "\"fade_in\"",
                "0",
                "\"linear\"",
                "1000",
                ""
              ]
            }
          ]
        }
      ]
    },
    {
      "type": "BuiltinCommonInstructions::Link",
      "include": {
        "includeConfig": 0
      },
      "target": "rememberCard_audioCard"
    },
    {
      "type": "BuiltinCommonInstructions::Standard",
      "conditions": [
        {
          "type": {
            "value": "CompareTimer"
          },
          "parameters": [
            "",
            "\"rememberCard\"",
            ">=",
            "1"
          ]
        }
      ],
      "actions": [
        {
          "type": {
            "value": "ModVarScene"
          },
          "parameters": [
            "timeRemember",
            "-",
            "1"
          ]
        },
        {
          "type": {
            "value": "TextObject::String"
          },
          "parameters": [
            "rememberCard_timeRemember",
            "=",
            "ToString(Variable(timeRemember))"
          ]
        },
        {
          "type": {
            "value": "ResetTimer"
          },
          "parameters": [
            "",
            "\"rememberCard\""
          ]
        }
      ]
    },
    {
      "type": "BuiltinCommonInstructions::Standard",
      "conditions": [
        {
          "type": {
            "value": "VarScene"
          },
          "parameters": [
            "timeRemember",
            "<",
            "0"
          ]
        }
      ],
      "actions": [
        {
          "type": {
            "value": "RemoveTimer"
          },
          "parameters": [
            "",
            "\"rememberCard\""
          ]
        },
        {
          "type": {
            "value": "ModVarScene"
          },
          "parameters": [
            "timeRemember",
            "=",
            "1"
          ]
        },
        {
          "type": {
            "value": "Delete"
          },
          "parameters": [
            "rememberCard_timeRemember",
            ""
          ]
        },
        {
          "type": {
            "value": "AnimatableCapability::AnimatableBehavior::SetName"
          },
          "parameters": [
            "rememberCard_animalCards",
            "Animation",
            "=",
            "\"back\""
          ]
        },
        {
          "type": {
            "value": "ResetTimer"
          },
          "parameters": [
            "",
            "\"timePlay\""
          ]
        }
      ],
      "events": [
        {
          "type": "BuiltinCommonInstructions::Standard",
          "conditions": [
            {
              "type": {
                "value": "VarScene"
              },
              "parameters": [
                "randomNumQuesttion",
                "=",
                "1"
              ]
            }
          ],
          "actions": [
            {
              "type": {
                "value": "ModVarSceneTxt"
              },
              "parameters": [
                "randomKeyQuest",
                "=",
                "\"Cat\""
              ]
            },
            {
              "type": {
                "value": "TextContainerCapability::TextContainerBehavior::SetValue"
              },
              "parameters": [
                "rememberCard_KeyQuest",
                "Text",
                "=",
                "VariableString(randomKeyQuest)"
              ]
            },
            {
              "type": {
                "value": "Montre"
              },
              "parameters": [
                "rememberCard_KeyQuest",
                ""
              ]
            }
          ]
        },
        {
          "type": "BuiltinCommonInstructions::Standard",
          "conditions": [
            {
              "type": {
                "value": "VarScene"
              },
              "parameters": [
                "randomNumQuesttion",
                "=",
                "2"
              ]
            }
          ],
          "actions": [
            {
              "type": {
                "value": "ModVarSceneTxt"
              },
              "parameters": [
                "randomKeyQuest",
                "=",
                "\"Elephant\""
              ]
            },
            {
              "type": {
                "value": "TextContainerCapability::TextContainerBehavior::SetValue"
              },
              "parameters": [
                "rememberCard_KeyQuest",
                "Text",
                "=",
                "VariableString(randomKeyQuest)"
              ]
            },
            {
              "type": {
                "value": "Montre"
              },
              "parameters": [
                "rememberCard_KeyQuest",
                ""
              ]
            }
          ]
        },
        {
          "type": "BuiltinCommonInstructions::Standard",
          "conditions": [
            {
              "type": {
                "value": "VarScene"
              },
              "parameters": [
                "randomNumQuesttion",
                "=",
                "3"
              ]
            }
          ],
          "actions": [
            {
              "type": {
                "value": "ModVarSceneTxt"
              },
              "parameters": [
                "randomKeyQuest",
                "=",
                "\"Cock\""
              ]
            },
            {
              "type": {
                "value": "TextContainerCapability::TextContainerBehavior::SetValue"
              },
              "parameters": [
                "rememberCard_KeyQuest",
                "Text",
                "=",
                "VariableString(randomKeyQuest)"
              ]
            },
            {
              "type": {
                "value": "Montre"
              },
              "parameters": [
                "rememberCard_KeyQuest",
                ""
              ]
            }
          ]
        },
        {
          "type": "BuiltinCommonInstructions::Standard",
          "conditions": [
            {
              "type": {
                "value": "VarScene"
              },
              "parameters": [
                "randomNumQuesttion",
                "=",
                "4"
              ]
            }
          ],
          "actions": [
            {
              "type": {
                "value": "ModVarSceneTxt"
              },
              "parameters": [
                "randomKeyQuest",
                "=",
                "\"Penguin\""
              ]
            },
            {
              "type": {
                "value": "TextContainerCapability::TextContainerBehavior::SetValue"
              },
              "parameters": [
                "rememberCard_KeyQuest",
                "Text",
                "=",
                "VariableString(randomKeyQuest)"
              ]
            },
            {
              "type": {
                "value": "Montre"
              },
              "parameters": [
                "rememberCard_KeyQuest",
                ""
              ]
            }
          ]
        },
        {
          "type": "BuiltinCommonInstructions::Standard",
          "conditions": [
            {
              "type": {
                "value": "VarScene"
              },
              "parameters": [
                "randomNumQuesttion",
                "=",
                "5"
              ]
            }
          ],
          "actions": [
            {
              "type": {
                "value": "ModVarSceneTxt"
              },
              "parameters": [
                "randomKeyQuest",
                "=",
                "\"Lion\""
              ]
            },
            {
              "type": {
                "value": "TextContainerCapability::TextContainerBehavior::SetValue"
              },
              "parameters": [
                "rememberCard_KeyQuest",
                "Text",
                "=",
                "VariableString(randomKeyQuest)"
              ]
            },
            {
              "type": {
                "value": "Montre"
              },
              "parameters": [
                "rememberCard_KeyQuest",
                ""
              ]
            }
          ]
        },
        {
          "type": "BuiltinCommonInstructions::Standard",
          "conditions": [
            {
              "type": {
                "value": "VarScene"
              },
              "parameters": [
                "randomNumQuesttion",
                "=",
                "6"
              ]
            }
          ],
          "actions": [
            {
              "type": {
                "value": "ModVarSceneTxt"
              },
              "parameters": [
                "randomKeyQuest",
                "=",
                "\"Giraffe\""
              ]
            },
            {
              "type": {
                "value": "TextContainerCapability::TextContainerBehavior::SetValue"
              },
              "parameters": [
                "rememberCard_KeyQuest",
                "Text",
                "=",
                "VariableString(randomKeyQuest)"
              ]
            },
            {
              "type": {
                "value": "Montre"
              },
              "parameters": [
                "rememberCard_KeyQuest",
                ""
              ]
            }
          ]
        }
      ]
    },
    {
      "type": "BuiltinCommonInstructions::Standard",
      "conditions": [
        {
          "type": {
            "value": "CompareTimer"
          },
          "parameters": [
            "",
            "\"timePlay\"",
            ">=",
            "1"
          ]
        }
      ],
      "actions": [
        {
          "type": {
            "value": "ModVarScene"
          },
          "parameters": [
            "timePlayRememberCard",
            "-",
            "1"
          ]
        },
        {
          "type": {
            "value": "TextContainerCapability::TextContainerBehavior::SetValue"
          },
          "parameters": [
            "remembarCard_timePlayLv1",
            "Text",
            "=",
            "ToString(Variable(timePlayRememberCard))"
          ]
        },
        {
          "type": {
            "value": "ResetTimer"
          },
          "parameters": [
            "",
            "\"timePlay\""
          ]
        }
      ]
    },
    {
      "type": "BuiltinCommonInstructions::Comment",
      "color": {
        "b": 109,
        "g": 230,
        "r": 255,
        "textB": 0,
        "textG": 0,
        "textR": 0
      },
      "comment": "Animation when picking a card"
    },
    {
      "type": "BuiltinCommonInstructions::Standard",
      "conditions": [
        {
          "type": {
            "value": "MouseButtonReleased"
          },
          "parameters": [
            "",
            "Left"
          ]
        },
        {
          "type": {
            "value": "SourisSurObjet"
          },
          "parameters": [
            "rememberCard_animalCards",
            "",
            "",
            ""
          ]
        },
        {
          "type": {
            "value": "AnimationName"
          },
          "parameters": [
            "rememberCard_animalCards",
            "\"back\""
          ]
        }
      ],
      "actions": [
        {
          "type": {
            "value": "Tween::RemoveTween"
          },
          "parameters": [
            "rememberCard_animalCards",
            "Tween",
            "\"uncover_1\""
          ]
        },
        {
          "type": {
            "value": "Tween::AddObjectScaleXTween"
          },
          "parameters": [
            "rememberCard_animalCards",
            "Tween",
            "\"uncover_0\"",
            "0",
            "\"linear\"",
            "125",
            "",
            "yes"
          ]
        },
        {
          "type": {
            "value": "ModVarScene"
          },
          "parameters": [
            "timePlayRememberCard",
            "-",
            "5"
          ]
        },
        {
          "type": {
            "value": "Create"
          },
          "parameters": [
            "",
            "subtractTime",
            "1679",
            "190",
            ""
          ]
        },
        {
          "type": {
            "value": "Wait"
          },
          "parameters": [
            "0.3"
          ]
        },
        {
          "type": {
            "value": "Delete"
          },
          "parameters": [
            "subtractTime",
            ""
          ]
        }
      ],
      "events": [
        {
          "type": "BuiltinCommonInstructions::Comment",
          "color": {
            "b": 109,
            "g": 230,
            "r": 255,
            "textB": 0,
            "textG": 0,
            "textR": 0
          },
          "comment": "Random question"
        }
      ]
    },
    {
      "type": "BuiltinCommonInstructions::Standard",
      "conditions": [
        {
          "type": {
            "value": "VarScene"
          },
          "parameters": [
            "randomNumQuesttion",
            "=",
            "6"
          ]
        },
        {
          "type": {
            "value": "MouseButtonReleased"
          },
          "parameters": [
            "",
            "Left"
          ]
        },
        {
          "type": {
            "value": "SourisSurObjet"
          },
          "parameters": [
            "rememberCard_giraffeCard",
            "",
            "",
            ""
          ]
        }
      ],
      "actions": [
        {
          "type": {
            "value": "Wait"
          },
          "parameters": [
            "1"
          ]
        }
      ],
      "events": [
        {
          "type": "BuiltinCommonInstructions::Standard",
          "conditions": [
            {
              "type": {
                "value": "AnimationName"
              },
              "parameters": [
                "rememberCard_giraffeCard",
                "\"leak\""
              ]
            }
          ],
          "actions": [
            {
              "type": {
                "value": "ModVarScene"
              },
              "parameters": [
                "timePlayRememberCard",
                "+",
                "5"
              ]
            },
            {
              "type": {
                "value": "PauseTimer"
              },
              "parameters": [
                "",
                "\"timePlay\""
              ]
            },
            {
              "type": {
                "value": "Scene"
              },
              "parameters": [
                "",
                "\"test\"",
                ""
              ]
            }
          ]
        },
        {
          "type": "BuiltinCommonInstructions::Standard",
          "conditions": [],
          "actions": []
        }
      ]
    },
    {
      "type": "BuiltinCommonInstructions::Standard",
      "conditions": [
        {
          "type": {
            "value": "VarScene"
          },
          "parameters": [
            "randomNumQuesttion",
            "=",
            "5"
          ]
        },
        {
          "type": {
            "value": "MouseButtonReleased"
          },
          "parameters": [
            "",
            "Left"
          ]
        },
        {
          "type": {
            "value": "SourisSurObjet"
          },
          "parameters": [
            "rememberCard_lionCard",
            "",
            "",
            ""
          ]
        }
      ],
      "actions": [
        {
          "type": {
            "value": "Wait"
          },
          "parameters": [
            "1"
          ]
        }
      ],
      "events": [
        {
          "type": "BuiltinCommonInstructions::Standard",
          "conditions": [
            {
              "type": {
                "value": "AnimationName"
              },
              "parameters": [
                "rememberCard_lionCard",
                "\"leak\""
              ]
            }
          ],
          "actions": [
            {
              "type": {
                "value": "ModVarScene"
              },
              "parameters": [
                "timePlayRememberCard",
                "+",
                "5"
              ]
            },
            {
              "type": {
                "value": "PauseTimer"
              },
              "parameters": [
                "",
                "\"timePlay\""
              ]
            },
            {
              "type": {
                "value": "Scene"
              },
              "parameters": [
                "",
                "\"test\"",
                ""
              ]
            }
          ]
        },
        {
          "type": "BuiltinCommonInstructions::Standard",
          "conditions": [],
          "actions": []
        }
      ]
    },
    {
      "type": "BuiltinCommonInstructions::Standard",
      "conditions": [
        {
          "type": {
            "value": "VarScene"
          },
          "parameters": [
            "randomNumQuesttion",
            "=",
            "4"
          ]
        },
        {
          "type": {
            "value": "MouseButtonReleased"
          },
          "parameters": [
            "",
            "Left"
          ]
        },
        {
          "type": {
            "value": "SourisSurObjet"
          },
          "parameters": [
            "rememberCard_penguinCard",
            "",
            "",
            ""
          ]
        }
      ],
      "actions": [
        {
          "type": {
            "value": "Wait"
          },
          "parameters": [
            "1"
          ]
        }
      ],
      "events": [
        {
          "type": "BuiltinCommonInstructions::Standard",
          "conditions": [
            {
              "type": {
                "value": "AnimationName"
              },
              "parameters": [
                "rememberCard_penguinCard",
                "\"leak\""
              ]
            }
          ],
          "actions": [
            {
              "type": {
                "value": "ModVarScene"
              },
              "parameters": [
                "timePlayRememberCard",
                "+",
                "5"
              ]
            },
            {
              "type": {
                "value": "PauseTimer"
              },
              "parameters": [
                "",
                "\"timePlay\""
              ]
            },
            {
              "type": {
                "value": "Scene"
              },
              "parameters": [
                "",
                "\"test\"",
                ""
              ]
            }
          ]
        },
        {
          "type": "BuiltinCommonInstructions::Standard",
          "conditions": [],
          "actions": []
        }
      ]
    },
    {
      "type": "BuiltinCommonInstructions::Standard",
      "conditions": [
        {
          "type": {
            "value": "VarScene"
          },
          "parameters": [
            "randomNumQuesttion",
            "=",
            "2"
          ]
        },
        {
          "type": {
            "value": "MouseButtonReleased"
          },
          "parameters": [
            "",
            "Left"
          ]
        },
        {
          "type": {
            "value": "SourisSurObjet"
          },
          "parameters": [
            "rememberCard_elephantCard",
            "",
            "",
            ""
          ]
        }
      ],
      "actions": [
        {
          "type": {
            "value": "Wait"
          },
          "parameters": [
            "1"
          ]
        }
      ],
      "events": [
        {
          "type": "BuiltinCommonInstructions::Standard",
          "conditions": [
            {
              "type": {
                "value": "AnimationName"
              },
              "parameters": [
                "rememberCard_elephantCard",
                "\"leak\""
              ]
            }
          ],
          "actions": [
            {
              "type": {
                "value": "ModVarScene"
              },
              "parameters": [
                "timePlayRememberCard",
                "+",
                "5"
              ]
            },
            {
              "type": {
                "value": "PauseTimer"
              },
              "parameters": [
                "",
                "\"timePlay\""
              ]
            },
            {
              "type": {
                "value": "Scene"
              },
              "parameters": [
                "",
                "\"test\"",
                ""
              ]
            }
          ]
        },
        {
          "type": "BuiltinCommonInstructions::Standard",
          "conditions": [],
          "actions": []
        }
      ]
    },
    {
      "type": "BuiltinCommonInstructions::Standard",
      "conditions": [
        {
          "type": {
            "value": "VarScene"
          },
          "parameters": [
            "randomNumQuesttion",
            "=",
            "3"
          ]
        },
        {
          "type": {
            "value": "MouseButtonReleased"
          },
          "parameters": [
            "",
            "Left"
          ]
        },
        {
          "type": {
            "value": "SourisSurObjet"
          },
          "parameters": [
            "rememberCard_cockCard",
            "",
            "",
            ""
          ]
        }
      ],
      "actions": [
        {
          "type": {
            "value": "Wait"
          },
          "parameters": [
            "1"
          ]
        }
      ],
      "events": [
        {
          "type": "BuiltinCommonInstructions::Standard",
          "conditions": [
            {
              "type": {
                "value": "AnimationName"
              },
              "parameters": [
                "rememberCard_cockCard",
                "\"leak\""
              ]
            }
          ],
          "actions": [
            {
              "type": {
                "value": "ModVarScene"
              },
              "parameters": [
                "timePlayRememberCard",
                "+",
                "5"
              ]
            },
            {
              "type": {
                "value": "PauseTimer"
              },
              "parameters": [
                "",
                "\"timePlay\""
              ]
            },
            {
              "type": {
                "value": "Scene"
              },
              "parameters": [
                "",
                "\"test\"",
                ""
              ]
            }
          ]
        },
        {
          "type": "BuiltinCommonInstructions::Standard",
          "conditions": [],
          "actions": []
        }
      ]
    },
    {
      "type": "BuiltinCommonInstructions::Standard",
      "conditions": [
        {
          "type": {
            "value": "VarScene"
          },
          "parameters": [
            "randomNumQuesttion",
            "=",
            "1"
          ]
        },
        {
          "type": {
            "value": "MouseButtonReleased"
          },
          "parameters": [
            "",
            "Left"
          ]
        },
        {
          "type": {
            "value": "SourisSurObjet"
          },
          "parameters": [
            "rememberCard_catCard",
            "",
            "",
            ""
          ]
        }
      ],
      "actions": [
        {
          "type": {
            "value": "Wait"
          },
          "parameters": [
            "1"
          ]
        }
      ],
      "events": [
        {
          "type": "BuiltinCommonInstructions::Standard",
          "conditions": [
            {
              "type": {
                "value": "AnimationName"
              },
              "parameters": [
                "rememberCard_catCard",
                "\"leak\""
              ]
            }
          ],
          "actions": [
            {
              "type": {
                "value": "ModVarScene"
              },
              "parameters": [
                "timePlayRememberCard",
                "+",
                "5"
              ]
            },
            {
              "type": {
                "value": "PauseTimer"
              },
              "parameters": [
                "",
                "\"timePlay\""
              ]
            },
            {
              "type": {
                "value": "Scene"
              },
              "parameters": [
                "",
                "\"test\"",
                ""
              ]
            }
          ]
        },
        {
          "type": "BuiltinCommonInstructions::Standard",
          "conditions": [],
          "actions": []
        }
      ]
    },
    {
      "type": "BuiltinCommonInstructions::Standard",
      "conditions": [
        {
          "type": {
            "value": "Tween::HasFinished"
          },
          "parameters": [
            "rememberCard_animalCards",
            "Tween",
            "\"uncover_0\""
          ]
        }
      ],
      "actions": [
        {
          "type": {
            "value": "AnimatableCapability::AnimatableBehavior::SetName"
          },
          "parameters": [
            "rememberCard_animalCards",
            "Animation",
            "=",
            "\"leak\""
          ]
        },
        {
          "type": {
            "value": "Tween::RemoveTween"
          },
          "parameters": [
            "rememberCard_animalCards",
            "Tween",
            "\"uncover_0\""
          ]
        },
        {
          "type": {
            "value": "Tween::AddObjectScaleXTween"
          },
          "parameters": [
            "rememberCard_animalCards",
            "Tween",
            "\"uncover_1\"",
            "1.35",
            "\"linear\"",
            "125",
            "",
            "yes"
          ]
        }
      ],
      "events": [
        {
          "type": "BuiltinCommonInstructions::Standard",
          "conditions": [
            {
              "type": {
                "value": "AnimationName"
              },
              "parameters": [
                "rememberCard_animalCards",
                "\"leak\""
              ]
            },
            {
              "type": {
                "value": "BuiltinCommonInstructions::Once"
              },
              "parameters": []
            }
          ],
          "actions": [
            {
              "type": {
                "value": "Wait"
              },
              "parameters": [
                "1.2"
              ]
            },
            {
              "type": {
                "value": "Tween::RemoveTween"
              },
              "parameters": [
                "rememberCard_animalCards",
                "Tween",
                "\"cover_1\""
              ]
            },
            {
              "type": {
                "value": "Tween::AddObjectScaleXTween"
              },
              "parameters": [
                "rememberCard_animalCards",
                "Tween",
                "\"cover_0\"",
                "0",
                "\"linear\"",
                "125",
                "",
                "yes"
              ]
            }
          ]
        }
      ]
    },
    {
      "type": "BuiltinCommonInstructions::Standard",
      "conditions": [
        {
          "type": {
            "value": "Tween::HasFinished"
          },
          "parameters": [
            "rememberCard_animalCards",
            "Tween",
            "\"cover_0\""
          ]
        }
      ],
      "actions": [
        {
          "type": {
            "value": "AnimatableCapability::AnimatableBehavior::SetName"
          },
          "parameters": [
            "rememberCard_animalCards",
            "Animation",
            "=",
            "\"back\""
          ]
        },
        {
          "type": {
            "value": "Tween::RemoveTween"
          },
          "parameters": [
            "rememberCard_animalCards",
            "Tween",
            "\"cover_0\""
          ]
        },
        {
          "type": {
            "value": "Tween::AddObjectScaleXTween"
          },
          "parameters": [
            "rememberCard_animalCards",
            "Tween",
            "\"cover_1\"",
            "1.35",
            "\"linear\"",
            "125",
            "",
            "yes"
          ]
        }
      ]
    },
    {
      "type": "BuiltinCommonInstructions::Standard",
      "conditions": [
        {
          "type": {
            "value": "VarScene"
          },
          "parameters": [
            "timePlayRememberCard",
            "<=",
            "0"
          ]
        }
      ],
      "actions": [
        {
          "type": {
            "value": "PauseTimer"
          },
          "parameters": [
            "",
            "\"timePlay\""
          ]
        },
        {
          "type": {
            "value": "Scene"
          },
          "parameters": [
            "",
            "\"test\"",
            ""
          ]
        }
      ]
    }
  ],
  "layers": [
    {
      "ambientLightColorB": 200,
      "ambientLightColorG": 200,
      "ambientLightColorR": 200,
      "camera3DFarPlaneDistance": 10000,
      "camera3DFieldOfView": 45,
      "camera3DNearPlaneDistance": 0.1,
      "followBaseLayerCamera": false,
      "isLightingLayer": false,
      "isLocked": false,
      "name": "Background",
      "renderingType": "",
      "visibility": true,
      "cameras": [],
      "effects": [
        {
          "effectType": "Scene3D::HemisphereLight",
          "name": "3D Light",
          "doubleParameters": {
            "elevation": 45,
            "intensity": 1,
            "rotation": 0
          },
          "stringParameters": {
            "groundColor": "64;64;64",
            "skyColor": "255;255;255",
            "top": "Y-"
          },
          "booleanParameters": {}
        }
      ]
    },
    {
      "ambientLightColorB": 0,
      "ambientLightColorG": 8042920,
      "ambientLightColorR": 16,
      "camera3DFarPlaneDistance": 10000,
      "camera3DFieldOfView": 45,
      "camera3DNearPlaneDistance": 0.1,
      "followBaseLayerCamera": false,
      "isLightingLayer": false,
      "isLocked": false,
      "name": "",
      "renderingType": "",
      "visibility": true,
      "cameras": [
        {
          "defaultSize": true,
          "defaultViewport": true,
          "height": 0,
          "viewportBottom": 1,
          "viewportLeft": 0,
          "viewportRight": 1,
          "viewportTop": 0,
          "width": 0
        }
      ],
      "effects": []
    },
    {
      "ambientLightColorB": 200,
      "ambientLightColorG": 200,
      "ambientLightColorR": 200,
      "camera3DFarPlaneDistance": 10000,
      "camera3DFieldOfView": 45,
      "camera3DNearPlaneDistance": 0.1,
      "followBaseLayerCamera": false,
      "isLightingLayer": false,
      "isLocked": false,
      "name": "Fade",
      "renderingType": "",
      "visibility": false,
      "cameras": [],
      "effects": [
        {
          "effectType": "Scene3D::HemisphereLight",
          "name": "3D Light",
          "doubleParameters": {
            "elevation": 45,
            "intensity": 1,
            "rotation": 0
          },
          "stringParameters": {
            "groundColor": "64;64;64",
            "skyColor": "255;255;255",
            "top": "Y-"
          },
          "booleanParameters": {}
        }
      ]
    }
  ],
  "behaviorsSharedData": [
    {
      "name": "Animation",
      "type": "AnimatableCapability::AnimatableBehavior"
    },
    {
      "name": "Effect",
      "type": "EffectCapability::EffectBehavior"
    },
    {
      "name": "Flippable",
      "type": "FlippableCapability::FlippableBehavior"
    },
    {
      "name": "Opacity",
      "type": "OpacityCapability::OpacityBehavior"
    },
    {
      "name": "RectangleMovement",
      "type": "RectangleMovement::RectangleMovement"
    },
    {
      "name": "Resizable",
      "type": "ResizableCapability::ResizableBehavior"
    },
    {
      "name": "Scale",
      "type": "ScalableCapability::ScalableBehavior"
    },
    {
      "name": "ShakeObject_PositionAngle",
      "type": "ShakeObject::ShakeObject_PositionAngle"
    },
    {
      "name": "ShakeObject_PositionAngleScale",
      "type": "ShakeObject::ShakeObject_PositionAngleScale"
    },
    {
      "name": "Text",
      "type": "TextContainerCapability::TextContainerBehavior"
    },
    {
      "name": "Tween",
      "type": "Tween::TweenBehavior"
    }
  ]
}